%!PS-Adobe-3.0 EPSF-3.0
%%Creator: (MATLAB, The Mathworks, Inc. Version 9.3.0.713579 \(R2017b\). Operating System: Windows 10)
%%Title: ./Exercise3_gauss.eps
%%CreationDate: 2019-05-19T00:16:10
%%Pages: (atend)
%%BoundingBox:    19     4   384   292
%%LanguageLevel: 3
%%EndComments
%%BeginProlog
%%BeginResource: procset (Apache XML Graphics Std ProcSet) 1.2 0
%%Version: 1.2 0
%%Copyright: (Copyright 2001-2003,2010 The Apache Software Foundation. License terms: http://www.apache.org/licenses/LICENSE-2.0)
/bd{bind def}bind def
/ld{load def}bd
/GR/grestore ld
/GS/gsave ld
/RM/rmoveto ld
/C/curveto ld
/t/show ld
/L/lineto ld
/ML/setmiterlimit ld
/CT/concat ld
/f/fill ld
/N/newpath ld
/S/stroke ld
/CC/setcmykcolor ld
/A/ashow ld
/cp/closepath ld
/RC/setrgbcolor ld
/LJ/setlinejoin ld
/GC/setgray ld
/LW/setlinewidth ld
/M/moveto ld
/re {4 2 roll M
1 index 0 rlineto
0 exch rlineto
neg 0 rlineto
cp } bd
/_ctm matrix def
/_tm matrix def
/BT { _ctm currentmatrix pop matrix _tm copy pop 0 0 moveto } bd
/ET { _ctm setmatrix } bd
/iTm { _ctm setmatrix _tm concat } bd
/Tm { _tm astore pop iTm 0 0 moveto } bd
/ux 0.0 def
/uy 0.0 def
/F {
  /Tp exch def
  /Tf exch def
  Tf findfont Tp scalefont setfont
  /cf Tf def  /cs Tp def
} bd
/ULS {currentpoint /uy exch def /ux exch def} bd
/ULE {
  /Tcx currentpoint pop def
  gsave
  newpath
  cf findfont cs scalefont dup
  /FontMatrix get 0 get /Ts exch def /FontInfo get dup
  /UnderlinePosition get Ts mul /To exch def
  /UnderlineThickness get Ts mul /Tt exch def
  ux uy To add moveto  Tcx uy To add lineto
  Tt setlinewidth stroke
  grestore
} bd
/OLE {
  /Tcx currentpoint pop def
  gsave
  newpath
  cf findfont cs scalefont dup
  /FontMatrix get 0 get /Ts exch def /FontInfo get dup
  /UnderlinePosition get Ts mul /To exch def
  /UnderlineThickness get Ts mul /Tt exch def
  ux uy To add cs add moveto Tcx uy To add cs add lineto
  Tt setlinewidth stroke
  grestore
} bd
/SOE {
  /Tcx currentpoint pop def
  gsave
  newpath
  cf findfont cs scalefont dup
  /FontMatrix get 0 get /Ts exch def /FontInfo get dup
  /UnderlinePosition get Ts mul /To exch def
  /UnderlineThickness get Ts mul /Tt exch def
  ux uy To add cs 10 mul 26 idiv add moveto Tcx uy To add cs 10 mul 26 idiv add lineto
  Tt setlinewidth stroke
  grestore
} bd
/QT {
/Y22 exch store
/X22 exch store
/Y21 exch store
/X21 exch store
currentpoint
/Y21 load 2 mul add 3 div exch
/X21 load 2 mul add 3 div exch
/X21 load 2 mul /X22 load add 3 div
/Y21 load 2 mul /Y22 load add 3 div
/X22 load /Y22 load curveto
} bd
/SSPD {
dup length /d exch dict def
{
/v exch def
/k exch def
currentpagedevice k known {
/cpdv currentpagedevice k get def
v cpdv ne {
/upd false def
/nullv v type /nulltype eq def
/nullcpdv cpdv type /nulltype eq def
nullv nullcpdv or
{
/upd true def
} {
/sametype v type cpdv type eq def
sametype {
v type /arraytype eq {
/vlen v length def
/cpdvlen cpdv length def
vlen cpdvlen eq {
0 1 vlen 1 sub {
/i exch def
/obj v i get def
/cpdobj cpdv i get def
obj cpdobj ne {
/upd true def
exit
} if
} for
} {
/upd true def
} ifelse
} {
v type /dicttype eq {
v {
/dv exch def
/dk exch def
/cpddv cpdv dk get def
dv cpddv ne {
/upd true def
exit
} if
} forall
} {
/upd true def
} ifelse
} ifelse
} if
} ifelse
upd true eq {
d k v put
} if
} if
} if
} forall
d length 0 gt {
d setpagedevice
} if
} bd
/RE { % /NewFontName [NewEncodingArray] /FontName RE -
  findfont dup length dict begin
  {
    1 index /FID ne
    {def} {pop pop} ifelse
  } forall
  /Encoding exch def
  /FontName 1 index def
  currentdict definefont pop
  end
} bind def
%%EndResource
%%BeginResource: procset (Apache XML Graphics EPS ProcSet) 1.0 0
%%Version: 1.0 0
%%Copyright: (Copyright 2002-2003 The Apache Software Foundation. License terms: http://www.apache.org/licenses/LICENSE-2.0)
/BeginEPSF { %def
/b4_Inc_state save def         % Save state for cleanup
/dict_count countdictstack def % Count objects on dict stack
/op_count count 1 sub def      % Count objects on operand stack
userdict begin                 % Push userdict on dict stack
/showpage { } def              % Redefine showpage, { } = null proc
0 setgray 0 setlinecap         % Prepare graphics state
1 setlinewidth 0 setlinejoin
10 setmiterlimit [ ] 0 setdash newpath
/languagelevel where           % If level not equal to 1 then
{pop languagelevel             % set strokeadjust and
1 ne                           % overprint to their defaults.
{false setstrokeadjust false setoverprint
} if
} if
} bd
/EndEPSF { %def
count op_count sub {pop} repeat            % Clean up stacks
countdictstack dict_count sub {end} repeat
b4_Inc_state restore
} bd
%%EndResource
%FOPBeginFontDict
%%IncludeResource: font Courier-Oblique
%%IncludeResource: font Courier-BoldOblique
%%IncludeResource: font Courier-Bold
%%IncludeResource: font ZapfDingbats
%%IncludeResource: font Symbol
%%IncludeResource: font Helvetica
%%IncludeResource: font Helvetica-Oblique
%%IncludeResource: font Helvetica-Bold
%%IncludeResource: font Helvetica-BoldOblique
%%IncludeResource: font Times-Roman
%%IncludeResource: font Times-Italic
%%IncludeResource: font Times-Bold
%%IncludeResource: font Times-BoldItalic
%%IncludeResource: font Courier
%FOPEndFontDict
%%BeginResource: encoding WinAnsiEncoding
/WinAnsiEncoding [
/.notdef /.notdef /.notdef /.notdef /.notdef
/.notdef /.notdef /.notdef /.notdef /.notdef
/.notdef /.notdef /.notdef /.notdef /.notdef
/.notdef /.notdef /.notdef /.notdef /.notdef
/.notdef /.notdef /.notdef /.notdef /.notdef
/.notdef /.notdef /.notdef /.notdef /.notdef
/.notdef /.notdef /space /exclam /quotedbl
/numbersign /dollar /percent /ampersand /quotesingle
/parenleft /parenright /asterisk /plus /comma
/hyphen /period /slash /zero /one
/two /three /four /five /six
/seven /eight /nine /colon /semicolon
/less /equal /greater /question /at
/A /B /C /D /E
/F /G /H /I /J
/K /L /M /N /O
/P /Q /R /S /T
/U /V /W /X /Y
/Z /bracketleft /backslash /bracketright /asciicircum
/underscore /quoteleft /a /b /c
/d /e /f /g /h
/i /j /k /l /m
/n /o /p /q /r
/s /t /u /v /w
/x /y /z /braceleft /bar
/braceright /asciitilde /bullet /Euro /bullet
/quotesinglbase /florin /quotedblbase /ellipsis /dagger
/daggerdbl /circumflex /perthousand /Scaron /guilsinglleft
/OE /bullet /Zcaron /bullet /bullet
/quoteleft /quoteright /quotedblleft /quotedblright /bullet
/endash /emdash /asciitilde /trademark /scaron
/guilsinglright /oe /bullet /zcaron /Ydieresis
/space /exclamdown /cent /sterling /currency
/yen /brokenbar /section /dieresis /copyright
/ordfeminine /guillemotleft /logicalnot /sfthyphen /registered
/macron /degree /plusminus /twosuperior /threesuperior
/acute /mu /paragraph /middot /cedilla
/onesuperior /ordmasculine /guillemotright /onequarter /onehalf
/threequarters /questiondown /Agrave /Aacute /Acircumflex
/Atilde /Adieresis /Aring /AE /Ccedilla
/Egrave /Eacute /Ecircumflex /Edieresis /Igrave
/Iacute /Icircumflex /Idieresis /Eth /Ntilde
/Ograve /Oacute /Ocircumflex /Otilde /Odieresis
/multiply /Oslash /Ugrave /Uacute /Ucircumflex
/Udieresis /Yacute /Thorn /germandbls /agrave
/aacute /acircumflex /atilde /adieresis /aring
/ae /ccedilla /egrave /eacute /ecircumflex
/edieresis /igrave /iacute /icircumflex /idieresis
/eth /ntilde /ograve /oacute /ocircumflex
/otilde /odieresis /divide /oslash /ugrave
/uacute /ucircumflex /udieresis /yacute /thorn
/ydieresis
] def
%%EndResource
%FOPBeginFontReencode
/Courier-Oblique findfont
dup length dict begin
  {1 index /FID ne {def} {pop pop} ifelse} forall
  /Encoding WinAnsiEncoding def
  currentdict
end
/Courier-Oblique exch definefont pop
/Courier-BoldOblique findfont
dup length dict begin
  {1 index /FID ne {def} {pop pop} ifelse} forall
  /Encoding WinAnsiEncoding def
  currentdict
end
/Courier-BoldOblique exch definefont pop
/Courier-Bold findfont
dup length dict begin
  {1 index /FID ne {def} {pop pop} ifelse} forall
  /Encoding WinAnsiEncoding def
  currentdict
end
/Courier-Bold exch definefont pop
/Helvetica findfont
dup length dict begin
  {1 index /FID ne {def} {pop pop} ifelse} forall
  /Encoding WinAnsiEncoding def
  currentdict
end
/Helvetica exch definefont pop
/Helvetica-Oblique findfont
dup length dict begin
  {1 index /FID ne {def} {pop pop} ifelse} forall
  /Encoding WinAnsiEncoding def
  currentdict
end
/Helvetica-Oblique exch definefont pop
/Helvetica-Bold findfont
dup length dict begin
  {1 index /FID ne {def} {pop pop} ifelse} forall
  /Encoding WinAnsiEncoding def
  currentdict
end
/Helvetica-Bold exch definefont pop
/Helvetica-BoldOblique findfont
dup length dict begin
  {1 index /FID ne {def} {pop pop} ifelse} forall
  /Encoding WinAnsiEncoding def
  currentdict
end
/Helvetica-BoldOblique exch definefont pop
/Times-Roman findfont
dup length dict begin
  {1 index /FID ne {def} {pop pop} ifelse} forall
  /Encoding WinAnsiEncoding def
  currentdict
end
/Times-Roman exch definefont pop
/Times-Italic findfont
dup length dict begin
  {1 index /FID ne {def} {pop pop} ifelse} forall
  /Encoding WinAnsiEncoding def
  currentdict
end
/Times-Italic exch definefont pop
/Times-Bold findfont
dup length dict begin
  {1 index /FID ne {def} {pop pop} ifelse} forall
  /Encoding WinAnsiEncoding def
  currentdict
end
/Times-Bold exch definefont pop
/Times-BoldItalic findfont
dup length dict begin
  {1 index /FID ne {def} {pop pop} ifelse} forall
  /Encoding WinAnsiEncoding def
  currentdict
end
/Times-BoldItalic exch definefont pop
/Courier findfont
dup length dict begin
  {1 index /FID ne {def} {pop pop} ifelse} forall
  /Encoding WinAnsiEncoding def
  currentdict
end
/Courier exch definefont pop
%FOPEndFontReencode
%%EndProlog
%%Page: 1 1
%%PageBoundingBox: 0 0 420 315
%%BeginPageSetup
[1 0 0 -1 0 315] CT
%%EndPageSetup
GS
[0.375 0 0 0.375 0 0] CT
1 GC
N
0 0 1120 840 re
f
GR
GS
[0.375 0 0 0.375 0 0] CT
1 GC
N
0 0 1120 840 re
f
GR
GS
[0.375 0 0 0.375 0 0] CT
1 GC
N
146 748 M
1014 748 L
1014 63 L
146 63 L
cp
f
GR
GS
[0.375 0 0 0.375 0 0] CT
0.873 GC
1 LJ
1.333 LW
N
146 748 M
146 63 L
S
GR
GS
[0.375 0 0 0.375 0 0] CT
0.873 GC
1 LJ
1.333 LW
N
290.667 748 M
290.667 63 L
S
GR
GS
[0.375 0 0 0.375 0 0] CT
0.873 GC
1 LJ
1.333 LW
N
435.333 748 M
435.333 63 L
S
GR
GS
[0.375 0 0 0.375 0 0] CT
0.873 GC
1 LJ
1.333 LW
N
580 748 M
580 63 L
S
GR
GS
[0.375 0 0 0.375 0 0] CT
0.873 GC
1 LJ
1.333 LW
N
724.667 748 M
724.667 63 L
S
GR
GS
[0.375 0 0 0.375 0 0] CT
0.873 GC
1 LJ
1.333 LW
N
869.333 748 M
869.333 63 L
S
GR
GS
[0.375 0 0 0.375 0 0] CT
0.873 GC
1 LJ
1.333 LW
N
1014 748 M
1014 63 L
S
GR
GS
[0.375 0 0 0.375 0 0] CT
0.873 GC
1 LJ
1.333 LW
N
1014 748 M
146 748 L
S
GR
GS
[0.375 0 0 0.375 0 0] CT
0.873 GC
1 LJ
1.333 LW
N
1014 623.455 M
146 623.455 L
S
GR
GS
[0.375 0 0 0.375 0 0] CT
0.873 GC
1 LJ
1.333 LW
N
1014 498.909 M
146 498.909 L
S
GR
GS
[0.375 0 0 0.375 0 0] CT
0.873 GC
1 LJ
1.333 LW
N
1014 374.364 M
146 374.364 L
S
GR
GS
[0.375 0 0 0.375 0 0] CT
0.873 GC
1 LJ
1.333 LW
N
1014 249.818 M
146 249.818 L
S
GR
GS
[0.375 0 0 0.375 0 0] CT
0.873 GC
1 LJ
1.333 LW
N
1014 125.273 M
146 125.273 L
S
GR
GS
[0.375 0 0 0.375 0 0] CT
0.149 GC
2 setlinecap
1 LJ
1.333 LW
N
146 748 M
1014 748 L
S
GR
GS
[0.375 0 0 0.375 0 0] CT
0.149 GC
2 setlinecap
1 LJ
1.333 LW
N
146 63 M
1014 63 L
S
GR
GS
[0.375 0 0 0.375 0 0] CT
0.149 GC
2 setlinecap
1 LJ
1.333 LW
N
146 748 M
146 739.32 L
S
GR
GS
[0.375 0 0 0.375 0 0] CT
0.149 GC
2 setlinecap
1 LJ
1.333 LW
N
290.667 748 M
290.667 739.32 L
S
GR
GS
[0.375 0 0 0.375 0 0] CT
0.149 GC
2 setlinecap
1 LJ
1.333 LW
N
435.333 748 M
435.333 739.32 L
S
GR
GS
[0.375 0 0 0.375 0 0] CT
0.149 GC
2 setlinecap
1 LJ
1.333 LW
N
580 748 M
580 739.32 L
S
GR
GS
[0.375 0 0 0.375 0 0] CT
0.149 GC
2 setlinecap
1 LJ
1.333 LW
N
724.667 748 M
724.667 739.32 L
S
GR
GS
[0.375 0 0 0.375 0 0] CT
0.149 GC
2 setlinecap
1 LJ
1.333 LW
N
869.333 748 M
869.333 739.32 L
S
GR
GS
[0.375 0 0 0.375 0 0] CT
0.149 GC
2 setlinecap
1 LJ
1.333 LW
N
1014 748 M
1014 739.32 L
S
GR
GS
[0.375 0 0 0.375 0 0] CT
0.149 GC
2 setlinecap
1 LJ
1.333 LW
N
146 63 M
146 71.68 L
S
GR
GS
[0.375 0 0 0.375 0 0] CT
0.149 GC
2 setlinecap
1 LJ
1.333 LW
N
290.667 63 M
290.667 71.68 L
S
GR
GS
[0.375 0 0 0.375 0 0] CT
0.149 GC
2 setlinecap
1 LJ
1.333 LW
N
435.333 63 M
435.333 71.68 L
S
GR
GS
[0.375 0 0 0.375 0 0] CT
0.149 GC
2 setlinecap
1 LJ
1.333 LW
N
580 63 M
580 71.68 L
S
GR
GS
[0.375 0 0 0.375 0 0] CT
0.149 GC
2 setlinecap
1 LJ
1.333 LW
N
724.667 63 M
724.667 71.68 L
S
GR
GS
[0.375 0 0 0.375 0 0] CT
0.149 GC
2 setlinecap
1 LJ
1.333 LW
N
869.333 63 M
869.333 71.68 L
S
GR
GS
[0.375 0 0 0.375 0 0] CT
0.149 GC
2 setlinecap
1 LJ
1.333 LW
N
1014 63 M
1014 71.68 L
S
GR
GS
[0.375 0 0 0.375 54.75 284.9] CT
0.149 GC
/Times-Roman 32 F
GS
[1 0 0 1 0 0] CT
-8 30 moveto 
1 -1 scale
(0) t 
GR
GR
GS
[0.375 0 0 0.375 109 284.9] CT
0.149 GC
/Times-Roman 32 F
GS
[1 0 0 1 0 0] CT
-8 30 moveto 
1 -1 scale
(1) t 
GR
GR
GS
[0.375 0 0 0.375 163.25 284.9] CT
0.149 GC
/Times-Roman 32 F
GS
[1 0 0 1 0 0] CT
-8 30 moveto 
1 -1 scale
(2) t 
GR
GR
GS
[0.375 0 0 0.375 217.5 284.9] CT
0.149 GC
/Times-Roman 32 F
GS
[1 0 0 1 0 0] CT
-8 30 moveto 
1 -1 scale
(3) t 
GR
GR
GS
[0.375 0 0 0.375 271.75001 284.9] CT
0.149 GC
/Times-Roman 32 F
GS
[1 0 0 1 0 0] CT
-8 30 moveto 
1 -1 scale
(4) t 
GR
GR
GS
[0.375 0 0 0.375 325.99999 284.9] CT
0.149 GC
/Times-Roman 32 F
GS
[1 0 0 1 0 0] CT
-8 30 moveto 
1 -1 scale
(5) t 
GR
GR
GS
[0.375 0 0 0.375 380.25 284.9] CT
0.149 GC
/Times-Roman 32 F
GS
[1 0 0 1 0 0] CT
-8 30 moveto 
1 -1 scale
(6) t 
GR
GR
GS
[0.375 0 0 0.375 217.50016 299.77501] CT
0.149 GC
N
-123.032 26.88 M
-123.032 25.755 L
-121.813 25.755 -120.735 25.278 QT
-119.657 24.802 -118.907 23.864 QT
-116.001 20.161 L
-119.782 15.239 L
-120.344 14.536 -121.008 14.372 QT
-121.673 14.208 -122.876 14.208 QT
-122.876 13.083 L
-116.219 13.083 L
-116.219 14.208 L
-116.641 14.208 -117.008 14.396 QT
-117.376 14.583 -117.376 14.942 QT
-117.376 15.067 -117.282 15.239 QT
-114.719 18.567 L
-112.798 16.099 L
-112.407 15.63 -112.407 15.161 QT
-112.407 14.771 -112.665 14.489 QT
-112.923 14.208 -113.344 14.208 QT
-113.344 13.083 L
-107.454 13.083 L
-107.454 14.208 L
-108.688 14.208 -109.774 14.685 QT
-110.86 15.161 -111.61 16.099 QT
-114.141 19.333 L
-110.048 24.739 L
-109.438 25.442 -108.782 25.599 QT
-108.126 25.755 -106.907 25.755 QT
-106.907 26.88 L
-113.563 26.88 L
-113.563 25.755 L
-113.173 25.755 -112.813 25.567 QT
-112.454 25.38 -112.454 25.021 QT
-112.454 24.88 -112.548 24.739 QT
-115.423 20.927 L
-117.719 23.864 L
-118.079 24.271 -118.079 24.802 QT
-118.079 25.192 -117.813 25.474 QT
-117.548 25.755 -117.188 25.755 QT
-117.188 26.88 L
-123.032 26.88 L
cp
f
GR
GS
[0.375 0 0 0.375 217.50016 299.77501] CT
0.149 GC
N
-103.846 25.114 M
-103.846 24.396 -103.315 23.88 QT
-102.784 23.364 -102.08 23.364 QT
-101.643 23.364 -101.221 23.599 QT
-100.799 23.833 -100.565 24.255 QT
-100.33 24.677 -100.33 25.114 QT
-100.33 25.817 -100.846 26.349 QT
-101.362 26.88 -102.08 26.88 QT
-102.784 26.88 -103.315 26.349 QT
-103.846 25.817 -103.846 25.114 QT
cp
-103.846 14.849 M
-103.846 14.396 -103.612 13.989 QT
-103.377 13.583 -102.963 13.333 QT
-102.549 13.083 -102.08 13.083 QT
-101.627 13.083 -101.213 13.333 QT
-100.799 13.583 -100.565 13.989 QT
-100.33 14.396 -100.33 14.849 QT
-100.33 15.567 -100.838 16.091 QT
-101.346 16.614 -102.08 16.614 QT
-102.799 16.614 -103.323 16.091 QT
-103.846 15.567 -103.846 14.849 QT
cp
f
GR
GS
[0.375 0 0 0.375 217.50016 299.77501] CT
0.149 GC
N
-82.36 26.88 M
-82.36 25.755 L
-79.063 25.755 -79.063 24.739 QT
-79.063 7.161 L
-79.063 6.146 -82.36 6.146 QT
-82.36 5.021 L
-72.313 5.021 L
-70.516 5.021 -68.54 5.669 QT
-66.563 6.317 -65.235 7.646 QT
-63.907 8.974 -63.907 10.817 QT
-63.907 12.161 -64.711 13.216 QT
-65.516 14.271 -66.774 14.981 QT
-68.032 15.692 -69.344 16.005 QT
-67.907 16.505 -66.829 17.599 QT
-65.751 18.692 -65.532 20.099 QT
-65.079 22.942 L
-64.766 24.864 -64.422 25.81 QT
-64.079 26.755 -62.907 26.755 QT
-61.907 26.755 -61.415 25.825 QT
-60.922 24.896 -60.922 23.802 QT
-60.922 23.692 -60.821 23.606 QT
-60.719 23.521 -60.61 23.521 QT
-60.313 23.521 L
-60.001 23.521 -60.001 23.942 QT
-60.001 24.817 -60.344 25.653 QT
-60.688 26.489 -61.336 27.036 QT
-61.985 27.583 -62.876 27.583 QT
-65.188 27.583 -66.852 26.435 QT
-68.516 25.286 -68.516 23.067 QT
-68.516 20.224 L
-68.516 18.63 -69.626 17.489 QT
-70.735 16.349 -72.344 16.349 QT
-76.188 16.349 L
-76.188 24.739 L
-76.188 25.755 -72.891 25.755 QT
-72.891 26.88 L
-82.36 26.88 L
cp
-76.188 15.521 M
-72.766 15.521 L
-70.11 15.521 -68.719 14.45 QT
-67.329 13.38 -67.329 10.817 QT
-67.329 8.271 -68.704 7.208 QT
-70.079 6.146 -72.766 6.146 QT
-74.563 6.146 L
-75.141 6.146 -75.461 6.192 QT
-75.782 6.239 -75.985 6.466 QT
-76.188 6.692 -76.188 7.161 QT
-76.188 15.521 L
cp
f
GR
GS
[0.375 0 0 0.375 217.50016 299.77501] CT
0.149 GC
N
-58.586 23.739 M
-58.586 21.833 -57.086 20.638 QT
-55.586 19.442 -53.484 18.95 QT
-51.382 18.458 -49.492 18.458 QT
-49.492 17.146 L
-49.492 16.224 -49.898 15.356 QT
-50.304 14.489 -51.07 13.935 QT
-51.836 13.38 -52.757 13.38 QT
-54.882 13.38 -55.992 14.333 QT
-55.382 14.333 -54.984 14.794 QT
-54.586 15.255 -54.586 15.864 QT
-54.586 16.505 -55.039 16.958 QT
-55.492 17.411 -56.117 17.411 QT
-56.757 17.411 -57.211 16.958 QT
-57.664 16.505 -57.664 15.864 QT
-57.664 14.177 -56.132 13.356 QT
-54.601 12.536 -52.757 12.536 QT
-51.461 12.536 -50.148 13.091 QT
-48.836 13.646 -48 14.677 QT
-47.164 15.708 -47.164 17.083 QT
-47.164 24.286 L
-47.164 24.911 -46.898 25.435 QT
-46.632 25.958 -46.07 25.958 QT
-45.539 25.958 -45.281 25.427 QT
-45.023 24.896 -45.023 24.286 QT
-45.023 22.239 L
-44.086 22.239 L
-44.086 24.286 L
-44.086 25.005 -44.461 25.653 QT
-44.836 26.302 -45.468 26.685 QT
-46.101 27.067 -46.836 27.067 QT
-47.773 27.067 -48.453 26.341 QT
-49.132 25.614 -49.211 24.614 QT
-49.804 25.817 -50.961 26.528 QT
-52.117 27.239 -53.429 27.239 QT
-54.648 27.239 -55.828 26.88 QT
-57.007 26.521 -57.797 25.747 QT
-58.586 24.974 -58.586 23.739 QT
cp
-55.992 23.739 M
-55.992 24.864 -55.164 25.63 QT
-54.336 26.396 -53.211 26.396 QT
-52.179 26.396 -51.336 25.88 QT
-50.492 25.364 -49.992 24.474 QT
-49.492 23.583 -49.492 22.599 QT
-49.492 19.271 L
-50.945 19.271 -52.468 19.747 QT
-53.992 20.224 -54.992 21.239 QT
-55.992 22.255 -55.992 23.739 QT
cp
f
GR
GS
[0.375 0 0 0.375 217.50016 299.77501] CT
0.149 GC
N
-36.054 27.239 M
-37.945 27.239 -39.507 26.216 QT
-41.07 25.192 -41.937 23.521 QT
-42.804 21.849 -42.804 19.974 QT
-42.804 18.036 -41.859 16.372 QT
-40.914 14.708 -39.289 13.724 QT
-37.664 12.739 -35.711 12.739 QT
-34.539 12.739 -33.492 13.231 QT
-32.445 13.724 -31.679 14.599 QT
-31.679 7.942 L
-31.679 7.083 -31.937 6.7 QT
-32.195 6.317 -32.671 6.231 QT
-33.148 6.146 -34.164 6.146 QT
-34.164 5.021 L
-29.429 4.677 L
-29.429 23.974 L
-29.429 24.817 -29.171 25.2 QT
-28.914 25.583 -28.437 25.669 QT
-27.961 25.755 -26.945 25.755 QT
-26.945 26.88 L
-31.773 27.239 L
-31.773 25.224 L
-32.601 26.177 -33.742 26.708 QT
-34.882 27.239 -36.054 27.239 QT
cp
-39.32 24.099 M
-38.773 25.146 -37.859 25.771 QT
-36.945 26.396 -35.867 26.396 QT
-34.539 26.396 -33.429 25.63 QT
-32.32 24.864 -31.773 23.646 QT
-31.773 15.974 L
-32.148 15.271 -32.718 14.716 QT
-33.289 14.161 -34 13.864 QT
-34.711 13.567 -35.507 13.567 QT
-37.179 13.567 -38.195 14.513 QT
-39.211 15.458 -39.617 16.927 QT
-40.023 18.396 -40.023 20.005 QT
-40.023 21.286 -39.89 22.239 QT
-39.757 23.192 -39.32 24.099 QT
cp
f
GR
GS
[0.375 0 0 0.375 217.50016 299.77501] CT
0.149 GC
N
-25.105 26.88 M
-25.105 25.755 L
-24.011 25.755 -23.308 25.583 QT
-22.605 25.411 -22.605 24.739 QT
-22.605 16.005 L
-22.605 14.771 -23.081 14.489 QT
-23.558 14.208 -24.964 14.208 QT
-24.964 13.083 L
-20.355 12.739 L
-20.355 24.739 L
-20.355 25.411 -19.745 25.583 QT
-19.136 25.755 -18.12 25.755 QT
-18.12 26.88 L
-25.105 26.88 L
cp
-23.745 7.239 M
-23.745 6.536 -23.214 6.005 QT
-22.683 5.474 -21.995 5.474 QT
-21.542 5.474 -21.12 5.708 QT
-20.698 5.942 -20.464 6.364 QT
-20.23 6.786 -20.23 7.239 QT
-20.23 7.927 -20.761 8.458 QT
-21.292 8.989 -21.995 8.989 QT
-22.683 8.989 -23.214 8.458 QT
-23.745 7.927 -23.745 7.239 QT
cp
f
GR
GS
[0.375 0 0 0.375 217.50016 299.77501] CT
0.149 GC
N
-9.2 27.239 M
-11.122 27.239 -12.763 26.263 QT
-14.403 25.286 -15.356 23.646 QT
-16.309 22.005 -16.309 20.067 QT
-16.309 18.599 -15.786 17.239 QT
-15.263 15.88 -14.286 14.81 QT
-13.309 13.739 -12.013 13.138 QT
-10.716 12.536 -9.2 12.536 QT
-7.231 12.536 -5.614 13.575 QT
-3.997 14.614 -3.059 16.356 QT
-2.122 18.099 -2.122 20.067 QT
-2.122 21.989 -3.075 23.638 QT
-4.028 25.286 -5.661 26.263 QT
-7.294 27.239 -9.2 27.239 QT
cp
-9.2 26.302 M
-6.638 26.302 -5.778 24.442 QT
-4.919 22.583 -4.919 19.708 QT
-4.919 18.099 -5.091 17.044 QT
-5.263 15.989 -5.841 15.13 QT
-6.2 14.599 -6.755 14.2 QT
-7.309 13.802 -7.927 13.591 QT
-8.544 13.38 -9.2 13.38 QT
-10.2 13.38 -11.098 13.833 QT
-11.997 14.286 -12.591 15.13 QT
-13.184 16.036 -13.348 17.122 QT
-13.513 18.208 -13.513 19.708 QT
-13.513 21.505 -13.2 22.935 QT
-12.888 24.364 -11.942 25.333 QT
-10.997 26.302 -9.2 26.302 QT
cp
f
GR
GS
[0.375 0 0 0.375 217.50016 299.77501] CT
0.149 GC
N
11.264 27.333 M
11.264 19.864 L
11.264 19.614 11.545 19.614 QT
11.935 19.614 L
12.029 19.614 12.107 19.692 QT
12.185 19.771 12.185 19.864 QT
12.185 23.005 14.131 24.731 QT
16.076 26.458 19.232 26.458 QT
20.342 26.458 21.279 25.817 QT
22.217 25.177 22.74 24.138 QT
23.264 23.099 23.264 21.989 QT
23.264 21.021 22.873 20.106 QT
22.482 19.192 21.748 18.521 QT
21.014 17.849 20.092 17.63 QT
15.935 16.614 L
13.873 16.067 12.568 14.372 QT
11.264 12.677 11.264 10.567 QT
11.264 8.911 12.107 7.458 QT
12.951 6.005 14.381 5.161 QT
15.81 4.317 17.467 4.317 QT
20.67 4.317 22.56 6.489 QT
23.873 4.411 L
23.967 4.317 24.092 4.317 QT
24.31 4.317 L
24.404 4.317 24.49 4.388 QT
24.576 4.458 24.576 4.583 QT
24.576 12.005 L
24.576 12.286 24.31 12.286 QT
23.935 12.286 L
23.639 12.286 23.639 12.005 QT
23.639 11.192 23.365 10.224 QT
23.092 9.255 22.607 8.364 QT
22.123 7.474 21.56 6.911 QT
20.014 5.349 17.467 5.349 QT
16.373 5.349 15.451 5.903 QT
14.529 6.458 13.982 7.411 QT
13.435 8.364 13.435 9.411 QT
13.435 10.786 14.287 11.903 QT
15.139 13.021 16.514 13.38 QT
20.67 14.396 L
21.701 14.646 22.615 15.294 QT
23.529 15.942 24.139 16.802 QT
24.748 17.661 25.092 18.716 QT
25.435 19.771 25.435 20.896 QT
25.435 22.63 24.639 24.169 QT
23.842 25.708 22.396 26.646 QT
20.951 27.583 19.232 27.583 QT
18.17 27.583 17.06 27.349 QT
15.951 27.114 15.014 26.63 QT
14.076 26.146 13.31 25.38 QT
11.967 27.489 L
11.873 27.583 11.732 27.583 QT
11.545 27.583 L
11.264 27.583 11.264 27.333 QT
cp
f
GR
GS
[0.375 0 0 0.375 217.50016 299.77501] CT
0.149 GC
N
30.51 23.036 M
30.51 14.208 L
27.854 14.208 L
27.854 13.38 L
29.948 13.38 30.932 11.427 QT
31.916 9.474 31.916 7.192 QT
32.838 7.192 L
32.838 13.083 L
37.354 13.083 L
37.354 14.208 L
32.838 14.208 L
32.838 22.974 L
32.838 24.302 33.284 25.302 QT
33.729 26.302 34.885 26.302 QT
35.979 26.302 36.463 25.247 QT
36.948 24.192 36.948 22.974 QT
36.948 21.083 L
37.869 21.083 L
37.869 23.036 L
37.869 24.036 37.502 25.013 QT
37.135 25.989 36.416 26.614 QT
35.698 27.239 34.666 27.239 QT
32.744 27.239 31.627 26.091 QT
30.51 24.942 30.51 23.036 QT
cp
f
GR
GS
[0.375 0 0 0.375 217.50016 299.77501] CT
0.149 GC
N
40.97 23.739 M
40.97 21.833 42.47 20.638 QT
43.97 19.442 46.072 18.95 QT
48.173 18.458 50.064 18.458 QT
50.064 17.146 L
50.064 16.224 49.658 15.356 QT
49.251 14.489 48.486 13.935 QT
47.72 13.38 46.798 13.38 QT
44.673 13.38 43.564 14.333 QT
44.173 14.333 44.572 14.794 QT
44.97 15.255 44.97 15.864 QT
44.97 16.505 44.517 16.958 QT
44.064 17.411 43.439 17.411 QT
42.798 17.411 42.345 16.958 QT
41.892 16.505 41.892 15.864 QT
41.892 14.177 43.423 13.356 QT
44.955 12.536 46.798 12.536 QT
48.095 12.536 49.408 13.091 QT
50.72 13.646 51.556 14.677 QT
52.392 15.708 52.392 17.083 QT
52.392 24.286 L
52.392 24.911 52.658 25.435 QT
52.923 25.958 53.486 25.958 QT
54.017 25.958 54.275 25.427 QT
54.533 24.896 54.533 24.286 QT
54.533 22.239 L
55.47 22.239 L
55.47 24.286 L
55.47 25.005 55.095 25.653 QT
54.72 26.302 54.087 26.685 QT
53.455 27.067 52.72 27.067 QT
51.783 27.067 51.103 26.341 QT
50.423 25.614 50.345 24.614 QT
49.751 25.817 48.595 26.528 QT
47.439 27.239 46.126 27.239 QT
44.908 27.239 43.728 26.88 QT
42.548 26.521 41.759 25.747 QT
40.97 24.974 40.97 23.739 QT
cp
43.564 23.739 M
43.564 24.864 44.392 25.63 QT
45.22 26.396 46.345 26.396 QT
47.376 26.396 48.22 25.88 QT
49.064 25.364 49.564 24.474 QT
50.064 23.583 50.064 22.599 QT
50.064 19.271 L
48.611 19.271 47.087 19.747 QT
45.564 20.224 44.564 21.239 QT
43.564 22.255 43.564 23.739 QT
cp
f
GR
GS
[0.375 0 0 0.375 217.50016 299.77501] CT
0.149 GC
N
58.955 23.036 M
58.955 14.208 L
56.298 14.208 L
56.298 13.38 L
58.392 13.38 59.377 11.427 QT
60.361 9.474 60.361 7.192 QT
61.283 7.192 L
61.283 13.083 L
65.798 13.083 L
65.798 14.208 L
61.283 14.208 L
61.283 22.974 L
61.283 24.302 61.728 25.302 QT
62.173 26.302 63.33 26.302 QT
64.423 26.302 64.908 25.247 QT
65.392 24.192 65.392 22.974 QT
65.392 21.083 L
66.314 21.083 L
66.314 23.036 L
66.314 24.036 65.947 25.013 QT
65.58 25.989 64.861 26.614 QT
64.142 27.239 63.111 27.239 QT
61.189 27.239 60.072 26.091 QT
58.955 24.942 58.955 23.036 QT
cp
f
GR
GS
[0.375 0 0 0.375 217.50016 299.77501] CT
0.149 GC
N
69.118 26.88 M
69.118 25.755 L
70.212 25.755 70.915 25.583 QT
71.618 25.411 71.618 24.739 QT
71.618 16.005 L
71.618 14.771 71.141 14.489 QT
70.665 14.208 69.258 14.208 QT
69.258 13.083 L
73.868 12.739 L
73.868 24.739 L
73.868 25.411 74.477 25.583 QT
75.087 25.755 76.102 25.755 QT
76.102 26.88 L
69.118 26.88 L
cp
70.477 7.239 M
70.477 6.536 71.008 6.005 QT
71.54 5.474 72.227 5.474 QT
72.68 5.474 73.102 5.708 QT
73.524 5.942 73.758 6.364 QT
73.993 6.786 73.993 7.239 QT
73.993 7.927 73.462 8.458 QT
72.93 8.989 72.227 8.989 QT
71.54 8.989 71.008 8.458 QT
70.477 7.927 70.477 7.239 QT
cp
f
GR
GS
[0.375 0 0 0.375 217.50016 299.77501] CT
0.149 GC
N
85.022 27.239 M
83.101 27.239 81.46 26.263 QT
79.819 25.286 78.866 23.646 QT
77.913 22.005 77.913 20.067 QT
77.913 18.599 78.436 17.239 QT
78.96 15.88 79.936 14.81 QT
80.913 13.739 82.21 13.138 QT
83.507 12.536 85.022 12.536 QT
86.991 12.536 88.608 13.575 QT
90.226 14.614 91.163 16.356 QT
92.101 18.099 92.101 20.067 QT
92.101 21.989 91.147 23.638 QT
90.194 25.286 88.561 26.263 QT
86.929 27.239 85.022 27.239 QT
cp
85.022 26.302 M
87.585 26.302 88.444 24.442 QT
89.304 22.583 89.304 19.708 QT
89.304 18.099 89.132 17.044 QT
88.96 15.989 88.382 15.13 QT
88.022 14.599 87.468 14.2 QT
86.913 13.802 86.296 13.591 QT
85.679 13.38 85.022 13.38 QT
84.022 13.38 83.124 13.833 QT
82.226 14.286 81.632 15.13 QT
81.038 16.036 80.874 17.122 QT
80.71 18.208 80.71 19.708 QT
80.71 21.505 81.022 22.935 QT
81.335 24.364 82.28 25.333 QT
83.226 26.302 85.022 26.302 QT
cp
f
GR
GS
[0.375 0 0 0.375 217.50016 299.77501] CT
0.149 GC
N
93.976 26.88 M
93.976 25.755 L
95.069 25.755 95.772 25.583 QT
96.476 25.411 96.476 24.739 QT
96.476 16.005 L
96.476 15.146 96.218 14.763 QT
95.96 14.38 95.476 14.294 QT
94.991 14.208 93.976 14.208 QT
93.976 13.083 L
98.616 12.739 L
98.616 15.864 L
99.257 14.489 100.515 13.614 QT
101.772 12.739 103.257 12.739 QT
105.476 12.739 106.593 13.802 QT
107.71 14.864 107.71 17.052 QT
107.71 24.739 L
107.71 25.411 108.413 25.583 QT
109.116 25.755 110.21 25.755 QT
110.21 26.88 L
102.882 26.88 L
102.882 25.755 L
103.976 25.755 104.679 25.583 QT
105.382 25.411 105.382 24.739 QT
105.382 17.146 L
105.382 15.583 104.929 14.575 QT
104.476 13.567 103.069 13.567 QT
101.21 13.567 100.015 15.052 QT
98.819 16.536 98.819 18.427 QT
98.819 24.739 L
98.819 25.411 99.522 25.583 QT
100.226 25.755 101.304 25.755 QT
101.304 26.88 L
93.976 26.88 L
cp
f
GR
GS
[0.375 0 0 0.375 217.50016 299.77501] CT
0.149 GC
N
111.863 26.974 M
111.863 21.755 L
111.863 21.505 112.144 21.505 QT
112.535 21.505 L
112.722 21.505 112.785 21.755 QT
113.675 26.396 117.097 26.396 QT
118.613 26.396 119.636 25.708 QT
120.66 25.021 120.66 23.583 QT
120.66 22.552 119.863 21.825 QT
119.066 21.099 117.972 20.833 QT
115.832 20.411 L
114.753 20.177 113.871 19.692 QT
112.988 19.208 112.425 18.403 QT
111.863 17.599 111.863 16.536 QT
111.863 15.13 112.605 14.231 QT
113.347 13.333 114.535 12.935 QT
115.722 12.536 117.097 12.536 QT
118.738 12.536 119.957 13.411 QT
120.878 12.614 L
120.878 12.536 121.035 12.536 QT
121.269 12.536 L
121.363 12.536 121.441 12.622 QT
121.519 12.708 121.519 12.802 QT
121.519 16.989 L
121.519 17.286 121.269 17.286 QT
120.878 17.286 L
120.597 17.286 120.597 16.989 QT
120.597 15.317 119.667 14.302 QT
118.738 13.286 117.066 13.286 QT
115.628 13.286 114.574 13.817 QT
113.519 14.349 113.519 15.646 QT
113.519 16.536 114.277 17.106 QT
115.035 17.677 116.05 17.927 QT
118.222 18.333 L
119.316 18.583 120.261 19.177 QT
121.207 19.771 121.761 20.677 QT
122.316 21.583 122.316 22.724 QT
122.316 23.88 121.917 24.731 QT
121.519 25.583 120.808 26.146 QT
120.097 26.708 119.128 26.974 QT
118.16 27.239 117.097 27.239 QT
115.097 27.239 113.675 25.896 QT
112.503 27.161 L
112.503 27.239 112.332 27.239 QT
112.144 27.239 L
111.863 27.239 111.863 26.974 QT
cp
f
GR
GS
[0.375 0 0 0.375 0 0] CT
0.149 GC
2 setlinecap
1 LJ
1.333 LW
N
146 748 M
146 63 L
S
GR
GS
[0.375 0 0 0.375 0 0] CT
0.149 GC
2 setlinecap
1 LJ
1.333 LW
N
1014 748 M
1014 63 L
S
GR
GS
[0.375 0 0 0.375 0 0] CT
0.149 GC
2 setlinecap
1 LJ
1.333 LW
N
146 748 M
154.68 748 L
S
GR
GS
[0.375 0 0 0.375 0 0] CT
0.149 GC
2 setlinecap
1 LJ
1.333 LW
N
146 623.455 M
154.68 623.455 L
S
GR
GS
[0.375 0 0 0.375 0 0] CT
0.149 GC
2 setlinecap
1 LJ
1.333 LW
N
146 498.909 M
154.68 498.909 L
S
GR
GS
[0.375 0 0 0.375 0 0] CT
0.149 GC
2 setlinecap
1 LJ
1.333 LW
N
146 374.364 M
154.68 374.364 L
S
GR
GS
[0.375 0 0 0.375 0 0] CT
0.149 GC
2 setlinecap
1 LJ
1.333 LW
N
146 249.818 M
154.68 249.818 L
S
GR
GS
[0.375 0 0 0.375 0 0] CT
0.149 GC
2 setlinecap
1 LJ
1.333 LW
N
146 125.273 M
154.68 125.273 L
S
GR
GS
[0.375 0 0 0.375 0 0] CT
0.149 GC
2 setlinecap
1 LJ
1.333 LW
N
1014 748 M
1005.32 748 L
S
GR
GS
[0.375 0 0 0.375 0 0] CT
0.149 GC
2 setlinecap
1 LJ
1.333 LW
N
1014 623.455 M
1005.32 623.455 L
S
GR
GS
[0.375 0 0 0.375 0 0] CT
0.149 GC
2 setlinecap
1 LJ
1.333 LW
N
1014 498.909 M
1005.32 498.909 L
S
GR
GS
[0.375 0 0 0.375 0 0] CT
0.149 GC
2 setlinecap
1 LJ
1.333 LW
N
1014 374.364 M
1005.32 374.364 L
S
GR
GS
[0.375 0 0 0.375 0 0] CT
0.149 GC
2 setlinecap
1 LJ
1.333 LW
N
1014 249.818 M
1005.32 249.818 L
S
GR
GS
[0.375 0 0 0.375 0 0] CT
0.149 GC
2 setlinecap
1 LJ
1.333 LW
N
1014 125.273 M
1005.32 125.273 L
S
GR
GS
[0.375 0 0 0.375 50.35 280.5] CT
0.149 GC
/Times-Roman 32 F
GS
[1 0 0 1 0 0] CT
-16 11.5 moveto 
1 -1 scale
(0) t 
GR
GR
GS
[0.375 0 0 0.375 50.35 233.79545] CT
0.149 GC
/Times-Roman 32 F
GS
[1 0 0 1 0 0] CT
-40 11.5 moveto 
1 -1 scale
(0.2) t 
GR
GR
GS
[0.375 0 0 0.375 50.35 187.09091] CT
0.149 GC
/Times-Roman 32 F
GS
[1 0 0 1 0 0] CT
-40 11.5 moveto 
1 -1 scale
(0.4) t 
GR
GR
GS
[0.375 0 0 0.375 50.35 140.38636] CT
0.149 GC
/Times-Roman 32 F
GS
[1 0 0 1 0 0] CT
-40 11.5 moveto 
1 -1 scale
(0.6) t 
GR
GR
GS
[0.375 0 0 0.375 50.35 93.68182] CT
0.149 GC
/Times-Roman 32 F
GS
[1 0 0 1 0 0] CT
-40 11.5 moveto 
1 -1 scale
(0.8) t 
GR
GR
GS
[0.375 0 0 0.375 50.35 46.97727] CT
0.149 GC
/Times-Roman 32 F
GS
[1 0 0 1 0 0] CT
-16 11.5 moveto 
1 -1 scale
(1) t 
GR
GR
GS
[0 -0.375 0.375 0 32.35 152.06237] CT
0.149 GC
N
-247.928 -11.52 M
-247.928 -12.645 L
-246.834 -12.645 -246.131 -12.817 QT
-245.428 -12.989 -245.428 -13.661 QT
-245.428 -22.395 L
-245.428 -23.254 -245.686 -23.637 QT
-245.944 -24.02 -246.428 -24.106 QT
-246.912 -24.192 -247.928 -24.192 QT
-247.928 -25.317 L
-243.35 -25.661 L
-243.35 -22.536 L
-242.834 -23.926 -241.881 -24.794 QT
-240.928 -25.661 -239.569 -25.661 QT
-238.615 -25.661 -237.865 -25.098 QT
-237.115 -24.536 -237.115 -23.614 QT
-237.115 -23.036 -237.529 -22.606 QT
-237.944 -22.176 -238.553 -22.176 QT
-239.147 -22.176 -239.569 -22.598 QT
-239.99 -23.02 -239.99 -23.614 QT
-239.99 -24.473 -239.381 -24.833 QT
-239.569 -24.833 L
-240.865 -24.833 -241.686 -23.895 QT
-242.506 -22.958 -242.85 -21.567 QT
-243.194 -20.176 -243.194 -18.911 QT
-243.194 -13.661 L
-243.194 -12.645 -240.084 -12.645 QT
-240.084 -11.52 L
-247.928 -11.52 L
cp
f
GR
GS
[0 -0.375 0.375 0 32.35 152.06237] CT
0.149 GC
N
-226.301 -3.583 M
-228.082 -4.989 -229.371 -6.809 QT
-230.66 -8.629 -231.48 -10.692 QT
-232.301 -12.754 -232.707 -15.004 QT
-233.113 -17.254 -233.113 -19.52 QT
-233.113 -21.817 -232.707 -24.067 QT
-232.301 -26.317 -231.465 -28.395 QT
-230.629 -30.473 -229.332 -32.286 QT
-228.035 -34.098 -226.301 -35.458 QT
-226.301 -35.52 -226.145 -35.52 QT
-225.848 -35.52 L
-225.754 -35.52 -225.676 -35.434 QT
-225.598 -35.348 -225.598 -35.239 QT
-225.598 -35.098 -225.66 -35.036 QT
-227.223 -33.504 -228.262 -31.754 QT
-229.301 -30.004 -229.934 -28.028 QT
-230.566 -26.051 -230.848 -23.934 QT
-231.129 -21.817 -231.129 -19.52 QT
-231.129 -9.348 -225.691 -4.067 QT
-225.598 -3.973 -225.598 -3.801 QT
-225.598 -3.723 -225.684 -3.622 QT
-225.77 -3.52 -225.848 -3.52 QT
-226.145 -3.52 L
-226.301 -3.52 -226.301 -3.583 QT
cp
f
GR
GS
[0 -0.375 0.375 0 32.35 152.06237] CT
0.149 GC
N
-223.388 -11.52 M
-223.388 -12.645 L
-222.169 -12.645 -221.091 -13.122 QT
-220.013 -13.598 -219.263 -14.536 QT
-216.356 -18.239 L
-220.138 -23.161 L
-220.7 -23.864 -221.364 -24.028 QT
-222.028 -24.192 -223.231 -24.192 QT
-223.231 -25.317 L
-216.575 -25.317 L
-216.575 -24.192 L
-216.997 -24.192 -217.364 -24.004 QT
-217.731 -23.817 -217.731 -23.458 QT
-217.731 -23.333 -217.638 -23.161 QT
-215.075 -19.833 L
-213.153 -22.301 L
-212.763 -22.77 -212.763 -23.239 QT
-212.763 -23.629 -213.02 -23.911 QT
-213.278 -24.192 -213.7 -24.192 QT
-213.7 -25.317 L
-207.809 -25.317 L
-207.809 -24.192 L
-209.044 -24.192 -210.13 -23.715 QT
-211.216 -23.239 -211.966 -22.301 QT
-214.497 -19.067 L
-210.403 -13.661 L
-209.794 -12.958 -209.138 -12.801 QT
-208.481 -12.645 -207.263 -12.645 QT
-207.263 -11.52 L
-213.919 -11.52 L
-213.919 -12.645 L
-213.528 -12.645 -213.169 -12.833 QT
-212.809 -13.02 -212.809 -13.379 QT
-212.809 -13.52 -212.903 -13.661 QT
-215.778 -17.473 L
-218.075 -14.536 L
-218.434 -14.129 -218.434 -13.598 QT
-218.434 -13.208 -218.169 -12.926 QT
-217.903 -12.645 -217.544 -12.645 QT
-217.544 -11.52 L
-223.388 -11.52 L
cp
f
GR
GS
[0 -0.375 0.375 0 32.35 152.06237] CT
0.149 GC
N
-204.811 -3.52 M
-205.092 -3.52 -205.092 -3.801 QT
-205.092 -3.942 -205.03 -4.004 QT
-199.561 -9.348 -199.561 -19.52 QT
-199.561 -29.692 -204.967 -34.973 QT
-205.092 -35.051 -205.092 -35.239 QT
-205.092 -35.348 -205.006 -35.434 QT
-204.92 -35.52 -204.811 -35.52 QT
-204.514 -35.52 L
-204.42 -35.52 -204.358 -35.458 QT
-202.061 -33.645 -200.53 -31.051 QT
-198.999 -28.458 -198.288 -25.52 QT
-197.577 -22.583 -197.577 -19.52 QT
-197.577 -17.254 -197.96 -15.059 QT
-198.342 -12.864 -199.178 -10.731 QT
-200.014 -8.598 -201.295 -6.794 QT
-202.577 -4.989 -204.358 -3.583 QT
-204.42 -3.52 -204.514 -3.52 QT
-204.811 -3.52 L
cp
f
GR
GS
[0 -0.375 0.375 0 32.35 152.06237] CT
0.149 GC
N
-191.757 -13.286 M
-191.757 -14.004 -191.226 -14.52 QT
-190.695 -15.036 -189.992 -15.036 QT
-189.554 -15.036 -189.132 -14.801 QT
-188.71 -14.567 -188.476 -14.145 QT
-188.242 -13.723 -188.242 -13.286 QT
-188.242 -12.583 -188.757 -12.051 QT
-189.273 -11.52 -189.992 -11.52 QT
-190.695 -11.52 -191.226 -12.051 QT
-191.757 -12.583 -191.757 -13.286 QT
cp
-191.757 -23.551 M
-191.757 -24.004 -191.523 -24.411 QT
-191.288 -24.817 -190.874 -25.067 QT
-190.46 -25.317 -189.992 -25.317 QT
-189.538 -25.317 -189.124 -25.067 QT
-188.71 -24.817 -188.476 -24.411 QT
-188.242 -24.004 -188.242 -23.551 QT
-188.242 -22.833 -188.749 -22.309 QT
-189.257 -21.786 -189.992 -21.786 QT
-190.71 -21.786 -191.234 -22.309 QT
-191.757 -22.833 -191.757 -23.551 QT
cp
f
GR
GS
[0 -0.375 0.375 0 32.35 152.06237] CT
0.149 GC
N
-170.271 -11.52 M
-170.271 -12.645 L
-166.974 -12.645 -166.974 -13.661 QT
-166.974 -31.239 L
-166.974 -32.254 -170.271 -32.254 QT
-170.271 -33.379 L
-160.224 -33.379 L
-158.427 -33.379 -156.451 -32.731 QT
-154.474 -32.083 -153.146 -30.754 QT
-151.818 -29.426 -151.818 -27.583 QT
-151.818 -26.239 -152.623 -25.184 QT
-153.427 -24.129 -154.685 -23.419 QT
-155.943 -22.708 -157.255 -22.395 QT
-155.818 -21.895 -154.74 -20.801 QT
-153.662 -19.708 -153.443 -18.301 QT
-152.99 -15.458 L
-152.677 -13.536 -152.334 -12.59 QT
-151.99 -11.645 -150.818 -11.645 QT
-149.818 -11.645 -149.326 -12.575 QT
-148.834 -13.504 -148.834 -14.598 QT
-148.834 -14.708 -148.732 -14.794 QT
-148.63 -14.879 -148.521 -14.879 QT
-148.224 -14.879 L
-147.912 -14.879 -147.912 -14.458 QT
-147.912 -13.583 -148.255 -12.747 QT
-148.599 -11.911 -149.248 -11.364 QT
-149.896 -10.817 -150.787 -10.817 QT
-153.099 -10.817 -154.763 -11.965 QT
-156.427 -13.114 -156.427 -15.333 QT
-156.427 -18.176 L
-156.427 -19.77 -157.537 -20.911 QT
-158.646 -22.051 -160.255 -22.051 QT
-164.099 -22.051 L
-164.099 -13.661 L
-164.099 -12.645 -160.802 -12.645 QT
-160.802 -11.52 L
-170.271 -11.52 L
cp
-164.099 -22.879 M
-160.677 -22.879 L
-158.021 -22.879 -156.63 -23.95 QT
-155.24 -25.02 -155.24 -27.583 QT
-155.24 -30.129 -156.615 -31.192 QT
-157.99 -32.254 -160.677 -32.254 QT
-162.474 -32.254 L
-163.052 -32.254 -163.373 -32.208 QT
-163.693 -32.161 -163.896 -31.934 QT
-164.099 -31.708 -164.099 -31.239 QT
-164.099 -22.879 L
cp
f
GR
GS
[0 -0.375 0.375 0 32.35 152.06237] CT
0.149 GC
N
-139.809 -11.161 M
-141.762 -11.161 -143.395 -12.184 QT
-145.028 -13.208 -145.958 -14.919 QT
-146.887 -16.629 -146.887 -18.536 QT
-146.887 -20.411 -146.036 -22.098 QT
-145.184 -23.786 -143.661 -24.825 QT
-142.137 -25.864 -140.262 -25.864 QT
-138.794 -25.864 -137.708 -25.372 QT
-136.622 -24.879 -135.919 -24.004 QT
-135.216 -23.129 -134.856 -21.942 QT
-134.497 -20.754 -134.497 -19.333 QT
-134.497 -18.911 -134.825 -18.911 QT
-144.091 -18.911 L
-144.091 -18.567 L
-144.091 -15.911 -143.02 -14.004 QT
-141.95 -12.098 -139.528 -12.098 QT
-138.544 -12.098 -137.708 -12.536 QT
-136.872 -12.973 -136.255 -13.754 QT
-135.637 -14.536 -135.419 -15.426 QT
-135.387 -15.536 -135.301 -15.622 QT
-135.216 -15.708 -135.106 -15.708 QT
-134.825 -15.708 L
-134.497 -15.708 -134.497 -15.301 QT
-134.95 -13.489 -136.45 -12.325 QT
-137.95 -11.161 -139.809 -11.161 QT
cp
-144.059 -19.708 M
-136.762 -19.708 L
-136.762 -20.911 -137.098 -22.145 QT
-137.434 -23.379 -138.216 -24.2 QT
-138.997 -25.02 -140.262 -25.02 QT
-142.075 -25.02 -143.067 -23.325 QT
-144.059 -21.629 -144.059 -19.708 QT
cp
f
GR
GS
[0 -0.375 0.375 0 32.35 152.06237] CT
0.149 GC
N
-132.571 -11.52 M
-132.571 -12.645 L
-131.478 -12.645 -130.775 -12.817 QT
-130.071 -12.989 -130.071 -13.661 QT
-130.071 -30.458 L
-130.071 -31.317 -130.329 -31.7 QT
-130.587 -32.083 -131.071 -32.169 QT
-131.556 -32.254 -132.571 -32.254 QT
-132.571 -33.379 L
-127.821 -33.723 L
-127.821 -13.661 L
-127.821 -12.989 -127.118 -12.817 QT
-126.415 -12.645 -125.337 -12.645 QT
-125.337 -11.52 L
-132.571 -11.52 L
cp
f
GR
GS
[0 -0.375 0.375 0 32.35 152.06237] CT
0.149 GC
N
-123.683 -11.52 M
-123.683 -12.645 L
-122.589 -12.645 -121.886 -12.817 QT
-121.183 -12.989 -121.183 -13.661 QT
-121.183 -22.395 L
-121.183 -23.629 -121.659 -23.911 QT
-122.136 -24.192 -123.542 -24.192 QT
-123.542 -25.317 L
-118.933 -25.661 L
-118.933 -13.661 L
-118.933 -12.989 -118.323 -12.817 QT
-117.714 -12.645 -116.698 -12.645 QT
-116.698 -11.52 L
-123.683 -11.52 L
cp
-122.323 -31.161 M
-122.323 -31.864 -121.792 -32.395 QT
-121.261 -32.926 -120.573 -32.926 QT
-120.12 -32.926 -119.698 -32.692 QT
-119.276 -32.458 -119.042 -32.036 QT
-118.808 -31.614 -118.808 -31.161 QT
-118.808 -30.473 -119.339 -29.942 QT
-119.87 -29.411 -120.573 -29.411 QT
-121.261 -29.411 -121.792 -29.942 QT
-122.323 -30.473 -122.323 -31.161 QT
cp
f
GR
GS
[0 -0.375 0.375 0 32.35 152.06237] CT
0.149 GC
N
-114.497 -14.661 M
-114.497 -16.567 -112.997 -17.762 QT
-111.497 -18.958 -109.395 -19.45 QT
-107.294 -19.942 -105.403 -19.942 QT
-105.403 -21.254 L
-105.403 -22.176 -105.809 -23.044 QT
-106.215 -23.911 -106.981 -24.465 QT
-107.747 -25.02 -108.669 -25.02 QT
-110.794 -25.02 -111.903 -24.067 QT
-111.294 -24.067 -110.895 -23.606 QT
-110.497 -23.145 -110.497 -22.536 QT
-110.497 -21.895 -110.95 -21.442 QT
-111.403 -20.989 -112.028 -20.989 QT
-112.669 -20.989 -113.122 -21.442 QT
-113.575 -21.895 -113.575 -22.536 QT
-113.575 -24.223 -112.044 -25.044 QT
-110.512 -25.864 -108.669 -25.864 QT
-107.372 -25.864 -106.059 -25.309 QT
-104.747 -24.754 -103.911 -23.723 QT
-103.075 -22.692 -103.075 -21.317 QT
-103.075 -14.114 L
-103.075 -13.489 -102.809 -12.965 QT
-102.544 -12.442 -101.981 -12.442 QT
-101.45 -12.442 -101.192 -12.973 QT
-100.934 -13.504 -100.934 -14.114 QT
-100.934 -16.161 L
-99.997 -16.161 L
-99.997 -14.114 L
-99.997 -13.395 -100.372 -12.747 QT
-100.747 -12.098 -101.38 -11.715 QT
-102.012 -11.333 -102.747 -11.333 QT
-103.684 -11.333 -104.364 -12.059 QT
-105.044 -12.786 -105.122 -13.786 QT
-105.715 -12.583 -106.872 -11.872 QT
-108.028 -11.161 -109.34 -11.161 QT
-110.559 -11.161 -111.739 -11.52 QT
-112.919 -11.879 -113.708 -12.653 QT
-114.497 -13.426 -114.497 -14.661 QT
cp
-111.903 -14.661 M
-111.903 -13.536 -111.075 -12.77 QT
-110.247 -12.004 -109.122 -12.004 QT
-108.09 -12.004 -107.247 -12.52 QT
-106.403 -13.036 -105.903 -13.926 QT
-105.403 -14.817 -105.403 -15.801 QT
-105.403 -19.129 L
-106.856 -19.129 -108.38 -18.653 QT
-109.903 -18.176 -110.903 -17.161 QT
-111.903 -16.145 -111.903 -14.661 QT
cp
f
GR
GS
[0 -0.375 0.375 0 32.35 152.06237] CT
0.149 GC
N
-96.45 -11.52 M
-96.45 -30.458 L
-96.45 -31.317 -96.708 -31.7 QT
-96.965 -32.083 -97.45 -32.169 QT
-97.934 -32.254 -98.95 -32.254 QT
-98.95 -33.379 L
-94.215 -33.723 L
-94.215 -23.708 L
-93.684 -24.301 -92.973 -24.747 QT
-92.262 -25.192 -91.45 -25.426 QT
-90.637 -25.661 -89.794 -25.661 QT
-88.356 -25.661 -87.13 -25.083 QT
-85.903 -24.504 -84.997 -23.489 QT
-84.09 -22.473 -83.583 -21.153 QT
-83.075 -19.833 -83.075 -18.426 QT
-83.075 -16.489 -84.02 -14.817 QT
-84.965 -13.145 -86.598 -12.153 QT
-88.231 -11.161 -90.184 -11.161 QT
-91.403 -11.161 -92.544 -11.786 QT
-93.684 -12.411 -94.434 -13.442 QT
-95.528 -11.52 L
-96.45 -11.52 L
cp
-94.122 -14.661 M
-93.59 -13.489 -92.59 -12.747 QT
-91.59 -12.004 -90.372 -12.004 QT
-88.715 -12.004 -87.692 -12.958 QT
-86.669 -13.911 -86.262 -15.364 QT
-85.856 -16.817 -85.856 -18.426 QT
-85.856 -21.129 -86.559 -22.536 QT
-86.872 -23.161 -87.411 -23.692 QT
-87.95 -24.223 -88.614 -24.528 QT
-89.278 -24.833 -90.012 -24.833 QT
-91.294 -24.833 -92.387 -24.153 QT
-93.481 -23.473 -94.122 -22.333 QT
-94.122 -14.661 L
cp
f
GR
GS
[0 -0.375 0.375 0 32.35 152.06237] CT
0.149 GC
N
-81.016 -11.52 M
-81.016 -12.645 L
-79.922 -12.645 -79.219 -12.817 QT
-78.516 -12.989 -78.516 -13.661 QT
-78.516 -22.395 L
-78.516 -23.629 -78.992 -23.911 QT
-79.469 -24.192 -80.875 -24.192 QT
-80.875 -25.317 L
-76.266 -25.661 L
-76.266 -13.661 L
-76.266 -12.989 -75.656 -12.817 QT
-75.047 -12.645 -74.031 -12.645 QT
-74.031 -11.52 L
-81.016 -11.52 L
cp
-79.656 -31.161 M
-79.656 -31.864 -79.125 -32.395 QT
-78.594 -32.926 -77.906 -32.926 QT
-77.453 -32.926 -77.031 -32.692 QT
-76.609 -32.458 -76.375 -32.036 QT
-76.141 -31.614 -76.141 -31.161 QT
-76.141 -30.473 -76.672 -29.942 QT
-77.203 -29.411 -77.906 -29.411 QT
-78.594 -29.411 -79.125 -29.942 QT
-79.656 -30.473 -79.656 -31.161 QT
cp
f
GR
GS
[0 -0.375 0.375 0 32.35 152.06237] CT
0.149 GC
N
-72.127 -11.52 M
-72.127 -12.645 L
-71.033 -12.645 -70.33 -12.817 QT
-69.627 -12.989 -69.627 -13.661 QT
-69.627 -30.458 L
-69.627 -31.317 -69.885 -31.7 QT
-70.142 -32.083 -70.627 -32.169 QT
-71.111 -32.254 -72.127 -32.254 QT
-72.127 -33.379 L
-67.377 -33.723 L
-67.377 -13.661 L
-67.377 -12.989 -66.674 -12.817 QT
-65.971 -12.645 -64.892 -12.645 QT
-64.892 -11.52 L
-72.127 -11.52 L
cp
f
GR
GS
[0 -0.375 0.375 0 32.35 152.06237] CT
0.149 GC
N
-63.238 -11.52 M
-63.238 -12.645 L
-62.144 -12.645 -61.441 -12.817 QT
-60.738 -12.989 -60.738 -13.661 QT
-60.738 -22.395 L
-60.738 -23.629 -61.214 -23.911 QT
-61.691 -24.192 -63.097 -24.192 QT
-63.097 -25.317 L
-58.488 -25.661 L
-58.488 -13.661 L
-58.488 -12.989 -57.879 -12.817 QT
-57.269 -12.645 -56.254 -12.645 QT
-56.254 -11.52 L
-63.238 -11.52 L
cp
-61.879 -31.161 M
-61.879 -31.864 -61.347 -32.395 QT
-60.816 -32.926 -60.129 -32.926 QT
-59.675 -32.926 -59.254 -32.692 QT
-58.832 -32.458 -58.597 -32.036 QT
-58.363 -31.614 -58.363 -31.161 QT
-58.363 -30.473 -58.894 -29.942 QT
-59.425 -29.411 -60.129 -29.411 QT
-60.816 -29.411 -61.347 -29.942 QT
-61.879 -30.473 -61.879 -31.161 QT
cp
f
GR
GS
[0 -0.375 0.375 0 32.35 152.06237] CT
0.149 GC
N
-52.068 -15.364 M
-52.068 -24.192 L
-54.724 -24.192 L
-54.724 -25.02 L
-52.63 -25.02 -51.646 -26.973 QT
-50.661 -28.926 -50.661 -31.208 QT
-49.74 -31.208 L
-49.74 -25.317 L
-45.224 -25.317 L
-45.224 -24.192 L
-49.74 -24.192 L
-49.74 -15.426 L
-49.74 -14.098 -49.294 -13.098 QT
-48.849 -12.098 -47.693 -12.098 QT
-46.599 -12.098 -46.115 -13.153 QT
-45.63 -14.208 -45.63 -15.426 QT
-45.63 -17.317 L
-44.708 -17.317 L
-44.708 -15.364 L
-44.708 -14.364 -45.076 -13.387 QT
-45.443 -12.411 -46.161 -11.786 QT
-46.88 -11.161 -47.911 -11.161 QT
-49.833 -11.161 -50.951 -12.309 QT
-52.068 -13.458 -52.068 -15.364 QT
cp
f
GR
GS
[0 -0.375 0.375 0 32.35 152.06237] CT
0.149 GC
N
-41.575 -6.27 M
-40.965 -5.786 -40.231 -5.786 QT
-38.215 -5.786 -36.934 -8.833 QT
-35.84 -11.52 L
-40.637 -23.27 L
-40.934 -23.864 -41.543 -24.028 QT
-42.153 -24.192 -43.168 -24.192 QT
-43.168 -25.317 L
-36.45 -25.317 L
-36.45 -24.192 L
-38.215 -24.192 -38.215 -23.426 QT
-38.215 -23.301 -38.184 -23.239 QT
-34.622 -14.489 L
-31.418 -22.364 L
-31.325 -22.614 -31.325 -22.911 QT
-31.325 -23.301 -31.536 -23.59 QT
-31.747 -23.879 -32.082 -24.036 QT
-32.418 -24.192 -32.84 -24.192 QT
-32.84 -25.317 L
-27.528 -25.317 L
-27.528 -24.192 L
-28.512 -24.192 -29.254 -23.739 QT
-29.997 -23.286 -30.403 -22.395 QT
-35.934 -8.833 L
-36.372 -7.801 -36.957 -6.934 QT
-37.543 -6.067 -38.387 -5.512 QT
-39.231 -4.958 -40.231 -4.958 QT
-41.403 -4.958 -42.286 -5.731 QT
-43.168 -6.504 -43.168 -7.645 QT
-43.168 -8.239 -42.762 -8.645 QT
-42.356 -9.051 -41.762 -9.051 QT
-41.356 -9.051 -41.036 -8.872 QT
-40.715 -8.692 -40.536 -8.379 QT
-40.356 -8.067 -40.356 -7.645 QT
-40.356 -7.129 -40.7 -6.723 QT
-41.043 -6.317 -41.575 -6.27 QT
cp
f
GR
GS
[0 -0.375 0.375 0 32.35 152.06237] CT
0.149 GC
N
-8.222 -11.161 M
-10.144 -11.161 -11.785 -12.137 QT
-13.425 -13.114 -14.378 -14.754 QT
-15.332 -16.395 -15.332 -18.333 QT
-15.332 -19.801 -14.808 -21.161 QT
-14.285 -22.52 -13.308 -23.59 QT
-12.332 -24.661 -11.035 -25.262 QT
-9.738 -25.864 -8.222 -25.864 QT
-6.253 -25.864 -4.636 -24.825 QT
-3.019 -23.786 -2.082 -22.044 QT
-1.144 -20.301 -1.144 -18.333 QT
-1.144 -16.411 -2.097 -14.762 QT
-3.05 -13.114 -4.683 -12.137 QT
-6.316 -11.161 -8.222 -11.161 QT
cp
-8.222 -12.098 M
-5.66 -12.098 -4.8 -13.958 QT
-3.941 -15.817 -3.941 -18.692 QT
-3.941 -20.301 -4.113 -21.356 QT
-4.285 -22.411 -4.863 -23.27 QT
-5.222 -23.801 -5.777 -24.2 QT
-6.332 -24.598 -6.949 -24.809 QT
-7.566 -25.02 -8.222 -25.02 QT
-9.222 -25.02 -10.121 -24.567 QT
-11.019 -24.114 -11.613 -23.27 QT
-12.207 -22.364 -12.371 -21.278 QT
-12.535 -20.192 -12.535 -18.692 QT
-12.535 -16.895 -12.222 -15.465 QT
-11.91 -14.036 -10.964 -13.067 QT
-10.019 -12.098 -8.222 -12.098 QT
cp
f
GR
GS
[0 -0.375 0.375 0 32.35 152.06237] CT
0.149 GC
N
0.809 -11.52 M
0.809 -12.645 L
1.887 -12.645 2.59 -12.817 QT
3.294 -12.989 3.294 -13.661 QT
3.294 -24.192 L
0.84 -24.192 L
0.84 -25.317 L
3.294 -25.317 L
3.294 -29.145 L
3.294 -30.176 3.723 -31.075 QT
4.153 -31.973 4.879 -32.645 QT
5.606 -33.317 6.551 -33.7 QT
7.497 -34.083 8.512 -34.083 QT
9.59 -34.083 10.458 -33.442 QT
11.325 -32.801 11.325 -31.739 QT
11.325 -31.129 10.911 -30.715 QT
10.497 -30.301 9.887 -30.301 QT
9.278 -30.301 8.848 -30.715 QT
8.419 -31.129 8.419 -31.739 QT
8.419 -32.739 9.278 -33.083 QT
8.762 -33.254 8.356 -33.254 QT
7.419 -33.254 6.754 -32.59 QT
6.09 -31.926 5.762 -30.973 QT
5.434 -30.02 5.434 -29.083 QT
5.434 -25.317 L
9.122 -25.317 L
9.122 -24.192 L
5.544 -24.192 L
5.544 -13.661 L
5.544 -13.004 6.481 -12.825 QT
7.419 -12.645 8.637 -12.645 QT
8.637 -11.52 L
0.809 -11.52 L
cp
f
GR
GS
[0 -0.375 0.375 0 32.35 152.06237] CT
0.149 GC
N
23.488 -15.364 M
23.488 -24.192 L
20.832 -24.192 L
20.832 -25.02 L
22.925 -25.02 23.91 -26.973 QT
24.894 -28.926 24.894 -31.208 QT
25.816 -31.208 L
25.816 -25.317 L
30.332 -25.317 L
30.332 -24.192 L
25.816 -24.192 L
25.816 -15.426 L
25.816 -14.098 26.261 -13.098 QT
26.707 -12.098 27.863 -12.098 QT
28.957 -12.098 29.441 -13.153 QT
29.925 -14.208 29.925 -15.426 QT
29.925 -17.317 L
30.847 -17.317 L
30.847 -15.364 L
30.847 -14.364 30.48 -13.387 QT
30.113 -12.411 29.394 -11.786 QT
28.675 -11.161 27.644 -11.161 QT
25.722 -11.161 24.605 -12.309 QT
23.488 -13.458 23.488 -15.364 QT
cp
f
GR
GS
[0 -0.375 0.375 0 32.35 152.06237] CT
0.149 GC
N
33.62 -11.52 M
33.62 -12.645 L
34.714 -12.645 35.417 -12.817 QT
36.12 -12.989 36.12 -13.661 QT
36.12 -30.458 L
36.12 -31.317 35.862 -31.7 QT
35.604 -32.083 35.12 -32.169 QT
34.636 -32.254 33.62 -32.254 QT
33.62 -33.379 L
38.37 -33.723 L
38.37 -22.723 L
39.042 -24.051 40.245 -24.856 QT
41.448 -25.661 42.901 -25.661 QT
45.12 -25.661 46.237 -24.598 QT
47.354 -23.536 47.354 -21.348 QT
47.354 -13.661 L
47.354 -12.989 48.057 -12.817 QT
48.761 -12.645 49.854 -12.645 QT
49.854 -11.52 L
42.526 -11.52 L
42.526 -12.645 L
43.62 -12.645 44.323 -12.817 QT
45.026 -12.989 45.026 -13.661 QT
45.026 -21.254 L
45.026 -22.817 44.573 -23.825 QT
44.12 -24.833 42.714 -24.833 QT
40.854 -24.833 39.659 -23.348 QT
38.464 -21.864 38.464 -19.973 QT
38.464 -13.661 L
38.464 -12.989 39.167 -12.817 QT
39.87 -12.645 40.948 -12.645 QT
40.948 -11.52 L
33.62 -11.52 L
cp
f
GR
GS
[0 -0.375 0.375 0 32.35 152.06237] CT
0.149 GC
N
58.413 -11.161 M
56.46 -11.161 54.827 -12.184 QT
53.195 -13.208 52.265 -14.919 QT
51.335 -16.629 51.335 -18.536 QT
51.335 -20.411 52.187 -22.098 QT
53.038 -23.786 54.562 -24.825 QT
56.085 -25.864 57.96 -25.864 QT
59.429 -25.864 60.515 -25.372 QT
61.601 -24.879 62.304 -24.004 QT
63.007 -23.129 63.367 -21.942 QT
63.726 -20.754 63.726 -19.333 QT
63.726 -18.911 63.398 -18.911 QT
54.132 -18.911 L
54.132 -18.567 L
54.132 -15.911 55.202 -14.004 QT
56.273 -12.098 58.695 -12.098 QT
59.679 -12.098 60.515 -12.536 QT
61.351 -12.973 61.968 -13.754 QT
62.585 -14.536 62.804 -15.426 QT
62.835 -15.536 62.921 -15.622 QT
63.007 -15.708 63.117 -15.708 QT
63.398 -15.708 L
63.726 -15.708 63.726 -15.301 QT
63.273 -13.489 61.773 -12.325 QT
60.273 -11.161 58.413 -11.161 QT
cp
54.163 -19.708 M
61.46 -19.708 L
61.46 -20.911 61.124 -22.145 QT
60.788 -23.379 60.007 -24.2 QT
59.226 -25.02 57.96 -25.02 QT
56.148 -25.02 55.156 -23.325 QT
54.163 -21.629 54.163 -19.708 QT
cp
f
GR
GS
[0 -0.375 0.375 0 32.35 152.06237] CT
0.149 GC
N
76.318 -11.52 M
76.318 -12.645 L
79.615 -12.645 79.615 -13.661 QT
79.615 -31.239 L
79.615 -32.254 76.318 -32.254 QT
76.318 -33.379 L
93.959 -33.379 L
94.849 -26.051 L
93.927 -26.051 L
93.709 -28.067 93.341 -29.231 QT
92.974 -30.395 92.271 -31.059 QT
91.568 -31.723 90.388 -31.989 QT
89.209 -32.254 87.146 -32.254 QT
84.224 -32.254 L
83.646 -32.254 83.326 -32.208 QT
83.005 -32.161 82.802 -31.934 QT
82.599 -31.708 82.599 -31.239 QT
82.599 -23.004 L
84.865 -23.004 L
86.505 -23.004 87.271 -23.294 QT
88.037 -23.583 88.326 -24.348 QT
88.615 -25.114 88.615 -26.754 QT
89.537 -26.754 L
89.537 -18.145 L
88.615 -18.145 L
88.615 -19.786 88.326 -20.551 QT
88.037 -21.317 87.271 -21.606 QT
86.505 -21.895 84.865 -21.895 QT
82.599 -21.895 L
82.599 -13.661 L
82.599 -12.645 86.693 -12.645 QT
86.693 -11.52 L
76.318 -11.52 L
cp
f
GR
GS
[0 -0.375 0.375 0 32.35 152.06237] CT
0.149 GC
N
94.837 -14.661 M
94.837 -16.567 96.337 -17.762 QT
97.837 -18.958 99.939 -19.45 QT
102.04 -19.942 103.931 -19.942 QT
103.931 -21.254 L
103.931 -22.176 103.525 -23.044 QT
103.118 -23.911 102.353 -24.465 QT
101.587 -25.02 100.665 -25.02 QT
98.54 -25.02 97.431 -24.067 QT
98.04 -24.067 98.439 -23.606 QT
98.837 -23.145 98.837 -22.536 QT
98.837 -21.895 98.384 -21.442 QT
97.931 -20.989 97.306 -20.989 QT
96.665 -20.989 96.212 -21.442 QT
95.759 -21.895 95.759 -22.536 QT
95.759 -24.223 97.29 -25.044 QT
98.821 -25.864 100.665 -25.864 QT
101.962 -25.864 103.275 -25.309 QT
104.587 -24.754 105.423 -23.723 QT
106.259 -22.692 106.259 -21.317 QT
106.259 -14.114 L
106.259 -13.489 106.525 -12.965 QT
106.79 -12.442 107.353 -12.442 QT
107.884 -12.442 108.142 -12.973 QT
108.4 -13.504 108.4 -14.114 QT
108.4 -16.161 L
109.337 -16.161 L
109.337 -14.114 L
109.337 -13.395 108.962 -12.747 QT
108.587 -12.098 107.954 -11.715 QT
107.321 -11.333 106.587 -11.333 QT
105.65 -11.333 104.97 -12.059 QT
104.29 -12.786 104.212 -13.786 QT
103.618 -12.583 102.462 -11.872 QT
101.306 -11.161 99.993 -11.161 QT
98.775 -11.161 97.595 -11.52 QT
96.415 -11.879 95.626 -12.653 QT
94.837 -13.426 94.837 -14.661 QT
cp
97.431 -14.661 M
97.431 -13.536 98.259 -12.77 QT
99.087 -12.004 100.212 -12.004 QT
101.243 -12.004 102.087 -12.52 QT
102.931 -13.036 103.431 -13.926 QT
103.931 -14.817 103.931 -15.801 QT
103.931 -19.129 L
102.478 -19.129 100.954 -18.653 QT
99.431 -18.176 98.431 -17.161 QT
97.431 -16.145 97.431 -14.661 QT
cp
f
GR
GS
[0 -0.375 0.375 0 32.35 152.06237] CT
0.149 GC
N
110.54 -11.52 M
110.54 -12.645 L
111.634 -12.645 112.337 -12.817 QT
113.04 -12.989 113.04 -13.661 QT
113.04 -22.395 L
113.04 -23.629 112.564 -23.911 QT
112.087 -24.192 110.681 -24.192 QT
110.681 -25.317 L
115.29 -25.661 L
115.29 -13.661 L
115.29 -12.989 115.9 -12.817 QT
116.509 -12.645 117.525 -12.645 QT
117.525 -11.52 L
110.54 -11.52 L
cp
111.9 -31.161 M
111.9 -31.864 112.431 -32.395 QT
112.962 -32.926 113.65 -32.926 QT
114.103 -32.926 114.525 -32.692 QT
114.946 -32.458 115.181 -32.036 QT
115.415 -31.614 115.415 -31.161 QT
115.415 -30.473 114.884 -29.942 QT
114.353 -29.411 113.65 -29.411 QT
112.962 -29.411 112.431 -29.942 QT
111.9 -30.473 111.9 -31.161 QT
cp
f
GR
GS
[0 -0.375 0.375 0 32.35 152.06237] CT
0.149 GC
N
119.429 -11.52 M
119.429 -12.645 L
120.523 -12.645 121.226 -12.817 QT
121.929 -12.989 121.929 -13.661 QT
121.929 -30.458 L
121.929 -31.317 121.671 -31.7 QT
121.414 -32.083 120.929 -32.169 QT
120.445 -32.254 119.429 -32.254 QT
119.429 -33.379 L
124.179 -33.723 L
124.179 -13.661 L
124.179 -12.989 124.882 -12.817 QT
125.585 -12.645 126.664 -12.645 QT
126.664 -11.52 L
119.429 -11.52 L
cp
f
GR
GS
[0 -0.375 0.375 0 32.35 152.06237] CT
0.149 GC
N
130.787 -15.333 M
130.787 -22.395 L
130.787 -23.254 130.529 -23.637 QT
130.271 -24.02 129.787 -24.106 QT
129.302 -24.192 128.287 -24.192 QT
128.287 -25.317 L
133.131 -25.661 L
133.131 -15.333 L
133.131 -14.083 133.31 -13.387 QT
133.49 -12.692 134.076 -12.348 QT
134.662 -12.004 135.943 -12.004 QT
137.662 -12.004 138.677 -13.442 QT
139.693 -14.879 139.693 -16.708 QT
139.693 -22.395 L
139.693 -23.254 139.427 -23.637 QT
139.162 -24.02 138.685 -24.106 QT
138.209 -24.192 137.193 -24.192 QT
137.193 -25.317 L
142.021 -25.661 L
142.021 -14.426 L
142.021 -13.583 142.279 -13.2 QT
142.537 -12.817 143.021 -12.731 QT
143.506 -12.645 144.521 -12.645 QT
144.521 -11.52 L
139.787 -11.161 L
139.787 -13.864 L
139.193 -12.661 138.131 -11.911 QT
137.068 -11.161 135.787 -11.161 QT
133.49 -11.161 132.138 -12.137 QT
130.787 -13.114 130.787 -15.333 QT
cp
f
GR
GS
[0 -0.375 0.375 0 32.35 152.06237] CT
0.149 GC
N
145.94 -11.52 M
145.94 -12.645 L
147.033 -12.645 147.737 -12.817 QT
148.44 -12.989 148.44 -13.661 QT
148.44 -22.395 L
148.44 -23.254 148.182 -23.637 QT
147.924 -24.02 147.44 -24.106 QT
146.955 -24.192 145.94 -24.192 QT
145.94 -25.317 L
150.518 -25.661 L
150.518 -22.536 L
151.033 -23.926 151.987 -24.794 QT
152.94 -25.661 154.299 -25.661 QT
155.252 -25.661 156.002 -25.098 QT
156.752 -24.536 156.752 -23.614 QT
156.752 -23.036 156.338 -22.606 QT
155.924 -22.176 155.315 -22.176 QT
154.721 -22.176 154.299 -22.598 QT
153.877 -23.02 153.877 -23.614 QT
153.877 -24.473 154.487 -24.833 QT
154.299 -24.833 L
153.002 -24.833 152.182 -23.895 QT
151.362 -22.958 151.018 -21.567 QT
150.674 -20.176 150.674 -18.911 QT
150.674 -13.661 L
150.674 -12.645 153.783 -12.645 QT
153.783 -11.52 L
145.94 -11.52 L
cp
f
GR
GS
[0 -0.375 0.375 0 32.35 152.06237] CT
0.149 GC
N
165.614 -11.161 M
163.661 -11.161 162.028 -12.184 QT
160.395 -13.208 159.465 -14.919 QT
158.536 -16.629 158.536 -18.536 QT
158.536 -20.411 159.387 -22.098 QT
160.239 -23.786 161.762 -24.825 QT
163.286 -25.864 165.161 -25.864 QT
166.629 -25.864 167.715 -25.372 QT
168.801 -24.879 169.504 -24.004 QT
170.207 -23.129 170.567 -21.942 QT
170.926 -20.754 170.926 -19.333 QT
170.926 -18.911 170.598 -18.911 QT
161.332 -18.911 L
161.332 -18.567 L
161.332 -15.911 162.403 -14.004 QT
163.473 -12.098 165.895 -12.098 QT
166.879 -12.098 167.715 -12.536 QT
168.551 -12.973 169.168 -13.754 QT
169.786 -14.536 170.004 -15.426 QT
170.036 -15.536 170.121 -15.622 QT
170.207 -15.708 170.317 -15.708 QT
170.598 -15.708 L
170.926 -15.708 170.926 -15.301 QT
170.473 -13.489 168.973 -12.325 QT
167.473 -11.161 165.614 -11.161 QT
cp
161.364 -19.708 M
168.661 -19.708 L
168.661 -20.911 168.325 -22.145 QT
167.989 -23.379 167.207 -24.2 QT
166.426 -25.02 165.161 -25.02 QT
163.348 -25.02 162.356 -23.325 QT
161.364 -21.629 161.364 -19.708 QT
cp
f
GR
GS
[0 -0.375 0.375 0 32.35 152.06237] CT
0.149 GC
N
183.596 -11.52 M
183.596 -12.645 L
186.893 -12.645 186.893 -13.661 QT
186.893 -31.239 L
186.893 -32.254 183.596 -32.254 QT
183.596 -33.379 L
193.643 -33.379 L
195.44 -33.379 197.417 -32.731 QT
199.393 -32.083 200.721 -30.754 QT
202.049 -29.426 202.049 -27.583 QT
202.049 -26.239 201.245 -25.184 QT
200.44 -24.129 199.182 -23.419 QT
197.924 -22.708 196.612 -22.395 QT
198.049 -21.895 199.128 -20.801 QT
200.206 -19.708 200.424 -18.301 QT
200.878 -15.458 L
201.19 -13.536 201.534 -12.59 QT
201.878 -11.645 203.049 -11.645 QT
204.049 -11.645 204.542 -12.575 QT
205.034 -13.504 205.034 -14.598 QT
205.034 -14.708 205.135 -14.794 QT
205.237 -14.879 205.346 -14.879 QT
205.643 -14.879 L
205.956 -14.879 205.956 -14.458 QT
205.956 -13.583 205.612 -12.747 QT
205.268 -11.911 204.62 -11.364 QT
203.971 -10.817 203.081 -10.817 QT
200.768 -10.817 199.104 -11.965 QT
197.44 -13.114 197.44 -15.333 QT
197.44 -18.176 L
197.44 -19.77 196.331 -20.911 QT
195.221 -22.051 193.612 -22.051 QT
189.768 -22.051 L
189.768 -13.661 L
189.768 -12.645 193.065 -12.645 QT
193.065 -11.52 L
183.596 -11.52 L
cp
189.768 -22.879 M
193.19 -22.879 L
195.846 -22.879 197.237 -23.95 QT
198.628 -25.02 198.628 -27.583 QT
198.628 -30.129 197.253 -31.192 QT
195.878 -32.254 193.19 -32.254 QT
191.393 -32.254 L
190.815 -32.254 190.495 -32.208 QT
190.174 -32.161 189.971 -31.934 QT
189.768 -31.708 189.768 -31.239 QT
189.768 -22.879 L
cp
f
GR
GS
[0 -0.375 0.375 0 32.35 152.06237] CT
0.149 GC
N
207.371 -14.661 M
207.371 -16.567 208.871 -17.762 QT
210.371 -18.958 212.472 -19.45 QT
214.574 -19.942 216.464 -19.942 QT
216.464 -21.254 L
216.464 -22.176 216.058 -23.044 QT
215.652 -23.911 214.886 -24.465 QT
214.121 -25.02 213.199 -25.02 QT
211.074 -25.02 209.964 -24.067 QT
210.574 -24.067 210.972 -23.606 QT
211.371 -23.145 211.371 -22.536 QT
211.371 -21.895 210.917 -21.442 QT
210.464 -20.989 209.839 -20.989 QT
209.199 -20.989 208.746 -21.442 QT
208.292 -21.895 208.292 -22.536 QT
208.292 -24.223 209.824 -25.044 QT
211.355 -25.864 213.199 -25.864 QT
214.496 -25.864 215.808 -25.309 QT
217.121 -24.754 217.957 -23.723 QT
218.792 -22.692 218.792 -21.317 QT
218.792 -14.114 L
218.792 -13.489 219.058 -12.965 QT
219.324 -12.442 219.886 -12.442 QT
220.417 -12.442 220.675 -12.973 QT
220.933 -13.504 220.933 -14.114 QT
220.933 -16.161 L
221.871 -16.161 L
221.871 -14.114 L
221.871 -13.395 221.496 -12.747 QT
221.121 -12.098 220.488 -11.715 QT
219.855 -11.333 219.121 -11.333 QT
218.183 -11.333 217.503 -12.059 QT
216.824 -12.786 216.746 -13.786 QT
216.152 -12.583 214.996 -11.872 QT
213.839 -11.161 212.527 -11.161 QT
211.308 -11.161 210.128 -11.52 QT
208.949 -11.879 208.16 -12.653 QT
207.371 -13.426 207.371 -14.661 QT
cp
209.964 -14.661 M
209.964 -13.536 210.792 -12.77 QT
211.621 -12.004 212.746 -12.004 QT
213.777 -12.004 214.621 -12.52 QT
215.464 -13.036 215.964 -13.926 QT
216.464 -14.817 216.464 -15.801 QT
216.464 -19.129 L
215.011 -19.129 213.488 -18.653 QT
211.964 -18.176 210.964 -17.161 QT
209.964 -16.145 209.964 -14.661 QT
cp
f
GR
GS
[0 -0.375 0.375 0 32.35 152.06237] CT
0.149 GC
N
225.355 -15.364 M
225.355 -24.192 L
222.699 -24.192 L
222.699 -25.02 L
224.792 -25.02 225.777 -26.973 QT
226.761 -28.926 226.761 -31.208 QT
227.683 -31.208 L
227.683 -25.317 L
232.199 -25.317 L
232.199 -24.192 L
227.683 -24.192 L
227.683 -15.426 L
227.683 -14.098 228.128 -13.098 QT
228.574 -12.098 229.73 -12.098 QT
230.824 -12.098 231.308 -13.153 QT
231.792 -14.208 231.792 -15.426 QT
231.792 -17.317 L
232.714 -17.317 L
232.714 -15.364 L
232.714 -14.364 232.347 -13.387 QT
231.98 -12.411 231.261 -11.786 QT
230.542 -11.161 229.511 -11.161 QT
227.589 -11.161 226.472 -12.309 QT
225.355 -13.458 225.355 -15.364 QT
cp
f
GR
GS
[0 -0.375 0.375 0 32.35 152.06237] CT
0.149 GC
N
242.503 -11.161 M
240.549 -11.161 238.917 -12.184 QT
237.284 -13.208 236.354 -14.919 QT
235.424 -16.629 235.424 -18.536 QT
235.424 -20.411 236.276 -22.098 QT
237.128 -23.786 238.651 -24.825 QT
240.174 -25.864 242.049 -25.864 QT
243.518 -25.864 244.604 -25.372 QT
245.69 -24.879 246.393 -24.004 QT
247.096 -23.129 247.456 -21.942 QT
247.815 -20.754 247.815 -19.333 QT
247.815 -18.911 247.487 -18.911 QT
238.221 -18.911 L
238.221 -18.567 L
238.221 -15.911 239.292 -14.004 QT
240.362 -12.098 242.784 -12.098 QT
243.768 -12.098 244.604 -12.536 QT
245.44 -12.973 246.057 -13.754 QT
246.674 -14.536 246.893 -15.426 QT
246.924 -15.536 247.01 -15.622 QT
247.096 -15.708 247.206 -15.708 QT
247.487 -15.708 L
247.815 -15.708 247.815 -15.301 QT
247.362 -13.489 245.862 -12.325 QT
244.362 -11.161 242.503 -11.161 QT
cp
238.253 -19.708 M
245.549 -19.708 L
245.549 -20.911 245.214 -22.145 QT
244.878 -23.379 244.096 -24.2 QT
243.315 -25.02 242.049 -25.02 QT
240.237 -25.02 239.245 -23.325 QT
238.253 -21.629 238.253 -19.708 QT
cp
f
GR
GS
[0.375 0 0 0.375 0 0] CT
0 0.447 0.741 RC
1 LJ
1.333 LW
N
146 748 M
153.233 748 L
160.467 748 L
167.7 748 L
174.933 748 L
182.167 748 L
189.4 748 L
196.633 748 L
203.867 748 L
211.1 748 L
218.333 748 L
225.567 748 L
232.8 748 L
240.033 748 L
247.267 748 L
254.5 748 L
261.733 748 L
268.967 748 L
276.2 748 L
283.433 748 L
290.667 748 L
297.9 748 L
305.133 748 L
312.367 748 L
319.6 748 L
326.833 748 L
334.067 748 L
341.3 748 L
348.533 747.999 L
355.767 747.999 L
363 747.998 L
370.233 747.996 L
377.467 747.994 L
384.7 747.99 L
391.933 747.984 L
399.167 747.975 L
406.4 747.961 L
413.633 747.94 L
420.867 747.908 L
428.1 747.861 L
435.333 747.791 L
442.567 747.69 L
449.8 747.544 L
457.033 747.337 L
464.267 747.045 L
471.5 746.638 L
478.733 746.077 L
485.967 745.311 L
493.2 744.279 L
500.433 742.901 L
507.667 741.082 L
514.9 738.708 L
522.133 735.644 L
529.367 731.733 L
536.6 726.798 L
543.833 720.639 L
551.067 713.043 L
558.3 703.783 L
565.533 692.626 L
572.767 679.344 L
580 663.723 L
587.233 645.577 L
594.467 624.763 L
601.7 601.195 L
608.933 574.859 L
616.167 545.83 L
623.4 514.284 L
630.633 480.503 L
637.867 444.886 L
645.1 407.945 L
652.333 370.297 L
659.567 332.655 L
666.8 295.807 L
674.033 260.589 L
681.267 227.854 L
688.5 198.445 L
695.733 173.15 L
702.967 152.674 L
710.2 137.604 L
717.433 128.379 L
724.667 125.273 L
731.9 128.379 L
739.133 137.604 L
746.367 152.674 L
753.6 173.15 L
760.833 198.445 L
768.067 227.854 L
775.3 260.589 L
782.533 295.807 L
789.767 332.655 L
797 370.297 L
804.233 407.945 L
811.467 444.886 L
818.7 480.503 L
825.933 514.284 L
833.167 545.83 L
840.4 574.859 L
847.633 601.195 L
854.867 624.763 L
862.1 645.577 L
869.333 663.723 L
876.567 679.344 L
883.8 692.626 L
891.033 703.783 L
898.267 713.043 L
905.5 720.639 L
912.733 726.798 L
919.967 731.733 L
927.2 735.644 L
934.433 738.708 L
941.667 741.082 L
948.9 742.901 L
956.133 744.279 L
963.367 745.311 L
970.6 746.077 L
977.833 746.638 L
985.067 747.045 L
992.3 747.337 L
999.533 747.544 L
1006.767 747.69 L
1014 747.791 L
S
GR
GS
[0.375 0 0 0.375 271.75001 46.97727] CT
0 0.451 0.741 RC
N
8 0 M
8 -4.418 4.418 -8 0 -8 C
-4.418 -8 -8 -4.418 -8 0 C
-8 4.418 -4.418 8 0 8 C
4.418 8 8 4.418 8 0 C
f
GR
GS
[0.375 0 0 0.375 271.75001 46.97727] CT
0 0.447 0.741 RC
10.0 ML
1.333 LW
N
8 0 M
8 -4.418 4.418 -8 0 -8 C
-4.418 -8 -8 -4.418 -8 0 C
-8 4.418 -4.418 8 0 8 C
4.418 8 8 4.418 8 0 C
S
GR
GS
[0.375 0 0 0.375 288.02502 46.97727] CT
N
5.406 7.68 M
5.406 6.555 L
7.016 6.555 8.531 6.375 QT
10.047 6.196 10.047 5.539 QT
10.047 -12.039 L
10.047 -12.726 9.664 -12.89 QT
9.281 -13.054 8.422 -13.054 QT
7.078 -13.054 L
4.438 -13.054 3.328 -11.898 QT
2.75 -11.32 2.5 -10.047 QT
2.25 -8.773 2.078 -6.851 QT
1.156 -6.851 L
1.766 -14.179 L
21.313 -14.179 L
21.922 -6.851 L
20.984 -6.851 L
20.797 -8.914 20.57 -10.125 QT
20.344 -11.336 19.75 -11.898 QT
18.625 -13.054 16 -13.054 QT
14.656 -13.054 L
14.078 -13.054 13.758 -13.008 QT
13.438 -12.961 13.234 -12.734 QT
13.031 -12.508 13.031 -12.039 QT
13.031 5.539 L
13.031 6.196 14.547 6.375 QT
16.063 6.555 17.656 6.555 QT
17.656 7.68 L
5.406 7.68 L
cp
f
GR
GS
[0.375 0 0 0.375 288.02502 46.97727] CT
N
21.726 4.539 M
21.726 2.633 23.226 1.438 QT
24.726 0.242 26.827 -0.25 QT
28.929 -0.742 30.819 -0.742 QT
30.819 -2.054 L
30.819 -2.976 30.413 -3.844 QT
30.007 -4.711 29.241 -5.265 QT
28.476 -5.82 27.554 -5.82 QT
25.429 -5.82 24.319 -4.867 QT
24.929 -4.867 25.327 -4.406 QT
25.726 -3.945 25.726 -3.336 QT
25.726 -2.695 25.273 -2.242 QT
24.819 -1.789 24.194 -1.789 QT
23.554 -1.789 23.101 -2.242 QT
22.648 -2.695 22.648 -3.336 QT
22.648 -5.023 24.179 -5.844 QT
25.71 -6.664 27.554 -6.664 QT
28.851 -6.664 30.163 -6.109 QT
31.476 -5.554 32.312 -4.523 QT
33.148 -3.492 33.148 -2.117 QT
33.148 5.086 L
33.148 5.711 33.413 6.235 QT
33.679 6.758 34.241 6.758 QT
34.773 6.758 35.03 6.227 QT
35.288 5.696 35.288 5.086 QT
35.288 3.039 L
36.226 3.039 L
36.226 5.086 L
36.226 5.805 35.851 6.453 QT
35.476 7.102 34.843 7.485 QT
34.21 7.867 33.476 7.867 QT
32.538 7.867 31.858 7.141 QT
31.179 6.414 31.101 5.414 QT
30.507 6.617 29.351 7.328 QT
28.194 8.039 26.882 8.039 QT
25.663 8.039 24.483 7.68 QT
23.304 7.321 22.515 6.547 QT
21.726 5.774 21.726 4.539 QT
cp
24.319 4.539 M
24.319 5.664 25.148 6.43 QT
25.976 7.196 27.101 7.196 QT
28.132 7.196 28.976 6.68 QT
29.819 6.164 30.319 5.274 QT
30.819 4.383 30.819 3.399 QT
30.819 0.071 L
29.366 0.071 27.843 0.547 QT
26.319 1.024 25.319 2.039 QT
24.319 3.055 24.319 4.539 QT
cp
f
GR
GS
[0.375 0 0 0.375 288.02502 46.97727] CT
N
37.335 10.18 M
37.335 9.039 38.163 8.188 QT
38.991 7.336 40.132 6.977 QT
39.491 6.492 39.155 5.758 QT
38.819 5.024 38.819 4.196 QT
38.819 2.696 39.773 1.539 QT
38.304 0.102 38.304 -1.758 QT
38.304 -2.758 38.734 -3.633 QT
39.163 -4.508 39.929 -5.148 QT
40.694 -5.789 41.632 -6.125 QT
42.569 -6.461 43.554 -6.461 QT
45.46 -6.461 46.976 -5.351 QT
47.632 -6.054 48.53 -6.437 QT
49.429 -6.82 50.398 -6.82 QT
51.085 -6.82 51.523 -6.328 QT
51.96 -5.836 51.96 -5.148 QT
51.96 -4.758 51.663 -4.461 QT
51.366 -4.164 50.976 -4.164 QT
50.569 -4.164 50.273 -4.461 QT
49.976 -4.758 49.976 -5.148 QT
49.976 -5.742 50.366 -5.976 QT
48.71 -5.976 47.523 -4.836 QT
48.101 -4.258 48.452 -3.422 QT
48.804 -2.586 48.804 -1.758 QT
48.804 -0.398 48.054 0.688 QT
47.304 1.774 46.077 2.375 QT
44.851 2.977 43.554 2.977 QT
41.804 2.977 40.351 2.024 QT
39.898 2.649 39.898 3.43 QT
39.898 4.274 40.452 4.906 QT
41.007 5.539 41.851 5.539 QT
44.476 5.539 L
46.382 5.539 47.913 5.883 QT
49.444 6.227 50.484 7.258 QT
51.523 8.289 51.523 10.18 QT
51.523 11.586 50.335 12.516 QT
49.148 13.446 47.499 13.86 QT
45.851 14.274 44.444 14.274 QT
43.023 14.274 41.366 13.86 QT
39.71 13.446 38.523 12.516 QT
37.335 11.586 37.335 10.18 QT
cp
39.132 10.18 M
39.132 11.258 40.007 11.985 QT
40.882 12.711 42.116 13.063 QT
43.351 13.414 44.444 13.414 QT
45.523 13.414 46.757 13.063 QT
47.991 12.711 48.859 11.985 QT
49.726 11.258 49.726 10.18 QT
49.726 8.508 48.194 8.016 QT
46.663 7.524 44.476 7.524 QT
41.851 7.524 L
41.116 7.524 40.499 7.875 QT
39.882 8.227 39.507 8.86 QT
39.132 9.492 39.132 10.18 QT
cp
43.554 2.117 M
46.273 2.117 46.273 -1.758 QT
46.273 -3.429 45.694 -4.515 QT
45.116 -5.601 43.554 -5.601 QT
41.991 -5.601 41.413 -4.515 QT
40.835 -3.429 40.835 -1.758 QT
40.835 -0.695 41.054 0.164 QT
41.273 1.024 41.866 1.571 QT
42.46 2.117 43.554 2.117 QT
cp
f
GR
GS
[0.375 0 0 0.375 288.02502 46.97727] CT
N
64.174 7.68 M
64.174 6.555 L
67.471 6.555 67.471 5.539 QT
67.471 -12.039 L
67.471 -13.054 64.174 -13.054 QT
64.174 -14.179 L
75.564 -14.179 L
77.314 -14.179 79.064 -13.461 QT
80.814 -12.742 81.947 -11.367 QT
83.08 -9.992 83.08 -8.164 QT
83.08 -6.383 81.939 -5.039 QT
80.799 -3.695 79.064 -3 QT
77.33 -2.304 75.564 -2.304 QT
70.439 -2.304 L
70.439 5.539 L
70.439 6.555 73.736 6.555 QT
73.736 7.68 L
64.174 7.68 L
cp
70.346 -3.258 M
74.689 -3.258 L
76.455 -3.258 77.549 -3.765 QT
78.642 -4.273 79.15 -5.344 QT
79.658 -6.414 79.658 -8.164 QT
79.658 -10.773 78.51 -11.914 QT
77.361 -13.054 74.689 -13.054 QT
71.971 -13.054 L
71.392 -13.054 71.072 -13.008 QT
70.752 -12.961 70.549 -12.734 QT
70.346 -12.508 70.346 -12.039 QT
70.346 -3.258 L
cp
f
GR
GS
[0.375 0 0 0.375 288.02502 46.97727] CT
N
92 8.039 M
90.078 8.039 88.438 7.063 QT
86.797 6.086 85.844 4.446 QT
84.891 2.805 84.891 0.867 QT
84.891 -0.601 85.414 -1.961 QT
85.938 -3.32 86.914 -4.39 QT
87.891 -5.461 89.188 -6.062 QT
90.484 -6.664 92 -6.664 QT
93.969 -6.664 95.586 -5.625 QT
97.203 -4.586 98.141 -2.844 QT
99.078 -1.101 99.078 0.867 QT
99.078 2.789 98.125 4.438 QT
97.172 6.086 95.539 7.063 QT
93.906 8.039 92 8.039 QT
cp
92 7.102 M
94.563 7.102 95.422 5.242 QT
96.281 3.383 96.281 0.508 QT
96.281 -1.101 96.109 -2.156 QT
95.938 -3.211 95.359 -4.07 QT
95 -4.601 94.445 -5 QT
93.891 -5.398 93.274 -5.609 QT
92.656 -5.82 92 -5.82 QT
91 -5.82 90.102 -5.367 QT
89.203 -4.914 88.609 -4.07 QT
88.016 -3.164 87.852 -2.078 QT
87.688 -0.992 87.688 0.508 QT
87.688 2.305 88 3.735 QT
88.313 5.164 89.258 6.133 QT
90.203 7.102 92 7.102 QT
cp
f
GR
GS
[0.375 0 0 0.375 288.02502 46.97727] CT
N
101.063 7.774 M
101.063 2.555 L
101.063 2.305 101.344 2.305 QT
101.735 2.305 L
101.922 2.305 101.985 2.555 QT
102.875 7.196 106.297 7.196 QT
107.813 7.196 108.836 6.508 QT
109.86 5.821 109.86 4.383 QT
109.86 3.352 109.063 2.625 QT
108.266 1.899 107.172 1.633 QT
105.031 1.211 L
103.953 0.977 103.07 0.492 QT
102.188 0.008 101.625 -0.797 QT
101.063 -1.601 101.063 -2.664 QT
101.063 -4.07 101.805 -4.969 QT
102.547 -5.867 103.735 -6.265 QT
104.922 -6.664 106.297 -6.664 QT
107.938 -6.664 109.156 -5.789 QT
110.078 -6.586 L
110.078 -6.664 110.235 -6.664 QT
110.469 -6.664 L
110.563 -6.664 110.641 -6.578 QT
110.719 -6.492 110.719 -6.398 QT
110.719 -2.211 L
110.719 -1.914 110.469 -1.914 QT
110.078 -1.914 L
109.797 -1.914 109.797 -2.211 QT
109.797 -3.883 108.867 -4.898 QT
107.938 -5.914 106.266 -5.914 QT
104.828 -5.914 103.774 -5.383 QT
102.719 -4.851 102.719 -3.554 QT
102.719 -2.664 103.477 -2.094 QT
104.235 -1.523 105.25 -1.273 QT
107.422 -0.867 L
108.516 -0.617 109.461 -0.023 QT
110.406 0.571 110.961 1.477 QT
111.516 2.383 111.516 3.524 QT
111.516 4.68 111.117 5.531 QT
110.719 6.383 110.008 6.946 QT
109.297 7.508 108.328 7.774 QT
107.36 8.039 106.297 8.039 QT
104.297 8.039 102.875 6.696 QT
101.703 7.961 L
101.703 8.039 101.531 8.039 QT
101.344 8.039 L
101.063 8.039 101.063 7.774 QT
cp
f
GR
GS
[0.375 0 0 0.375 288.02502 46.97727] CT
N
113.607 7.68 M
113.607 6.555 L
114.701 6.555 115.404 6.383 QT
116.107 6.211 116.107 5.539 QT
116.107 -3.195 L
116.107 -4.429 115.63 -4.711 QT
115.154 -4.992 113.747 -4.992 QT
113.747 -6.117 L
118.357 -6.461 L
118.357 5.539 L
118.357 6.211 118.966 6.383 QT
119.576 6.555 120.591 6.555 QT
120.591 7.68 L
113.607 7.68 L
cp
114.966 -11.961 M
114.966 -12.664 115.497 -13.195 QT
116.029 -13.726 116.716 -13.726 QT
117.169 -13.726 117.591 -13.492 QT
118.013 -13.258 118.247 -12.836 QT
118.482 -12.414 118.482 -11.961 QT
118.482 -11.273 117.951 -10.742 QT
117.419 -10.211 116.716 -10.211 QT
116.029 -10.211 115.497 -10.742 QT
114.966 -11.273 114.966 -11.961 QT
cp
f
GR
GS
[0.375 0 0 0.375 288.02502 46.97727] CT
N
124.777 3.836 M
124.777 -4.992 L
122.121 -4.992 L
122.121 -5.82 L
124.214 -5.82 125.199 -7.773 QT
126.183 -9.726 126.183 -12.008 QT
127.105 -12.008 L
127.105 -6.117 L
131.621 -6.117 L
131.621 -4.992 L
127.105 -4.992 L
127.105 3.774 L
127.105 5.102 127.55 6.102 QT
127.996 7.102 129.152 7.102 QT
130.246 7.102 130.73 6.047 QT
131.214 4.992 131.214 3.774 QT
131.214 1.883 L
132.136 1.883 L
132.136 3.836 L
132.136 4.836 131.769 5.813 QT
131.402 6.789 130.683 7.414 QT
129.964 8.039 128.933 8.039 QT
127.011 8.039 125.894 6.891 QT
124.777 5.742 124.777 3.836 QT
cp
f
GR
GS
[0.375 0 0 0.375 288.02502 46.97727] CT
N
134.94 7.68 M
134.94 6.555 L
136.034 6.555 136.737 6.383 QT
137.44 6.211 137.44 5.539 QT
137.44 -3.195 L
137.44 -4.429 136.964 -4.711 QT
136.487 -4.992 135.081 -4.992 QT
135.081 -6.117 L
139.69 -6.461 L
139.69 5.539 L
139.69 6.211 140.3 6.383 QT
140.909 6.555 141.925 6.555 QT
141.925 7.68 L
134.94 7.68 L
cp
136.3 -11.961 M
136.3 -12.664 136.831 -13.195 QT
137.362 -13.726 138.05 -13.726 QT
138.503 -13.726 138.925 -13.492 QT
139.346 -13.258 139.581 -12.836 QT
139.815 -12.414 139.815 -11.961 QT
139.815 -11.273 139.284 -10.742 QT
138.753 -10.211 138.05 -10.211 QT
137.362 -10.211 136.831 -10.742 QT
136.3 -11.273 136.3 -11.961 QT
cp
f
GR
GS
[0.375 0 0 0.375 288.02502 46.97727] CT
N
150.845 8.039 M
148.923 8.039 147.282 7.063 QT
145.642 6.086 144.688 4.446 QT
143.735 2.805 143.735 0.867 QT
143.735 -0.601 144.259 -1.961 QT
144.782 -3.32 145.759 -4.39 QT
146.735 -5.461 148.032 -6.062 QT
149.329 -6.664 150.845 -6.664 QT
152.813 -6.664 154.431 -5.625 QT
156.048 -4.586 156.985 -2.844 QT
157.923 -1.101 157.923 0.867 QT
157.923 2.789 156.97 4.438 QT
156.017 6.086 154.384 7.063 QT
152.751 8.039 150.845 8.039 QT
cp
150.845 7.102 M
153.407 7.102 154.267 5.242 QT
155.126 3.383 155.126 0.508 QT
155.126 -1.101 154.954 -2.156 QT
154.782 -3.211 154.204 -4.07 QT
153.845 -4.601 153.29 -5 QT
152.735 -5.398 152.118 -5.609 QT
151.501 -5.82 150.845 -5.82 QT
149.845 -5.82 148.946 -5.367 QT
148.048 -4.914 147.454 -4.07 QT
146.86 -3.164 146.696 -2.078 QT
146.532 -0.992 146.532 0.508 QT
146.532 2.305 146.845 3.735 QT
147.157 5.164 148.103 6.133 QT
149.048 7.102 150.845 7.102 QT
cp
f
GR
GS
[0.375 0 0 0.375 288.02502 46.97727] CT
N
159.798 7.68 M
159.798 6.555 L
160.892 6.555 161.595 6.383 QT
162.298 6.211 162.298 5.539 QT
162.298 -3.195 L
162.298 -4.054 162.04 -4.437 QT
161.782 -4.82 161.298 -4.906 QT
160.813 -4.992 159.798 -4.992 QT
159.798 -6.117 L
164.438 -6.461 L
164.438 -3.336 L
165.079 -4.711 166.337 -5.586 QT
167.595 -6.461 169.079 -6.461 QT
171.298 -6.461 172.415 -5.398 QT
173.532 -4.336 173.532 -2.148 QT
173.532 5.539 L
173.532 6.211 174.235 6.383 QT
174.938 6.555 176.032 6.555 QT
176.032 7.68 L
168.704 7.68 L
168.704 6.555 L
169.798 6.555 170.501 6.383 QT
171.204 6.211 171.204 5.539 QT
171.204 -2.054 L
171.204 -3.617 170.751 -4.625 QT
170.298 -5.633 168.892 -5.633 QT
167.032 -5.633 165.837 -4.148 QT
164.642 -2.664 164.642 -0.773 QT
164.642 5.539 L
164.642 6.211 165.345 6.383 QT
166.048 6.555 167.126 6.555 QT
167.126 7.68 L
159.798 7.68 L
cp
f
GR
GS
[0.375 0 0 0.375 70.875 63] CT
N
0.891 6.016 M
0.891 5.828 0.922 5.766 QT
5.625 -13.125 L
5.766 -13.578 6.133 -13.859 QT
6.5 -14.141 6.969 -14.141 QT
7.375 -14.141 7.656 -13.898 QT
7.938 -13.656 7.938 -13.25 QT
7.938 -13.156 7.93 -13.102 QT
7.922 -13.047 7.906 -12.984 QT
6.016 -5.5 L
5.703 -4.172 5.703 -3.203 QT
5.703 -2.016 6.266 -1.25 QT
6.828 -0.484 7.969 -0.484 QT
10.297 -0.484 12.063 -3.391 QT
12.078 -3.422 12.086 -3.438 QT
12.094 -3.453 12.094 -3.484 QT
14.406 -12.766 L
14.516 -13.188 14.906 -13.492 QT
15.297 -13.797 15.75 -13.797 QT
16.125 -13.797 16.414 -13.547 QT
16.703 -13.297 16.703 -12.891 QT
16.703 -12.703 16.672 -12.641 QT
14.375 -3.422 L
14.141 -2.516 14.141 -1.859 QT
14.141 -0.484 15.078 -0.484 QT
16.078 -0.484 16.586 -1.719 QT
17.094 -2.953 17.469 -4.703 QT
17.531 -4.891 17.734 -4.891 QT
18.109 -4.891 L
18.234 -4.891 18.32 -4.789 QT
18.406 -4.688 18.406 -4.578 QT
17.844 -2.344 17.18 -0.992 QT
16.516 0.359 15.016 0.359 QT
13.953 0.359 13.133 -0.25 QT
12.313 -0.859 12.063 -1.891 QT
11.266 -0.891 10.195 -0.266 QT
9.125 0.359 7.938 0.359 QT
5.938 0.359 4.797 -0.578 QT
3.172 5.891 L
3.078 6.344 2.703 6.625 QT
2.328 6.906 1.859 6.906 QT
1.469 6.906 1.18 6.664 QT
0.891 6.422 0.891 6.016 QT
cp
f
GR
GS
[0.375 0 0 0.375 78.375 63] CT
/Times-Roman 32 F
GS
[1 0 0 1 0 0] CT
0 0 moveto 
1 -1 scale
(=4) t 
GR
GR
GS
[0.375 0 0 0.375 70.875 81.75] CT
N
5.984 0.359 M
4.563 0.359 3.461 -0.32 QT
2.359 -1 1.758 -2.156 QT
1.156 -3.313 1.156 -4.703 QT
1.156 -6.188 1.828 -7.828 QT
2.5 -9.469 3.664 -10.828 QT
4.828 -12.188 6.297 -12.992 QT
7.766 -13.797 9.313 -13.797 QT
17.375 -13.797 L
17.703 -13.797 17.938 -13.578 QT
18.172 -13.359 18.172 -12.984 QT
18.172 -12.516 17.836 -12.164 QT
17.5 -11.813 17.031 -11.813 QT
13.125 -11.813 L
14.047 -10.438 14.047 -8.484 QT
14.047 -6.875 13.422 -5.313 QT
12.797 -3.75 11.688 -2.461 QT
10.578 -1.172 9.102 -0.406 QT
7.625 0.359 5.984 0.359 QT
cp
6.016 -0.484 M
7.766 -0.484 9.117 -1.852 QT
10.469 -3.219 11.188 -5.195 QT
11.906 -7.172 11.906 -8.859 QT
11.906 -10.234 11.148 -11.023 QT
10.391 -11.813 9.031 -11.813 QT
7.172 -11.813 5.867 -10.563 QT
4.563 -9.313 3.914 -7.422 QT
3.266 -5.531 3.266 -3.781 QT
3.266 -2.406 3.992 -1.445 QT
4.719 -0.484 6.016 -0.484 QT
cp
f
GR
GS
[0.375 0 0 0.375 78 81.75] CT
/Times-Roman 32 F
GS
[1 0 0 1 0 0] CT
0 0 moveto 
1 -1 scale
(=0.5) t 
GR
GR
%%Trailer
%%Pages: 1
%%EOF
