%!PS-Adobe-3.0 EPSF-3.0
%%Creator: (MATLAB, The Mathworks, Inc. Version 9.3.0.713579 \(R2017b\). Operating System: Windows 10)
%%Title: ./Exercise3_reliability.eps
%%CreationDate: 2019-05-19T02:09:35
%%Pages: (atend)
%%BoundingBox:    19     2   391   296
%%LanguageLevel: 3
%%EndComments
%%BeginProlog
%%BeginResource: procset (Apache XML Graphics Std ProcSet) 1.2 0
%%Version: 1.2 0
%%Copyright: (Copyright 2001-2003,2010 The Apache Software Foundation. License terms: http://www.apache.org/licenses/LICENSE-2.0)
/bd{bind def}bind def
/ld{load def}bd
/GR/grestore ld
/GS/gsave ld
/RM/rmoveto ld
/C/curveto ld
/t/show ld
/L/lineto ld
/ML/setmiterlimit ld
/CT/concat ld
/f/fill ld
/N/newpath ld
/S/stroke ld
/CC/setcmykcolor ld
/A/ashow ld
/cp/closepath ld
/RC/setrgbcolor ld
/LJ/setlinejoin ld
/GC/setgray ld
/LW/setlinewidth ld
/M/moveto ld
/re {4 2 roll M
1 index 0 rlineto
0 exch rlineto
neg 0 rlineto
cp } bd
/_ctm matrix def
/_tm matrix def
/BT { _ctm currentmatrix pop matrix _tm copy pop 0 0 moveto } bd
/ET { _ctm setmatrix } bd
/iTm { _ctm setmatrix _tm concat } bd
/Tm { _tm astore pop iTm 0 0 moveto } bd
/ux 0.0 def
/uy 0.0 def
/F {
  /Tp exch def
  /Tf exch def
  Tf findfont Tp scalefont setfont
  /cf Tf def  /cs Tp def
} bd
/ULS {currentpoint /uy exch def /ux exch def} bd
/ULE {
  /Tcx currentpoint pop def
  gsave
  newpath
  cf findfont cs scalefont dup
  /FontMatrix get 0 get /Ts exch def /FontInfo get dup
  /UnderlinePosition get Ts mul /To exch def
  /UnderlineThickness get Ts mul /Tt exch def
  ux uy To add moveto  Tcx uy To add lineto
  Tt setlinewidth stroke
  grestore
} bd
/OLE {
  /Tcx currentpoint pop def
  gsave
  newpath
  cf findfont cs scalefont dup
  /FontMatrix get 0 get /Ts exch def /FontInfo get dup
  /UnderlinePosition get Ts mul /To exch def
  /UnderlineThickness get Ts mul /Tt exch def
  ux uy To add cs add moveto Tcx uy To add cs add lineto
  Tt setlinewidth stroke
  grestore
} bd
/SOE {
  /Tcx currentpoint pop def
  gsave
  newpath
  cf findfont cs scalefont dup
  /FontMatrix get 0 get /Ts exch def /FontInfo get dup
  /UnderlinePosition get Ts mul /To exch def
  /UnderlineThickness get Ts mul /Tt exch def
  ux uy To add cs 10 mul 26 idiv add moveto Tcx uy To add cs 10 mul 26 idiv add lineto
  Tt setlinewidth stroke
  grestore
} bd
/QT {
/Y22 exch store
/X22 exch store
/Y21 exch store
/X21 exch store
currentpoint
/Y21 load 2 mul add 3 div exch
/X21 load 2 mul add 3 div exch
/X21 load 2 mul /X22 load add 3 div
/Y21 load 2 mul /Y22 load add 3 div
/X22 load /Y22 load curveto
} bd
/SSPD {
dup length /d exch dict def
{
/v exch def
/k exch def
currentpagedevice k known {
/cpdv currentpagedevice k get def
v cpdv ne {
/upd false def
/nullv v type /nulltype eq def
/nullcpdv cpdv type /nulltype eq def
nullv nullcpdv or
{
/upd true def
} {
/sametype v type cpdv type eq def
sametype {
v type /arraytype eq {
/vlen v length def
/cpdvlen cpdv length def
vlen cpdvlen eq {
0 1 vlen 1 sub {
/i exch def
/obj v i get def
/cpdobj cpdv i get def
obj cpdobj ne {
/upd true def
exit
} if
} for
} {
/upd true def
} ifelse
} {
v type /dicttype eq {
v {
/dv exch def
/dk exch def
/cpddv cpdv dk get def
dv cpddv ne {
/upd true def
exit
} if
} forall
} {
/upd true def
} ifelse
} ifelse
} if
} ifelse
upd true eq {
d k v put
} if
} if
} if
} forall
d length 0 gt {
d setpagedevice
} if
} bd
/RE { % /NewFontName [NewEncodingArray] /FontName RE -
  findfont dup length dict begin
  {
    1 index /FID ne
    {def} {pop pop} ifelse
  } forall
  /Encoding exch def
  /FontName 1 index def
  currentdict definefont pop
  end
} bind def
%%EndResource
%%BeginResource: procset (Apache XML Graphics EPS ProcSet) 1.0 0
%%Version: 1.0 0
%%Copyright: (Copyright 2002-2003 The Apache Software Foundation. License terms: http://www.apache.org/licenses/LICENSE-2.0)
/BeginEPSF { %def
/b4_Inc_state save def         % Save state for cleanup
/dict_count countdictstack def % Count objects on dict stack
/op_count count 1 sub def      % Count objects on operand stack
userdict begin                 % Push userdict on dict stack
/showpage { } def              % Redefine showpage, { } = null proc
0 setgray 0 setlinecap         % Prepare graphics state
1 setlinewidth 0 setlinejoin
10 setmiterlimit [ ] 0 setdash newpath
/languagelevel where           % If level not equal to 1 then
{pop languagelevel             % set strokeadjust and
1 ne                           % overprint to their defaults.
{false setstrokeadjust false setoverprint
} if
} if
} bd
/EndEPSF { %def
count op_count sub {pop} repeat            % Clean up stacks
countdictstack dict_count sub {end} repeat
b4_Inc_state restore
} bd
%%EndResource
%FOPBeginFontDict
%%IncludeResource: font Courier-Oblique
%%IncludeResource: font Courier-BoldOblique
%%IncludeResource: font Courier-Bold
%%IncludeResource: font ZapfDingbats
%%IncludeResource: font Symbol
%%IncludeResource: font Helvetica
%%IncludeResource: font Helvetica-Oblique
%%IncludeResource: font Helvetica-Bold
%%IncludeResource: font Helvetica-BoldOblique
%%IncludeResource: font Times-Roman
%%IncludeResource: font Times-Italic
%%IncludeResource: font Times-Bold
%%IncludeResource: font Times-BoldItalic
%%IncludeResource: font Courier
%FOPEndFontDict
%%BeginResource: encoding WinAnsiEncoding
/WinAnsiEncoding [
/.notdef /.notdef /.notdef /.notdef /.notdef
/.notdef /.notdef /.notdef /.notdef /.notdef
/.notdef /.notdef /.notdef /.notdef /.notdef
/.notdef /.notdef /.notdef /.notdef /.notdef
/.notdef /.notdef /.notdef /.notdef /.notdef
/.notdef /.notdef /.notdef /.notdef /.notdef
/.notdef /.notdef /space /exclam /quotedbl
/numbersign /dollar /percent /ampersand /quotesingle
/parenleft /parenright /asterisk /plus /comma
/hyphen /period /slash /zero /one
/two /three /four /five /six
/seven /eight /nine /colon /semicolon
/less /equal /greater /question /at
/A /B /C /D /E
/F /G /H /I /J
/K /L /M /N /O
/P /Q /R /S /T
/U /V /W /X /Y
/Z /bracketleft /backslash /bracketright /asciicircum
/underscore /quoteleft /a /b /c
/d /e /f /g /h
/i /j /k /l /m
/n /o /p /q /r
/s /t /u /v /w
/x /y /z /braceleft /bar
/braceright /asciitilde /bullet /Euro /bullet
/quotesinglbase /florin /quotedblbase /ellipsis /dagger
/daggerdbl /circumflex /perthousand /Scaron /guilsinglleft
/OE /bullet /Zcaron /bullet /bullet
/quoteleft /quoteright /quotedblleft /quotedblright /bullet
/endash /emdash /asciitilde /trademark /scaron
/guilsinglright /oe /bullet /zcaron /Ydieresis
/space /exclamdown /cent /sterling /currency
/yen /brokenbar /section /dieresis /copyright
/ordfeminine /guillemotleft /logicalnot /sfthyphen /registered
/macron /degree /plusminus /twosuperior /threesuperior
/acute /mu /paragraph /middot /cedilla
/onesuperior /ordmasculine /guillemotright /onequarter /onehalf
/threequarters /questiondown /Agrave /Aacute /Acircumflex
/Atilde /Adieresis /Aring /AE /Ccedilla
/Egrave /Eacute /Ecircumflex /Edieresis /Igrave
/Iacute /Icircumflex /Idieresis /Eth /Ntilde
/Ograve /Oacute /Ocircumflex /Otilde /Odieresis
/multiply /Oslash /Ugrave /Uacute /Ucircumflex
/Udieresis /Yacute /Thorn /germandbls /agrave
/aacute /acircumflex /atilde /adieresis /aring
/ae /ccedilla /egrave /eacute /ecircumflex
/edieresis /igrave /iacute /icircumflex /idieresis
/eth /ntilde /ograve /oacute /ocircumflex
/otilde /odieresis /divide /oslash /ugrave
/uacute /ucircumflex /udieresis /yacute /thorn
/ydieresis
] def
%%EndResource
%FOPBeginFontReencode
/Courier-Oblique findfont
dup length dict begin
  {1 index /FID ne {def} {pop pop} ifelse} forall
  /Encoding WinAnsiEncoding def
  currentdict
end
/Courier-Oblique exch definefont pop
/Courier-BoldOblique findfont
dup length dict begin
  {1 index /FID ne {def} {pop pop} ifelse} forall
  /Encoding WinAnsiEncoding def
  currentdict
end
/Courier-BoldOblique exch definefont pop
/Courier-Bold findfont
dup length dict begin
  {1 index /FID ne {def} {pop pop} ifelse} forall
  /Encoding WinAnsiEncoding def
  currentdict
end
/Courier-Bold exch definefont pop
/Helvetica findfont
dup length dict begin
  {1 index /FID ne {def} {pop pop} ifelse} forall
  /Encoding WinAnsiEncoding def
  currentdict
end
/Helvetica exch definefont pop
/Helvetica-Oblique findfont
dup length dict begin
  {1 index /FID ne {def} {pop pop} ifelse} forall
  /Encoding WinAnsiEncoding def
  currentdict
end
/Helvetica-Oblique exch definefont pop
/Helvetica-Bold findfont
dup length dict begin
  {1 index /FID ne {def} {pop pop} ifelse} forall
  /Encoding WinAnsiEncoding def
  currentdict
end
/Helvetica-Bold exch definefont pop
/Helvetica-BoldOblique findfont
dup length dict begin
  {1 index /FID ne {def} {pop pop} ifelse} forall
  /Encoding WinAnsiEncoding def
  currentdict
end
/Helvetica-BoldOblique exch definefont pop
/Times-Roman findfont
dup length dict begin
  {1 index /FID ne {def} {pop pop} ifelse} forall
  /Encoding WinAnsiEncoding def
  currentdict
end
/Times-Roman exch definefont pop
/Times-Italic findfont
dup length dict begin
  {1 index /FID ne {def} {pop pop} ifelse} forall
  /Encoding WinAnsiEncoding def
  currentdict
end
/Times-Italic exch definefont pop
/Times-Bold findfont
dup length dict begin
  {1 index /FID ne {def} {pop pop} ifelse} forall
  /Encoding WinAnsiEncoding def
  currentdict
end
/Times-Bold exch definefont pop
/Times-BoldItalic findfont
dup length dict begin
  {1 index /FID ne {def} {pop pop} ifelse} forall
  /Encoding WinAnsiEncoding def
  currentdict
end
/Times-BoldItalic exch definefont pop
/Courier findfont
dup length dict begin
  {1 index /FID ne {def} {pop pop} ifelse} forall
  /Encoding WinAnsiEncoding def
  currentdict
end
/Courier exch definefont pop
%FOPEndFontReencode
%%EndProlog
%%Page: 1 1
%%PageBoundingBox: 0 0 420 315
%%BeginPageSetup
[1 0 0 -1 0 315] CT
%%EndPageSetup
GS
[0.375 0 0 0.375 0 0] CT
1 GC
N
0 0 1120 840 re
f
GR
GS
[0.375 0 0 0.375 0 0] CT
1 GC
N
0 0 1120 840 re
f
GR
GS
[0.375 0 0 0.375 0 0] CT
1 GC
N
146 748 M
1014 748 L
1014 63 L
146 63 L
cp
f
GR
GS
[0.375 0 0 0.375 0 0] CT
0.873 GC
1 LJ
1.333 LW
N
146 748 M
146 63 L
S
GR
GS
[0.375 0 0 0.375 0 0] CT
0.873 GC
1 LJ
1.333 LW
N
319.6 748 M
319.6 63 L
S
GR
GS
[0.375 0 0 0.375 0 0] CT
0.873 GC
1 LJ
1.333 LW
N
493.2 748 M
493.2 63 L
S
GR
GS
[0.375 0 0 0.375 0 0] CT
0.873 GC
1 LJ
1.333 LW
N
666.8 748 M
666.8 63 L
S
GR
GS
[0.375 0 0 0.375 0 0] CT
0.873 GC
1 LJ
1.333 LW
N
840.4 748 M
840.4 63 L
S
GR
GS
[0.375 0 0 0.375 0 0] CT
0.873 GC
1 LJ
1.333 LW
N
1014 748 M
1014 63 L
S
GR
GS
[0.375 0 0 0.375 0 0] CT
0.873 GC
1 LJ
1.333 LW
N
1014 748 M
146 748 L
S
GR
GS
[0.375 0 0 0.375 0 0] CT
0.873 GC
1 LJ
1.333 LW
N
1014 679.5 M
146 679.5 L
S
GR
GS
[0.375 0 0 0.375 0 0] CT
0.873 GC
1 LJ
1.333 LW
N
1014 611 M
146 611 L
S
GR
GS
[0.375 0 0 0.375 0 0] CT
0.873 GC
1 LJ
1.333 LW
N
1014 542.5 M
146 542.5 L
S
GR
GS
[0.375 0 0 0.375 0 0] CT
0.873 GC
1 LJ
1.333 LW
N
1014 474 M
146 474 L
S
GR
GS
[0.375 0 0 0.375 0 0] CT
0.873 GC
1 LJ
1.333 LW
N
1014 405.5 M
146 405.5 L
S
GR
GS
[0.375 0 0 0.375 0 0] CT
0.873 GC
1 LJ
1.333 LW
N
1014 337 M
146 337 L
S
GR
GS
[0.375 0 0 0.375 0 0] CT
0.873 GC
1 LJ
1.333 LW
N
1014 268.5 M
146 268.5 L
S
GR
GS
[0.375 0 0 0.375 0 0] CT
0.873 GC
1 LJ
1.333 LW
N
1014 200 M
146 200 L
S
GR
GS
[0.375 0 0 0.375 0 0] CT
0.873 GC
1 LJ
1.333 LW
N
1014 131.5 M
146 131.5 L
S
GR
GS
[0.375 0 0 0.375 0 0] CT
0.873 GC
1 LJ
1.333 LW
N
1014 63 M
146 63 L
S
GR
GS
[0.375 0 0 0.375 0 0] CT
0.149 GC
2 setlinecap
1 LJ
1.333 LW
N
146 748 M
1014 748 L
S
GR
GS
[0.375 0 0 0.375 0 0] CT
0.149 GC
2 setlinecap
1 LJ
1.333 LW
N
146 63 M
1014 63 L
S
GR
GS
[0.375 0 0 0.375 0 0] CT
0.149 GC
2 setlinecap
1 LJ
1.333 LW
N
146 748 M
146 739.32 L
S
GR
GS
[0.375 0 0 0.375 0 0] CT
0.149 GC
2 setlinecap
1 LJ
1.333 LW
N
319.6 748 M
319.6 739.32 L
S
GR
GS
[0.375 0 0 0.375 0 0] CT
0.149 GC
2 setlinecap
1 LJ
1.333 LW
N
493.2 748 M
493.2 739.32 L
S
GR
GS
[0.375 0 0 0.375 0 0] CT
0.149 GC
2 setlinecap
1 LJ
1.333 LW
N
666.8 748 M
666.8 739.32 L
S
GR
GS
[0.375 0 0 0.375 0 0] CT
0.149 GC
2 setlinecap
1 LJ
1.333 LW
N
840.4 748 M
840.4 739.32 L
S
GR
GS
[0.375 0 0 0.375 0 0] CT
0.149 GC
2 setlinecap
1 LJ
1.333 LW
N
1014 748 M
1014 739.32 L
S
GR
GS
[0.375 0 0 0.375 0 0] CT
0.149 GC
2 setlinecap
1 LJ
1.333 LW
N
146 63 M
146 71.68 L
S
GR
GS
[0.375 0 0 0.375 0 0] CT
0.149 GC
2 setlinecap
1 LJ
1.333 LW
N
319.6 63 M
319.6 71.68 L
S
GR
GS
[0.375 0 0 0.375 0 0] CT
0.149 GC
2 setlinecap
1 LJ
1.333 LW
N
493.2 63 M
493.2 71.68 L
S
GR
GS
[0.375 0 0 0.375 0 0] CT
0.149 GC
2 setlinecap
1 LJ
1.333 LW
N
666.8 63 M
666.8 71.68 L
S
GR
GS
[0.375 0 0 0.375 0 0] CT
0.149 GC
2 setlinecap
1 LJ
1.333 LW
N
840.4 63 M
840.4 71.68 L
S
GR
GS
[0.375 0 0 0.375 0 0] CT
0.149 GC
2 setlinecap
1 LJ
1.333 LW
N
1014 63 M
1014 71.68 L
S
GR
GS
[0.375 0 0 0.375 54.75 284.9] CT
0.149 GC
/Times-Roman 32 F
GS
[1 0 0 1 0 0] CT
-8 30 moveto 
1 -1 scale
(0) t 
GR
GR
GS
[0.375 0 0 0.375 119.85 284.9] CT
0.149 GC
/Times-Roman 32 F
GS
[1 0 0 1 0 0] CT
-24 30 moveto 
1 -1 scale
(100) t 
GR
GR
GS
[0.375 0 0 0.375 184.95 284.9] CT
0.149 GC
/Times-Roman 32 F
GS
[1 0 0 1 0 0] CT
-24 30 moveto 
1 -1 scale
(200) t 
GR
GR
GS
[0.375 0 0 0.375 250.05 284.9] CT
0.149 GC
/Times-Roman 32 F
GS
[1 0 0 1 0 0] CT
-24 30 moveto 
1 -1 scale
(300) t 
GR
GR
GS
[0.375 0 0 0.375 315.15001 284.9] CT
0.149 GC
/Times-Roman 32 F
GS
[1 0 0 1 0 0] CT
-24 30 moveto 
1 -1 scale
(400) t 
GR
GR
GS
[0.375 0 0 0.375 380.25 284.9] CT
0.149 GC
/Times-Roman 32 F
GS
[1 0 0 1 0 0] CT
-24 30 moveto 
1 -1 scale
(500) t 
GR
GR
GS
[0.375 0 0 0.375 217.50016 299.77501] CT
0.149 GC
N
-76.461 26.88 M
-76.461 25.755 L
-74.851 25.755 -73.336 25.575 QT
-71.82 25.396 -71.82 24.739 QT
-71.82 7.161 L
-71.82 6.474 -72.203 6.31 QT
-72.586 6.146 -73.445 6.146 QT
-74.789 6.146 L
-77.429 6.146 -78.539 7.302 QT
-79.117 7.88 -79.367 9.153 QT
-79.617 10.427 -79.789 12.349 QT
-80.711 12.349 L
-80.101 5.021 L
-60.554 5.021 L
-59.945 12.349 L
-60.882 12.349 L
-61.07 10.286 -61.296 9.075 QT
-61.523 7.864 -62.117 7.302 QT
-63.242 6.146 -65.867 6.146 QT
-67.211 6.146 L
-67.789 6.146 -68.109 6.192 QT
-68.429 6.239 -68.632 6.466 QT
-68.836 6.692 -68.836 7.161 QT
-68.836 24.739 L
-68.836 25.396 -67.32 25.575 QT
-65.804 25.755 -64.211 25.755 QT
-64.211 26.88 L
-76.461 26.88 L
cp
f
GR
GS
[0.375 0 0 0.375 217.50016 299.77501] CT
0.149 GC
N
-57.771 26.88 M
-57.771 25.755 L
-56.678 25.755 -55.974 25.583 QT
-55.271 25.411 -55.271 24.739 QT
-55.271 16.005 L
-55.271 14.771 -55.748 14.489 QT
-56.224 14.208 -57.631 14.208 QT
-57.631 13.083 L
-53.021 12.739 L
-53.021 24.739 L
-53.021 25.411 -52.412 25.583 QT
-51.803 25.755 -50.787 25.755 QT
-50.787 26.88 L
-57.771 26.88 L
cp
-56.412 7.239 M
-56.412 6.536 -55.881 6.005 QT
-55.349 5.474 -54.662 5.474 QT
-54.209 5.474 -53.787 5.708 QT
-53.365 5.942 -53.131 6.364 QT
-52.896 6.786 -52.896 7.239 QT
-52.896 7.927 -53.428 8.458 QT
-53.959 8.989 -54.662 8.989 QT
-55.349 8.989 -55.881 8.458 QT
-56.412 7.927 -56.412 7.239 QT
cp
f
GR
GS
[0.375 0 0 0.375 217.50016 299.77501] CT
0.149 GC
N
-48.914 26.88 M
-48.914 25.755 L
-47.82 25.755 -47.117 25.583 QT
-46.414 25.411 -46.414 24.739 QT
-46.414 16.005 L
-46.414 15.146 -46.671 14.763 QT
-46.929 14.38 -47.414 14.294 QT
-47.898 14.208 -48.914 14.208 QT
-48.914 13.083 L
-44.273 12.739 L
-44.273 15.864 L
-43.632 14.489 -42.375 13.614 QT
-41.117 12.739 -39.632 12.739 QT
-35.945 12.739 -35.304 15.739 QT
-34.664 14.396 -33.429 13.567 QT
-32.195 12.739 -30.726 12.739 QT
-29.273 12.739 -28.281 13.208 QT
-27.289 13.677 -26.789 14.638 QT
-26.289 15.599 -26.289 17.052 QT
-26.289 24.739 L
-26.289 25.411 -25.578 25.583 QT
-24.867 25.755 -23.789 25.755 QT
-23.789 26.88 L
-31.117 26.88 L
-31.117 25.755 L
-30.023 25.755 -29.32 25.583 QT
-28.617 25.411 -28.617 24.739 QT
-28.617 17.146 L
-28.617 15.536 -29.07 14.552 QT
-29.523 13.567 -30.929 13.567 QT
-32.773 13.567 -33.976 15.052 QT
-35.179 16.536 -35.179 18.427 QT
-35.179 24.739 L
-35.179 25.411 -34.476 25.583 QT
-33.773 25.755 -32.679 25.755 QT
-32.679 26.88 L
-40.007 26.88 L
-40.007 25.755 L
-38.914 25.755 -38.211 25.583 QT
-37.507 25.411 -37.507 24.739 QT
-37.507 17.146 L
-37.507 15.583 -37.961 14.575 QT
-38.414 13.567 -39.82 13.567 QT
-41.679 13.567 -42.875 15.052 QT
-44.07 16.536 -44.07 18.427 QT
-44.07 24.739 L
-44.07 25.411 -43.367 25.583 QT
-42.664 25.755 -41.586 25.755 QT
-41.586 26.88 L
-48.914 26.88 L
cp
f
GR
GS
[0.375 0 0 0.375 217.50016 299.77501] CT
0.149 GC
N
-15.231 27.239 M
-17.184 27.239 -18.817 26.216 QT
-20.45 25.192 -21.38 23.481 QT
-22.309 21.771 -22.309 19.864 QT
-22.309 17.989 -21.458 16.302 QT
-20.606 14.614 -19.083 13.575 QT
-17.559 12.536 -15.684 12.536 QT
-14.216 12.536 -13.13 13.028 QT
-12.044 13.521 -11.341 14.396 QT
-10.638 15.271 -10.278 16.458 QT
-9.919 17.646 -9.919 19.067 QT
-9.919 19.489 -10.247 19.489 QT
-19.513 19.489 L
-19.513 19.833 L
-19.513 22.489 -18.442 24.396 QT
-17.372 26.302 -14.95 26.302 QT
-13.966 26.302 -13.13 25.864 QT
-12.294 25.427 -11.677 24.646 QT
-11.059 23.864 -10.841 22.974 QT
-10.809 22.864 -10.723 22.778 QT
-10.638 22.692 -10.528 22.692 QT
-10.247 22.692 L
-9.919 22.692 -9.919 23.099 QT
-10.372 24.911 -11.872 26.075 QT
-13.372 27.239 -15.231 27.239 QT
cp
-19.481 18.692 M
-12.184 18.692 L
-12.184 17.489 -12.52 16.255 QT
-12.856 15.021 -13.638 14.2 QT
-14.419 13.38 -15.684 13.38 QT
-17.497 13.38 -18.489 15.075 QT
-19.481 16.771 -19.481 18.692 QT
cp
f
GR
GS
[0.375 0 0 0.375 217.50016 299.77501] CT
0.149 GC
N
5.47 34.88 M
5.47 2.88 L
9.845 2.88 L
9.845 4.161 L
6.751 4.161 L
6.751 33.599 L
9.845 33.599 L
9.845 34.88 L
5.47 34.88 L
cp
f
GR
GS
[0.375 0 0 0.375 217.50016 299.77501] CT
0.149 GC
N
18.39 27.239 M
16.5 27.239 14.937 26.216 QT
13.375 25.192 12.507 23.521 QT
11.64 21.849 11.64 19.974 QT
11.64 18.036 12.586 16.372 QT
13.531 14.708 15.156 13.724 QT
16.781 12.739 18.734 12.739 QT
19.906 12.739 20.953 13.231 QT
22 13.724 22.765 14.599 QT
22.765 7.942 L
22.765 7.083 22.507 6.7 QT
22.25 6.317 21.773 6.231 QT
21.297 6.146 20.281 6.146 QT
20.281 5.021 L
25.015 4.677 L
25.015 23.974 L
25.015 24.817 25.273 25.2 QT
25.531 25.583 26.007 25.669 QT
26.484 25.755 27.5 25.755 QT
27.5 26.88 L
22.672 27.239 L
22.672 25.224 L
21.843 26.177 20.703 26.708 QT
19.562 27.239 18.39 27.239 QT
cp
15.125 24.099 M
15.672 25.146 16.586 25.771 QT
17.5 26.396 18.578 26.396 QT
19.906 26.396 21.015 25.63 QT
22.125 24.864 22.672 23.646 QT
22.672 15.974 L
22.297 15.271 21.726 14.716 QT
21.156 14.161 20.445 13.864 QT
19.734 13.567 18.937 13.567 QT
17.265 13.567 16.25 14.513 QT
15.234 15.458 14.828 16.927 QT
14.422 18.396 14.422 20.005 QT
14.422 21.286 14.554 22.239 QT
14.687 23.192 15.125 24.099 QT
cp
f
GR
GS
[0.375 0 0 0.375 217.50016 299.77501] CT
0.149 GC
N
29.637 23.739 M
29.637 21.833 31.137 20.638 QT
32.637 19.442 34.738 18.95 QT
36.84 18.458 38.731 18.458 QT
38.731 17.146 L
38.731 16.224 38.324 15.356 QT
37.918 14.489 37.152 13.935 QT
36.387 13.38 35.465 13.38 QT
33.34 13.38 32.231 14.333 QT
32.84 14.333 33.238 14.794 QT
33.637 15.255 33.637 15.864 QT
33.637 16.505 33.184 16.958 QT
32.731 17.411 32.106 17.411 QT
31.465 17.411 31.012 16.958 QT
30.559 16.505 30.559 15.864 QT
30.559 14.177 32.09 13.356 QT
33.621 12.536 35.465 12.536 QT
36.762 12.536 38.074 13.091 QT
39.387 13.646 40.223 14.677 QT
41.059 15.708 41.059 17.083 QT
41.059 24.286 L
41.059 24.911 41.324 25.435 QT
41.59 25.958 42.152 25.958 QT
42.684 25.958 42.942 25.427 QT
43.199 24.896 43.199 24.286 QT
43.199 22.239 L
44.137 22.239 L
44.137 24.286 L
44.137 25.005 43.762 25.653 QT
43.387 26.302 42.754 26.685 QT
42.121 27.067 41.387 27.067 QT
40.449 27.067 39.77 26.341 QT
39.09 25.614 39.012 24.614 QT
38.418 25.817 37.262 26.528 QT
36.106 27.239 34.793 27.239 QT
33.574 27.239 32.395 26.88 QT
31.215 26.521 30.426 25.747 QT
29.637 24.974 29.637 23.739 QT
cp
32.231 23.739 M
32.231 24.864 33.059 25.63 QT
33.887 26.396 35.012 26.396 QT
36.043 26.396 36.887 25.88 QT
37.731 25.364 38.231 24.474 QT
38.731 23.583 38.731 22.599 QT
38.731 19.271 L
37.277 19.271 35.754 19.747 QT
34.231 20.224 33.231 21.239 QT
32.231 22.255 32.231 23.739 QT
cp
f
GR
GS
[0.375 0 0 0.375 217.50016 299.77501] CT
0.149 GC
N
45.67 32.13 M
46.279 32.614 47.014 32.614 QT
49.029 32.614 50.311 29.567 QT
51.404 26.88 L
46.607 15.13 L
46.311 14.536 45.701 14.372 QT
45.092 14.208 44.076 14.208 QT
44.076 13.083 L
50.795 13.083 L
50.795 14.208 L
49.029 14.208 49.029 14.974 QT
49.029 15.099 49.061 15.161 QT
52.623 23.911 L
55.826 16.036 L
55.92 15.786 55.92 15.489 QT
55.92 15.099 55.709 14.81 QT
55.498 14.521 55.162 14.364 QT
54.826 14.208 54.404 14.208 QT
54.404 13.083 L
59.717 13.083 L
59.717 14.208 L
58.732 14.208 57.99 14.661 QT
57.248 15.114 56.842 16.005 QT
51.311 29.567 L
50.873 30.599 50.287 31.466 QT
49.701 32.333 48.857 32.888 QT
48.014 33.442 47.014 33.442 QT
45.842 33.442 44.959 32.669 QT
44.076 31.896 44.076 30.755 QT
44.076 30.161 44.482 29.755 QT
44.889 29.349 45.482 29.349 QT
45.889 29.349 46.209 29.528 QT
46.529 29.708 46.709 30.021 QT
46.889 30.333 46.889 30.755 QT
46.889 31.271 46.545 31.677 QT
46.201 32.083 45.67 32.13 QT
cp
f
GR
GS
[0.375 0 0 0.375 217.50016 299.77501] CT
0.149 GC
N
61.418 26.974 M
61.418 21.755 L
61.418 21.505 61.699 21.505 QT
62.09 21.505 L
62.278 21.505 62.34 21.755 QT
63.231 26.396 66.653 26.396 QT
68.168 26.396 69.192 25.708 QT
70.215 25.021 70.215 23.583 QT
70.215 22.552 69.418 21.825 QT
68.621 21.099 67.528 20.833 QT
65.387 20.411 L
64.309 20.177 63.426 19.692 QT
62.543 19.208 61.981 18.403 QT
61.418 17.599 61.418 16.536 QT
61.418 15.13 62.16 14.231 QT
62.903 13.333 64.09 12.935 QT
65.278 12.536 66.653 12.536 QT
68.293 12.536 69.512 13.411 QT
70.434 12.614 L
70.434 12.536 70.59 12.536 QT
70.824 12.536 L
70.918 12.536 70.996 12.622 QT
71.074 12.708 71.074 12.802 QT
71.074 16.989 L
71.074 17.286 70.824 17.286 QT
70.434 17.286 L
70.153 17.286 70.153 16.989 QT
70.153 15.317 69.223 14.302 QT
68.293 13.286 66.621 13.286 QT
65.184 13.286 64.129 13.817 QT
63.074 14.349 63.074 15.646 QT
63.074 16.536 63.832 17.106 QT
64.59 17.677 65.606 17.927 QT
67.778 18.333 L
68.871 18.583 69.817 19.177 QT
70.762 19.771 71.317 20.677 QT
71.871 21.583 71.871 22.724 QT
71.871 23.88 71.473 24.731 QT
71.074 25.583 70.364 26.146 QT
69.653 26.708 68.684 26.974 QT
67.715 27.239 66.653 27.239 QT
64.653 27.239 63.231 25.896 QT
62.059 27.161 L
62.059 27.239 61.887 27.239 QT
61.699 27.239 L
61.418 27.239 61.418 26.974 QT
cp
f
GR
GS
[0.375 0 0 0.375 217.50016 299.77501] CT
0.149 GC
N
73.681 34.88 M
73.681 33.599 L
76.79 33.599 L
76.79 4.161 L
73.681 4.161 L
73.681 2.88 L
78.072 2.88 L
78.072 34.88 L
73.681 34.88 L
cp
f
GR
GS
[0.375 0 0 0.375 0 0] CT
0.149 GC
2 setlinecap
1 LJ
1.333 LW
N
146 748 M
146 63 L
S
GR
GS
[0.375 0 0 0.375 0 0] CT
0.149 GC
2 setlinecap
1 LJ
1.333 LW
N
1014 748 M
1014 63 L
S
GR
GS
[0.375 0 0 0.375 0 0] CT
0.149 GC
2 setlinecap
1 LJ
1.333 LW
N
146 748 M
154.68 748 L
S
GR
GS
[0.375 0 0 0.375 0 0] CT
0.149 GC
2 setlinecap
1 LJ
1.333 LW
N
146 679.5 M
154.68 679.5 L
S
GR
GS
[0.375 0 0 0.375 0 0] CT
0.149 GC
2 setlinecap
1 LJ
1.333 LW
N
146 611 M
154.68 611 L
S
GR
GS
[0.375 0 0 0.375 0 0] CT
0.149 GC
2 setlinecap
1 LJ
1.333 LW
N
146 542.5 M
154.68 542.5 L
S
GR
GS
[0.375 0 0 0.375 0 0] CT
0.149 GC
2 setlinecap
1 LJ
1.333 LW
N
146 474 M
154.68 474 L
S
GR
GS
[0.375 0 0 0.375 0 0] CT
0.149 GC
2 setlinecap
1 LJ
1.333 LW
N
146 405.5 M
154.68 405.5 L
S
GR
GS
[0.375 0 0 0.375 0 0] CT
0.149 GC
2 setlinecap
1 LJ
1.333 LW
N
146 337 M
154.68 337 L
S
GR
GS
[0.375 0 0 0.375 0 0] CT
0.149 GC
2 setlinecap
1 LJ
1.333 LW
N
146 268.5 M
154.68 268.5 L
S
GR
GS
[0.375 0 0 0.375 0 0] CT
0.149 GC
2 setlinecap
1 LJ
1.333 LW
N
146 200 M
154.68 200 L
S
GR
GS
[0.375 0 0 0.375 0 0] CT
0.149 GC
2 setlinecap
1 LJ
1.333 LW
N
146 131.5 M
154.68 131.5 L
S
GR
GS
[0.375 0 0 0.375 0 0] CT
0.149 GC
2 setlinecap
1 LJ
1.333 LW
N
146 63 M
154.68 63 L
S
GR
GS
[0.375 0 0 0.375 0 0] CT
0.149 GC
2 setlinecap
1 LJ
1.333 LW
N
1014 748 M
1005.32 748 L
S
GR
GS
[0.375 0 0 0.375 0 0] CT
0.149 GC
2 setlinecap
1 LJ
1.333 LW
N
1014 679.5 M
1005.32 679.5 L
S
GR
GS
[0.375 0 0 0.375 0 0] CT
0.149 GC
2 setlinecap
1 LJ
1.333 LW
N
1014 611 M
1005.32 611 L
S
GR
GS
[0.375 0 0 0.375 0 0] CT
0.149 GC
2 setlinecap
1 LJ
1.333 LW
N
1014 542.5 M
1005.32 542.5 L
S
GR
GS
[0.375 0 0 0.375 0 0] CT
0.149 GC
2 setlinecap
1 LJ
1.333 LW
N
1014 474 M
1005.32 474 L
S
GR
GS
[0.375 0 0 0.375 0 0] CT
0.149 GC
2 setlinecap
1 LJ
1.333 LW
N
1014 405.5 M
1005.32 405.5 L
S
GR
GS
[0.375 0 0 0.375 0 0] CT
0.149 GC
2 setlinecap
1 LJ
1.333 LW
N
1014 337 M
1005.32 337 L
S
GR
GS
[0.375 0 0 0.375 0 0] CT
0.149 GC
2 setlinecap
1 LJ
1.333 LW
N
1014 268.5 M
1005.32 268.5 L
S
GR
GS
[0.375 0 0 0.375 0 0] CT
0.149 GC
2 setlinecap
1 LJ
1.333 LW
N
1014 200 M
1005.32 200 L
S
GR
GS
[0.375 0 0 0.375 0 0] CT
0.149 GC
2 setlinecap
1 LJ
1.333 LW
N
1014 131.5 M
1005.32 131.5 L
S
GR
GS
[0.375 0 0 0.375 0 0] CT
0.149 GC
2 setlinecap
1 LJ
1.333 LW
N
1014 63 M
1005.32 63 L
S
GR
GS
[0.375 0 0 0.375 50.35 280.5] CT
0.149 GC
/Times-Roman 32 F
GS
[1 0 0 1 0 0] CT
-16 11.5 moveto 
1 -1 scale
(0) t 
GR
GR
GS
[0.375 0 0 0.375 50.35 254.8125] CT
0.149 GC
/Times-Roman 32 F
GS
[1 0 0 1 0 0] CT
-40 11.5 moveto 
1 -1 scale
(0.1) t 
GR
GR
GS
[0.375 0 0 0.375 50.35 229.125] CT
0.149 GC
/Times-Roman 32 F
GS
[1 0 0 1 0 0] CT
-40 11.5 moveto 
1 -1 scale
(0.2) t 
GR
GR
GS
[0.375 0 0 0.375 50.35 203.4375] CT
0.149 GC
/Times-Roman 32 F
GS
[1 0 0 1 0 0] CT
-40 11.5 moveto 
1 -1 scale
(0.3) t 
GR
GR
GS
[0.375 0 0 0.375 50.35 177.75] CT
0.149 GC
/Times-Roman 32 F
GS
[1 0 0 1 0 0] CT
-40 11.5 moveto 
1 -1 scale
(0.4) t 
GR
GR
GS
[0.375 0 0 0.375 50.35 152.0625] CT
0.149 GC
/Times-Roman 32 F
GS
[1 0 0 1 0 0] CT
-40 11.5 moveto 
1 -1 scale
(0.5) t 
GR
GR
GS
[0.375 0 0 0.375 50.35 126.37499] CT
0.149 GC
/Times-Roman 32 F
GS
[1 0 0 1 0 0] CT
-40 11.5 moveto 
1 -1 scale
(0.6) t 
GR
GR
GS
[0.375 0 0 0.375 50.35 100.6875] CT
0.149 GC
/Times-Roman 32 F
GS
[1 0 0 1 0 0] CT
-40 11.5 moveto 
1 -1 scale
(0.7) t 
GR
GR
GS
[0.375 0 0 0.375 50.35 74.99999] CT
0.149 GC
/Times-Roman 32 F
GS
[1 0 0 1 0 0] CT
-40 11.5 moveto 
1 -1 scale
(0.8) t 
GR
GR
GS
[0.375 0 0 0.375 50.35 49.31251] CT
0.149 GC
/Times-Roman 32 F
GS
[1 0 0 1 0 0] CT
-40 11.5 moveto 
1 -1 scale
(0.9) t 
GR
GR
GS
[0.375 0 0 0.375 50.35 23.625] CT
0.149 GC
/Times-Roman 32 F
GS
[1 0 0 1 0 0] CT
-16 11.5 moveto 
1 -1 scale
(1) t 
GR
GR
GS
[0 -0.375 0.375 0 32.35 152.06237] CT
0.149 GC
N
-71.16 -11.52 M
-71.16 -12.645 L
-67.863 -12.645 -67.863 -13.661 QT
-67.863 -31.239 L
-67.863 -32.254 -71.16 -32.254 QT
-71.16 -33.379 L
-61.113 -33.379 L
-59.316 -33.379 -57.34 -32.731 QT
-55.363 -32.083 -54.035 -30.754 QT
-52.707 -29.426 -52.707 -27.583 QT
-52.707 -26.239 -53.511 -25.184 QT
-54.316 -24.129 -55.574 -23.419 QT
-56.832 -22.708 -58.144 -22.395 QT
-56.707 -21.895 -55.629 -20.801 QT
-54.55 -19.708 -54.332 -18.301 QT
-53.879 -15.458 L
-53.566 -13.536 -53.222 -12.59 QT
-52.879 -11.645 -51.707 -11.645 QT
-50.707 -11.645 -50.215 -12.575 QT
-49.722 -13.504 -49.722 -14.598 QT
-49.722 -14.708 -49.621 -14.794 QT
-49.519 -14.879 -49.41 -14.879 QT
-49.113 -14.879 L
-48.8 -14.879 -48.8 -14.458 QT
-48.8 -13.583 -49.144 -12.747 QT
-49.488 -11.911 -50.136 -11.364 QT
-50.785 -10.817 -51.675 -10.817 QT
-53.988 -10.817 -55.652 -11.965 QT
-57.316 -13.114 -57.316 -15.333 QT
-57.316 -18.176 L
-57.316 -19.77 -58.425 -20.911 QT
-59.535 -22.051 -61.144 -22.051 QT
-64.988 -22.051 L
-64.988 -13.661 L
-64.988 -12.645 -61.691 -12.645 QT
-61.691 -11.52 L
-71.16 -11.52 L
cp
-64.988 -22.879 M
-61.566 -22.879 L
-58.91 -22.879 -57.519 -23.95 QT
-56.129 -25.02 -56.129 -27.583 QT
-56.129 -30.129 -57.504 -31.192 QT
-58.879 -32.254 -61.566 -32.254 QT
-63.363 -32.254 L
-63.941 -32.254 -64.261 -32.208 QT
-64.582 -32.161 -64.785 -31.934 QT
-64.988 -31.708 -64.988 -31.239 QT
-64.988 -22.879 L
cp
f
GR
GS
[0 -0.375 0.375 0 32.35 152.06237] CT
0.149 GC
N
-40.698 -11.161 M
-42.651 -11.161 -44.284 -12.184 QT
-45.917 -13.208 -46.846 -14.919 QT
-47.776 -16.629 -47.776 -18.536 QT
-47.776 -20.411 -46.925 -22.098 QT
-46.073 -23.786 -44.55 -24.825 QT
-43.026 -25.864 -41.151 -25.864 QT
-39.682 -25.864 -38.596 -25.372 QT
-37.511 -24.879 -36.807 -24.004 QT
-36.104 -23.129 -35.745 -21.942 QT
-35.386 -20.754 -35.386 -19.333 QT
-35.386 -18.911 -35.714 -18.911 QT
-44.979 -18.911 L
-44.979 -18.567 L
-44.979 -15.911 -43.909 -14.004 QT
-42.839 -12.098 -40.417 -12.098 QT
-39.432 -12.098 -38.596 -12.536 QT
-37.761 -12.973 -37.143 -13.754 QT
-36.526 -14.536 -36.307 -15.426 QT
-36.276 -15.536 -36.19 -15.622 QT
-36.104 -15.708 -35.995 -15.708 QT
-35.714 -15.708 L
-35.386 -15.708 -35.386 -15.301 QT
-35.839 -13.489 -37.339 -12.325 QT
-38.839 -11.161 -40.698 -11.161 QT
cp
-44.948 -19.708 M
-37.651 -19.708 L
-37.651 -20.911 -37.987 -22.145 QT
-38.323 -23.379 -39.104 -24.2 QT
-39.886 -25.02 -41.151 -25.02 QT
-42.964 -25.02 -43.956 -23.325 QT
-44.948 -21.629 -44.948 -19.708 QT
cp
f
GR
GS
[0 -0.375 0.375 0 32.35 152.06237] CT
0.149 GC
N
-33.46 -11.52 M
-33.46 -12.645 L
-32.366 -12.645 -31.663 -12.817 QT
-30.96 -12.989 -30.96 -13.661 QT
-30.96 -30.458 L
-30.96 -31.317 -31.218 -31.7 QT
-31.476 -32.083 -31.96 -32.169 QT
-32.445 -32.254 -33.46 -32.254 QT
-33.46 -33.379 L
-28.71 -33.723 L
-28.71 -13.661 L
-28.71 -12.989 -28.007 -12.817 QT
-27.304 -12.645 -26.226 -12.645 QT
-26.226 -11.52 L
-33.46 -11.52 L
cp
f
GR
GS
[0 -0.375 0.375 0 32.35 152.06237] CT
0.149 GC
N
-24.571 -11.52 M
-24.571 -12.645 L
-23.478 -12.645 -22.774 -12.817 QT
-22.071 -12.989 -22.071 -13.661 QT
-22.071 -22.395 L
-22.071 -23.629 -22.548 -23.911 QT
-23.024 -24.192 -24.431 -24.192 QT
-24.431 -25.317 L
-19.821 -25.661 L
-19.821 -13.661 L
-19.821 -12.989 -19.212 -12.817 QT
-18.603 -12.645 -17.587 -12.645 QT
-17.587 -11.52 L
-24.571 -11.52 L
cp
-23.212 -31.161 M
-23.212 -31.864 -22.681 -32.395 QT
-22.149 -32.926 -21.462 -32.926 QT
-21.009 -32.926 -20.587 -32.692 QT
-20.165 -32.458 -19.931 -32.036 QT
-19.696 -31.614 -19.696 -31.161 QT
-19.696 -30.473 -20.228 -29.942 QT
-20.759 -29.411 -21.462 -29.411 QT
-22.149 -29.411 -22.681 -29.942 QT
-23.212 -30.473 -23.212 -31.161 QT
cp
f
GR
GS
[0 -0.375 0.375 0 32.35 152.06237] CT
0.149 GC
N
-15.385 -14.661 M
-15.385 -16.567 -13.885 -17.762 QT
-12.385 -18.958 -10.284 -19.45 QT
-8.182 -19.942 -6.292 -19.942 QT
-6.292 -21.254 L
-6.292 -22.176 -6.698 -23.044 QT
-7.104 -23.911 -7.87 -24.465 QT
-8.635 -25.02 -9.557 -25.02 QT
-11.682 -25.02 -12.792 -24.067 QT
-12.182 -24.067 -11.784 -23.606 QT
-11.385 -23.145 -11.385 -22.536 QT
-11.385 -21.895 -11.839 -21.442 QT
-12.292 -20.989 -12.917 -20.989 QT
-13.557 -20.989 -14.01 -21.442 QT
-14.464 -21.895 -14.464 -22.536 QT
-14.464 -24.223 -12.932 -25.044 QT
-11.401 -25.864 -9.557 -25.864 QT
-8.26 -25.864 -6.948 -25.309 QT
-5.635 -24.754 -4.8 -23.723 QT
-3.964 -22.692 -3.964 -21.317 QT
-3.964 -14.114 L
-3.964 -13.489 -3.698 -12.965 QT
-3.432 -12.442 -2.87 -12.442 QT
-2.339 -12.442 -2.081 -12.973 QT
-1.823 -13.504 -1.823 -14.114 QT
-1.823 -16.161 L
-0.885 -16.161 L
-0.885 -14.114 L
-0.885 -13.395 -1.26 -12.747 QT
-1.635 -12.098 -2.268 -11.715 QT
-2.901 -11.333 -3.635 -11.333 QT
-4.573 -11.333 -5.253 -12.059 QT
-5.932 -12.786 -6.01 -13.786 QT
-6.604 -12.583 -7.76 -11.872 QT
-8.917 -11.161 -10.229 -11.161 QT
-11.448 -11.161 -12.628 -11.52 QT
-13.807 -11.879 -14.596 -12.653 QT
-15.385 -13.426 -15.385 -14.661 QT
cp
-12.792 -14.661 M
-12.792 -13.536 -11.964 -12.77 QT
-11.135 -12.004 -10.01 -12.004 QT
-8.979 -12.004 -8.135 -12.52 QT
-7.292 -13.036 -6.792 -13.926 QT
-6.292 -14.817 -6.292 -15.801 QT
-6.292 -19.129 L
-7.745 -19.129 -9.268 -18.653 QT
-10.792 -18.176 -11.792 -17.161 QT
-12.792 -16.145 -12.792 -14.661 QT
cp
f
GR
GS
[0 -0.375 0.375 0 32.35 152.06237] CT
0.149 GC
N
2.661 -11.52 M
2.661 -30.458 L
2.661 -31.317 2.404 -31.7 QT
2.146 -32.083 1.661 -32.169 QT
1.177 -32.254 0.161 -32.254 QT
0.161 -33.379 L
4.896 -33.723 L
4.896 -23.708 L
5.427 -24.301 6.138 -24.747 QT
6.849 -25.192 7.661 -25.426 QT
8.474 -25.661 9.318 -25.661 QT
10.755 -25.661 11.982 -25.083 QT
13.208 -24.504 14.115 -23.489 QT
15.021 -22.473 15.529 -21.153 QT
16.036 -19.833 16.036 -18.426 QT
16.036 -16.489 15.091 -14.817 QT
14.146 -13.145 12.513 -12.153 QT
10.88 -11.161 8.927 -11.161 QT
7.708 -11.161 6.568 -11.786 QT
5.427 -12.411 4.677 -13.442 QT
3.583 -11.52 L
2.661 -11.52 L
cp
4.99 -14.661 M
5.521 -13.489 6.521 -12.747 QT
7.521 -12.004 8.74 -12.004 QT
10.396 -12.004 11.419 -12.958 QT
12.443 -13.911 12.849 -15.364 QT
13.255 -16.817 13.255 -18.426 QT
13.255 -21.129 12.552 -22.536 QT
12.24 -23.161 11.7 -23.692 QT
11.161 -24.223 10.497 -24.528 QT
9.833 -24.833 9.099 -24.833 QT
7.818 -24.833 6.724 -24.153 QT
5.63 -23.473 4.99 -22.333 QT
4.99 -14.661 L
cp
f
GR
GS
[0 -0.375 0.375 0 32.35 152.06237] CT
0.149 GC
N
18.096 -11.52 M
18.096 -12.645 L
19.189 -12.645 19.892 -12.817 QT
20.596 -12.989 20.596 -13.661 QT
20.596 -22.395 L
20.596 -23.629 20.119 -23.911 QT
19.642 -24.192 18.236 -24.192 QT
18.236 -25.317 L
22.846 -25.661 L
22.846 -13.661 L
22.846 -12.989 23.455 -12.817 QT
24.064 -12.645 25.08 -12.645 QT
25.08 -11.52 L
18.096 -11.52 L
cp
19.455 -31.161 M
19.455 -31.864 19.986 -32.395 QT
20.517 -32.926 21.205 -32.926 QT
21.658 -32.926 22.08 -32.692 QT
22.502 -32.458 22.736 -32.036 QT
22.971 -31.614 22.971 -31.161 QT
22.971 -30.473 22.439 -29.942 QT
21.908 -29.411 21.205 -29.411 QT
20.517 -29.411 19.986 -29.942 QT
19.455 -30.473 19.455 -31.161 QT
cp
f
GR
GS
[0 -0.375 0.375 0 32.35 152.06237] CT
0.149 GC
N
26.984 -11.52 M
26.984 -12.645 L
28.078 -12.645 28.781 -12.817 QT
29.484 -12.989 29.484 -13.661 QT
29.484 -30.458 L
29.484 -31.317 29.227 -31.7 QT
28.969 -32.083 28.484 -32.169 QT
28 -32.254 26.984 -32.254 QT
26.984 -33.379 L
31.734 -33.723 L
31.734 -13.661 L
31.734 -12.989 32.438 -12.817 QT
33.141 -12.645 34.219 -12.645 QT
34.219 -11.52 L
26.984 -11.52 L
cp
f
GR
GS
[0 -0.375 0.375 0 32.35 152.06237] CT
0.149 GC
N
35.873 -11.52 M
35.873 -12.645 L
36.967 -12.645 37.67 -12.817 QT
38.373 -12.989 38.373 -13.661 QT
38.373 -22.395 L
38.373 -23.629 37.897 -23.911 QT
37.42 -24.192 36.014 -24.192 QT
36.014 -25.317 L
40.623 -25.661 L
40.623 -13.661 L
40.623 -12.989 41.233 -12.817 QT
41.842 -12.645 42.858 -12.645 QT
42.858 -11.52 L
35.873 -11.52 L
cp
37.233 -31.161 M
37.233 -31.864 37.764 -32.395 QT
38.295 -32.926 38.983 -32.926 QT
39.436 -32.926 39.858 -32.692 QT
40.28 -32.458 40.514 -32.036 QT
40.748 -31.614 40.748 -31.161 QT
40.748 -30.473 40.217 -29.942 QT
39.686 -29.411 38.983 -29.411 QT
38.295 -29.411 37.764 -29.942 QT
37.233 -30.473 37.233 -31.161 QT
cp
f
GR
GS
[0 -0.375 0.375 0 32.35 152.06237] CT
0.149 GC
N
47.044 -15.364 M
47.044 -24.192 L
44.387 -24.192 L
44.387 -25.02 L
46.481 -25.02 47.465 -26.973 QT
48.45 -28.926 48.45 -31.208 QT
49.372 -31.208 L
49.372 -25.317 L
53.887 -25.317 L
53.887 -24.192 L
49.372 -24.192 L
49.372 -15.426 L
49.372 -14.098 49.817 -13.098 QT
50.262 -12.098 51.419 -12.098 QT
52.512 -12.098 52.997 -13.153 QT
53.481 -14.208 53.481 -15.426 QT
53.481 -17.317 L
54.403 -17.317 L
54.403 -15.364 L
54.403 -14.364 54.036 -13.387 QT
53.669 -12.411 52.95 -11.786 QT
52.231 -11.161 51.2 -11.161 QT
49.278 -11.161 48.161 -12.309 QT
47.044 -13.458 47.044 -15.364 QT
cp
f
GR
GS
[0 -0.375 0.375 0 32.35 152.06237] CT
0.149 GC
N
57.537 -6.27 M
58.146 -5.786 58.88 -5.786 QT
60.896 -5.786 62.177 -8.833 QT
63.271 -11.52 L
58.474 -23.27 L
58.177 -23.864 57.568 -24.028 QT
56.958 -24.192 55.943 -24.192 QT
55.943 -25.317 L
62.662 -25.317 L
62.662 -24.192 L
60.896 -24.192 60.896 -23.426 QT
60.896 -23.301 60.927 -23.239 QT
64.49 -14.489 L
67.693 -22.364 L
67.787 -22.614 67.787 -22.911 QT
67.787 -23.301 67.576 -23.59 QT
67.365 -23.879 67.029 -24.036 QT
66.693 -24.192 66.271 -24.192 QT
66.271 -25.317 L
71.583 -25.317 L
71.583 -24.192 L
70.599 -24.192 69.857 -23.739 QT
69.115 -23.286 68.708 -22.395 QT
63.177 -8.833 L
62.74 -7.801 62.154 -6.934 QT
61.568 -6.067 60.724 -5.512 QT
59.88 -4.958 58.88 -4.958 QT
57.708 -4.958 56.826 -5.731 QT
55.943 -6.504 55.943 -7.645 QT
55.943 -8.239 56.349 -8.645 QT
56.755 -9.051 57.349 -9.051 QT
57.755 -9.051 58.076 -8.872 QT
58.396 -8.692 58.576 -8.379 QT
58.755 -8.067 58.755 -7.645 QT
58.755 -7.129 58.412 -6.723 QT
58.068 -6.317 57.537 -6.27 QT
cp
f
GR
GS
[0.375 0 0 0.375 0 0] CT
0 0.447 0.741 RC
1 LJ
1.333 LW
N
146 63 M
147.736 69.61 L
149.472 76.165 L
151.208 82.664 L
152.944 89.108 L
154.68 95.497 L
156.416 101.832 L
158.152 108.112 L
159.888 114.339 L
161.624 120.511 L
163.36 126.631 L
165.096 132.697 L
166.832 138.711 L
168.568 144.672 L
170.304 150.581 L
172.04 156.438 L
173.776 162.244 L
175.512 167.999 L
177.248 173.702 L
178.984 179.355 L
180.72 184.958 L
182.456 190.511 L
184.192 196.014 L
185.928 201.468 L
187.664 206.873 L
189.4 212.228 L
191.136 217.536 L
192.872 222.795 L
194.608 228.006 L
196.344 233.17 L
198.08 238.287 L
199.816 243.356 L
201.552 248.379 L
203.288 253.356 L
205.024 258.287 L
206.76 263.171 L
208.496 268.011 L
210.232 272.805 L
211.968 277.555 L
213.704 282.26 L
215.44 286.92 L
217.176 291.537 L
218.912 296.111 L
220.648 300.641 L
222.384 305.127 L
224.12 309.572 L
225.856 313.974 L
227.592 318.333 L
229.328 322.651 L
231.064 326.928 L
232.8 331.163 L
234.536 335.358 L
236.272 339.512 L
238.008 343.626 L
239.744 347.699 L
241.48 351.733 L
243.216 355.728 L
244.952 359.684 L
246.688 363.601 L
248.424 367.479 L
250.16 371.32 L
251.896 375.122 L
253.632 378.887 L
255.368 382.615 L
257.104 386.306 L
258.84 389.961 L
260.576 393.578 L
262.312 397.161 L
264.048 400.707 L
265.784 404.218 L
267.52 407.694 L
269.256 411.135 L
270.992 414.541 L
272.728 417.914 L
274.464 421.252 L
276.2 424.557 L
277.936 427.829 L
279.672 431.068 L
281.408 434.274 L
283.144 437.448 L
284.88 440.589 L
286.616 443.699 L
288.352 446.778 L
290.088 449.825 L
291.824 452.842 L
293.56 455.828 L
295.296 458.784 L
297.032 461.709 L
298.768 464.606 L
300.504 467.473 L
302.24 470.311 L
303.976 473.12 L
305.712 475.901 L
307.448 478.654 L
309.184 481.379 L
310.92 484.076 L
312.656 486.746 L
314.392 489.39 L
316.128 492.007 L
317.864 494.597 L
319.6 497.162 L
321.336 499.701 L
323.072 502.215 L
324.808 504.703 L
326.544 507.166 L
328.28 509.605 L
330.016 512.018 L
331.752 514.408 L
333.488 516.773 L
335.224 519.115 L
336.96 521.432 L
338.696 523.726 L
340.432 525.997 L
342.168 528.244 L
343.904 530.469 L
345.64 532.67 L
347.376 534.85 L
349.112 537.007 L
350.848 539.142 L
352.584 541.255 L
354.32 543.346 L
356.056 545.416 L
357.792 547.465 L
359.528 549.492 L
361.264 551.499 L
363 553.485 L
364.736 555.451 L
366.472 557.397 L
368.208 559.322 L
369.944 561.228 L
371.68 563.115 L
373.416 564.981 L
375.152 566.829 L
376.888 568.658 L
378.624 570.468 L
380.36 572.26 L
382.096 574.033 L
383.832 575.788 L
385.568 577.525 L
387.304 579.245 L
389.04 580.947 L
390.776 582.632 L
392.512 584.3 L
394.248 585.951 L
395.984 587.585 L
397.72 589.203 L
399.456 590.805 L
401.192 592.391 L
402.928 593.961 L
404.664 595.515 L
406.4 597.054 L
408.136 598.578 L
409.872 600.087 L
411.608 601.581 L
413.344 603.06 L
415.08 604.525 L
416.816 605.975 L
418.552 607.41 L
420.288 608.831 L
422.024 610.238 L
423.76 611.631 L
425.496 613.01 L
427.232 614.375 L
428.968 615.726 L
430.704 617.064 L
432.44 618.388 L
434.176 619.699 L
435.912 620.997 L
437.648 622.281 L
439.384 623.553 L
441.12 624.811 L
442.856 626.057 L
444.592 627.29 L
446.328 628.511 L
448.064 629.719 L
449.8 630.915 L
451.536 632.099 L
453.272 633.271 L
455.008 634.43 L
456.744 635.578 L
458.48 636.715 L
460.216 637.839 L
461.952 638.952 L
463.688 640.054 L
465.424 641.145 L
467.16 642.224 L
468.896 643.293 L
470.632 644.351 L
472.368 645.398 L
474.104 646.434 L
475.84 647.46 L
477.576 648.475 L
479.312 649.48 L
481.048 650.475 L
482.784 651.46 L
484.52 652.435 L
486.256 653.401 L
487.992 654.356 L
489.728 655.302 L
491.464 656.239 L
493.2 657.166 L
494.936 658.084 L
496.672 658.993 L
498.408 659.893 L
500.144 660.784 L
501.88 661.666 L
503.616 662.539 L
505.352 663.404 L
507.088 664.26 L
508.824 665.107 L
510.56 665.945 L
512.296 666.776 L
514.032 667.597 L
515.768 668.411 L
517.504 669.216 L
519.24 670.013 L
520.976 670.802 L
522.712 671.583 L
524.448 672.356 L
526.184 673.121 L
527.92 673.879 L
529.656 674.628 L
531.392 675.37 L
533.128 676.105 L
534.864 676.832 L
536.6 677.551 L
538.336 678.263 L
540.072 678.968 L
541.808 679.666 L
543.544 680.356 L
545.28 681.04 L
547.016 681.716 L
548.752 682.386 L
550.488 683.048 L
552.224 683.704 L
553.96 684.354 L
555.696 684.996 L
557.432 685.632 L
559.168 686.262 L
560.904 686.885 L
562.64 687.502 L
564.376 688.113 L
566.112 688.717 L
567.848 689.316 L
569.584 689.908 L
571.32 690.494 L
573.056 691.075 L
574.792 691.649 L
576.528 692.218 L
578.264 692.782 L
580 693.339 L
581.736 693.892 L
583.472 694.438 L
585.208 694.98 L
586.944 695.516 L
588.68 696.046 L
590.416 696.571 L
592.152 697.091 L
593.888 697.606 L
595.624 698.116 L
597.36 698.62 L
599.096 699.12 L
600.832 699.614 L
602.568 700.104 L
604.304 700.588 L
606.04 701.068 L
607.776 701.543 L
609.512 702.012 L
611.248 702.478 L
612.984 702.938 L
614.72 703.394 L
616.456 703.845 L
618.192 704.291 L
619.928 704.733 L
621.664 705.171 L
623.4 705.604 L
625.136 706.032 L
626.872 706.457 L
628.608 706.877 L
630.344 707.292 L
632.08 707.704 L
633.816 708.111 L
635.552 708.514 L
637.288 708.913 L
639.024 709.307 L
640.76 709.698 L
642.496 710.085 L
644.232 710.468 L
645.968 710.847 L
647.704 711.222 L
649.44 711.593 L
651.176 711.961 L
652.912 712.325 L
654.648 712.685 L
656.384 713.042 L
658.12 713.395 L
659.856 713.744 L
661.592 714.09 L
663.328 714.432 L
665.064 714.771 L
666.8 715.107 L
668.536 715.44 L
670.272 715.769 L
672.008 716.094 L
673.744 716.417 L
675.48 716.736 L
677.216 717.052 L
678.952 717.365 L
680.688 717.675 L
682.424 717.982 L
684.16 718.286 L
685.896 718.586 L
687.632 718.884 L
689.368 719.178 L
691.104 719.47 L
692.84 719.759 L
694.576 720.044 L
696.312 720.327 L
698.048 720.607 L
699.784 720.884 L
701.52 721.158 L
703.256 721.43 L
704.992 721.699 L
706.728 721.965 L
708.464 722.228 L
710.2 722.488 L
711.936 722.746 L
713.672 723.002 L
715.408 723.254 L
717.144 723.504 L
718.88 723.752 L
720.616 723.997 L
722.352 724.239 L
724.088 724.479 L
725.824 724.717 L
727.56 724.952 L
729.296 725.185 L
731.032 725.415 L
732.768 725.643 L
734.504 725.869 L
736.24 726.092 L
737.976 726.313 L
739.712 726.532 L
741.448 726.749 L
743.184 726.964 L
744.92 727.176 L
746.656 727.386 L
748.392 727.594 L
750.128 727.8 L
751.864 728.004 L
753.6 728.206 L
755.336 728.406 L
757.072 728.604 L
758.808 728.8 L
760.544 728.994 L
762.28 729.186 L
764.016 729.376 L
765.752 729.565 L
767.488 729.751 L
769.224 729.936 L
770.96 730.118 L
772.696 730.299 L
774.432 730.478 L
776.168 730.655 L
777.904 730.831 L
779.64 731.004 L
781.376 731.176 L
783.112 731.346 L
784.848 731.515 L
786.584 731.682 L
788.32 731.847 L
790.056 732.01 L
791.792 732.172 L
793.528 732.332 L
795.264 732.49 L
797 732.647 L
798.736 732.802 L
800.472 732.956 L
802.208 733.108 L
803.944 733.258 L
805.68 733.407 L
807.416 733.554 L
809.152 733.7 L
810.888 733.845 L
812.624 733.988 L
814.36 734.129 L
816.096 734.269 L
817.832 734.408 L
819.568 734.545 L
821.304 734.681 L
823.04 734.816 L
824.776 734.949 L
826.512 735.081 L
828.248 735.211 L
829.984 735.34 L
831.72 735.468 L
833.456 735.595 L
835.192 735.72 L
836.928 735.844 L
838.664 735.967 L
840.4 736.089 L
842.136 736.209 L
843.872 736.329 L
845.608 736.447 L
847.344 736.564 L
849.08 736.679 L
850.816 736.794 L
852.552 736.908 L
854.288 737.02 L
856.024 737.131 L
857.76 737.241 L
859.496 737.35 L
861.232 737.458 L
862.968 737.565 L
864.704 737.671 L
866.44 737.775 L
868.176 737.879 L
869.912 737.982 L
871.648 738.083 L
873.384 738.184 L
875.12 738.283 L
876.856 738.381 L
878.592 738.479 L
880.328 738.575 L
882.064 738.671 L
883.8 738.765 L
885.536 738.859 L
887.272 738.951 L
889.008 739.043 L
890.744 739.133 L
892.48 739.223 L
894.216 739.312 L
895.952 739.399 L
897.688 739.486 L
899.424 739.572 L
901.16 739.657 L
902.896 739.742 L
904.632 739.825 L
906.368 739.907 L
908.104 739.989 L
909.84 740.07 L
911.576 740.15 L
913.312 740.229 L
915.048 740.307 L
916.784 740.384 L
918.52 740.461 L
920.256 740.537 L
921.992 740.612 L
923.728 740.686 L
925.464 740.76 L
927.2 740.832 L
928.936 740.904 L
930.672 740.975 L
932.408 741.046 L
934.144 741.116 L
935.88 741.185 L
937.616 741.253 L
939.352 741.32 L
941.088 741.387 L
942.824 741.454 L
944.56 741.519 L
946.296 741.584 L
948.032 741.648 L
949.768 741.712 L
951.504 741.775 L
953.24 741.837 L
954.976 741.899 L
956.712 741.96 L
958.448 742.02 L
960.184 742.08 L
961.92 742.139 L
963.656 742.198 L
965.392 742.256 L
967.128 742.314 L
968.864 742.371 L
970.6 742.427 L
972.336 742.483 L
974.072 742.538 L
975.808 742.593 L
977.544 742.648 L
979.28 742.701 L
981.016 742.755 L
982.752 742.808 L
984.488 742.86 L
986.224 742.912 L
987.96 742.963 L
989.696 743.014 L
991.432 743.065 L
993.168 743.115 L
994.904 743.165 L
996.64 743.214 L
998.376 743.263 L
1000.112 743.312 L
1001.848 743.36 L
1003.584 743.408 L
1005.32 743.455 L
1007.056 743.502 L
1008.792 743.549 L
1010.528 743.595 L
1012.264 743.641 L
1014 743.687 L
S
GR
GS
[0.375 0 0 0.375 0 0] CT
0.851 0.325 0.098 RC
1 LJ
1.333 LW
N
146 63 M
147.736 66.724 L
149.472 70.431 L
151.208 74.12 L
152.944 77.793 L
154.68 81.449 L
156.416 85.089 L
158.152 88.711 L
159.888 92.317 L
161.624 95.906 L
163.36 99.479 L
165.096 103.034 L
166.832 106.574 L
168.568 110.096 L
170.304 113.602 L
172.04 117.092 L
173.776 120.565 L
175.512 124.022 L
177.248 127.463 L
178.984 130.887 L
180.72 134.295 L
182.456 137.687 L
184.192 141.063 L
185.928 144.422 L
187.664 147.766 L
189.4 151.093 L
191.136 154.404 L
192.872 157.7 L
194.608 160.979 L
196.344 164.243 L
198.08 167.49 L
199.816 170.722 L
201.552 173.938 L
203.288 177.138 L
205.024 180.323 L
206.76 183.492 L
208.496 186.645 L
210.232 189.783 L
211.968 192.905 L
213.704 196.012 L
215.44 199.103 L
217.176 202.179 L
218.912 205.239 L
220.648 208.284 L
222.384 211.314 L
224.12 214.328 L
225.856 217.328 L
227.592 220.312 L
229.328 223.281 L
231.064 226.235 L
232.8 229.173 L
234.536 232.097 L
236.272 235.006 L
238.008 237.9 L
239.744 240.779 L
241.48 243.643 L
243.216 246.492 L
244.952 249.326 L
246.688 252.146 L
248.424 254.951 L
250.16 257.741 L
251.896 260.517 L
253.632 263.278 L
255.368 266.024 L
257.104 268.756 L
258.84 271.474 L
260.576 274.177 L
262.312 276.866 L
264.048 279.54 L
265.784 282.2 L
267.52 284.846 L
269.256 287.478 L
270.992 290.095 L
272.728 292.698 L
274.464 295.288 L
276.2 297.863 L
277.936 300.424 L
279.672 302.971 L
281.408 305.504 L
283.144 308.023 L
284.88 310.528 L
286.616 313.02 L
288.352 315.497 L
290.088 317.961 L
291.824 320.411 L
293.56 322.848 L
295.296 325.271 L
297.032 327.68 L
298.768 330.076 L
300.504 332.458 L
302.24 334.827 L
303.976 337.182 L
305.712 339.524 L
307.448 341.853 L
309.184 344.168 L
310.92 346.47 L
312.656 348.759 L
314.392 351.034 L
316.128 353.297 L
317.864 355.546 L
319.6 357.782 L
321.336 360.005 L
323.072 362.216 L
324.808 364.413 L
326.544 366.598 L
328.28 368.769 L
330.016 370.928 L
331.752 373.075 L
333.488 375.209 L
335.224 377.331 L
336.96 379.44 L
338.696 381.537 L
340.432 383.621 L
342.168 385.694 L
343.904 387.754 L
345.64 389.803 L
347.376 391.839 L
349.112 393.864 L
350.848 395.877 L
352.584 397.878 L
354.32 399.867 L
356.056 401.845 L
357.792 403.812 L
359.528 405.767 L
361.264 407.711 L
363 409.643 L
364.736 411.564 L
366.472 413.475 L
368.208 415.374 L
369.944 417.262 L
371.68 419.139 L
373.416 421.006 L
375.152 422.861 L
376.888 424.706 L
378.624 426.541 L
380.36 428.365 L
382.096 430.178 L
383.832 431.981 L
385.568 433.774 L
387.304 435.557 L
389.04 437.329 L
390.776 439.091 L
392.512 440.844 L
394.248 442.586 L
395.984 444.319 L
397.72 446.042 L
399.456 447.755 L
401.192 449.458 L
402.928 451.152 L
404.664 452.836 L
406.4 454.511 L
408.136 456.177 L
409.872 457.833 L
411.608 459.48 L
413.344 461.118 L
415.08 462.747 L
416.816 464.366 L
418.552 465.977 L
420.288 467.578 L
422.024 469.171 L
423.76 470.754 L
425.496 472.329 L
427.232 473.895 L
428.968 475.452 L
430.704 477 L
432.44 478.539 L
434.176 480.07 L
435.912 481.592 L
437.648 483.106 L
439.384 484.611 L
441.12 486.107 L
442.856 487.595 L
444.592 489.075 L
446.328 490.546 L
448.064 492.009 L
449.8 493.463 L
451.536 494.91 L
453.272 496.348 L
455.008 497.778 L
456.744 499.2 L
458.48 500.613 L
460.216 502.019 L
461.952 503.417 L
463.688 504.807 L
465.424 506.189 L
467.16 507.563 L
468.896 508.929 L
470.632 510.288 L
472.368 511.639 L
474.104 512.982 L
475.84 514.317 L
477.576 515.645 L
479.312 516.966 L
481.048 518.279 L
482.784 519.584 L
484.52 520.882 L
486.256 522.173 L
487.992 523.456 L
489.728 524.732 L
491.464 526.001 L
493.2 527.263 L
494.936 528.517 L
496.672 529.764 L
498.408 531.005 L
500.144 532.238 L
501.88 533.464 L
503.616 534.683 L
505.352 535.896 L
507.088 537.101 L
508.824 538.3 L
510.56 539.491 L
512.296 540.676 L
514.032 541.855 L
515.768 543.026 L
517.504 544.191 L
519.24 545.349 L
520.976 546.501 L
522.712 547.646 L
524.448 548.784 L
526.184 549.916 L
527.92 551.042 L
529.656 552.161 L
531.392 553.273 L
533.128 554.38 L
534.864 555.48 L
536.6 556.573 L
538.336 557.661 L
540.072 558.742 L
541.808 559.817 L
543.544 560.886 L
545.28 561.949 L
547.016 563.006 L
548.752 564.056 L
550.488 565.101 L
552.224 566.14 L
553.96 567.173 L
555.696 568.2 L
557.432 569.221 L
559.168 570.236 L
560.904 571.246 L
562.64 572.25 L
564.376 573.248 L
566.112 574.24 L
567.848 575.227 L
569.584 576.208 L
571.32 577.184 L
573.056 578.154 L
574.792 579.119 L
576.528 580.078 L
578.264 581.031 L
580 581.98 L
581.736 582.923 L
583.472 583.861 L
585.208 584.793 L
586.944 585.72 L
588.68 586.642 L
590.416 587.559 L
592.152 588.47 L
593.888 589.377 L
595.624 590.278 L
597.36 591.174 L
599.096 592.065 L
600.832 592.951 L
602.568 593.832 L
604.304 594.708 L
606.04 595.579 L
607.776 596.445 L
609.512 597.306 L
611.248 598.162 L
612.984 599.014 L
614.72 599.86 L
616.456 600.702 L
618.192 601.539 L
619.928 602.371 L
621.664 603.198 L
623.4 604.021 L
625.136 604.839 L
626.872 605.652 L
628.608 606.461 L
630.344 607.265 L
632.08 608.065 L
633.816 608.86 L
635.552 609.65 L
637.288 610.436 L
639.024 611.218 L
640.76 611.995 L
642.496 612.767 L
644.232 613.535 L
645.968 614.299 L
647.704 615.059 L
649.44 615.814 L
651.176 616.565 L
652.912 617.311 L
654.648 618.054 L
656.384 618.792 L
658.12 619.526 L
659.856 620.256 L
661.592 620.981 L
663.328 621.703 L
665.064 622.42 L
666.8 623.134 L
668.536 623.843 L
670.272 624.549 L
672.008 625.25 L
673.744 625.947 L
675.48 626.641 L
677.216 627.33 L
678.952 628.016 L
680.688 628.698 L
682.424 629.376 L
684.16 630.05 L
685.896 630.72 L
687.632 631.386 L
689.368 632.049 L
691.104 632.708 L
692.84 633.363 L
694.576 634.014 L
696.312 634.662 L
698.048 635.306 L
699.784 635.946 L
701.52 636.583 L
703.256 637.216 L
704.992 637.846 L
706.728 638.471 L
708.464 639.094 L
710.2 639.712 L
711.936 640.328 L
713.672 640.939 L
715.408 641.548 L
717.144 642.152 L
718.88 642.754 L
720.616 643.352 L
722.352 643.946 L
724.088 644.537 L
725.824 645.125 L
727.56 645.709 L
729.296 646.29 L
731.032 646.868 L
732.768 647.442 L
734.504 648.013 L
736.24 648.581 L
737.976 649.146 L
739.712 649.707 L
741.448 650.266 L
743.184 650.821 L
744.92 651.373 L
746.656 651.922 L
748.392 652.467 L
750.128 653.01 L
751.864 653.55 L
753.6 654.086 L
755.336 654.62 L
757.072 655.15 L
758.808 655.678 L
760.544 656.202 L
762.28 656.724 L
764.016 657.242 L
765.752 657.758 L
767.488 658.271 L
769.224 658.78 L
770.96 659.287 L
772.696 659.791 L
774.432 660.292 L
776.168 660.791 L
777.904 661.286 L
779.64 661.779 L
781.376 662.269 L
783.112 662.756 L
784.848 663.24 L
786.584 663.722 L
788.32 664.201 L
790.056 664.677 L
791.792 665.15 L
793.528 665.621 L
795.264 666.089 L
797 666.554 L
798.736 667.017 L
800.472 667.477 L
802.208 667.934 L
803.944 668.389 L
805.68 668.841 L
807.416 669.291 L
809.152 669.738 L
810.888 670.183 L
812.624 670.625 L
814.36 671.064 L
816.096 671.501 L
817.832 671.936 L
819.568 672.368 L
821.304 672.798 L
823.04 673.225 L
824.776 673.65 L
826.512 674.072 L
828.248 674.492 L
829.984 674.909 L
831.72 675.325 L
833.456 675.738 L
835.192 676.148 L
836.928 676.556 L
838.664 676.962 L
840.4 677.366 L
842.136 677.767 L
843.872 678.166 L
845.608 678.563 L
847.344 678.958 L
849.08 679.35 L
850.816 679.74 L
852.552 680.128 L
854.288 680.514 L
856.024 680.898 L
857.76 681.279 L
859.496 681.658 L
861.232 682.035 L
862.968 682.41 L
864.704 682.783 L
866.44 683.154 L
868.176 683.523 L
869.912 683.889 L
871.648 684.253 L
873.384 684.616 L
875.12 684.976 L
876.856 685.334 L
878.592 685.69 L
880.328 686.044 L
882.064 686.397 L
883.8 686.747 L
885.536 687.095 L
887.272 687.441 L
889.008 687.785 L
890.744 688.127 L
892.48 688.467 L
894.216 688.805 L
895.952 689.142 L
897.688 689.476 L
899.424 689.808 L
901.16 690.139 L
902.896 690.467 L
904.632 690.794 L
906.368 691.119 L
908.104 691.442 L
909.84 691.763 L
911.576 692.083 L
913.312 692.4 L
915.048 692.716 L
916.784 693.029 L
918.52 693.341 L
920.256 693.652 L
921.992 693.96 L
923.728 694.267 L
925.464 694.572 L
927.2 694.875 L
928.936 695.176 L
930.672 695.476 L
932.408 695.774 L
934.144 696.07 L
935.88 696.365 L
937.616 696.658 L
939.352 696.949 L
941.088 697.239 L
942.824 697.527 L
944.56 697.813 L
946.296 698.098 L
948.032 698.381 L
949.768 698.662 L
951.504 698.942 L
953.24 699.221 L
954.976 699.497 L
956.712 699.772 L
958.448 700.046 L
960.184 700.318 L
961.92 700.588 L
963.656 700.857 L
965.392 701.125 L
967.128 701.391 L
968.864 701.655 L
970.6 701.918 L
972.336 702.18 L
974.072 702.44 L
975.808 702.699 L
977.544 702.956 L
979.28 703.212 L
981.016 703.466 L
982.752 703.719 L
984.488 703.97 L
986.224 704.221 L
987.96 704.469 L
989.696 704.717 L
991.432 704.963 L
993.168 705.208 L
994.904 705.451 L
996.64 705.693 L
998.376 705.934 L
1000.112 706.173 L
1001.848 706.412 L
1003.584 706.648 L
1005.32 706.884 L
1007.056 707.119 L
1008.792 707.352 L
1010.528 707.584 L
1012.264 707.814 L
1014 708.044 L
S
GR
GS
[0.375 0 0 0.375 0 0] CT
1 GC
N
987 191 M
987 90 L
567 90 L
567 191 L
cp
f
GR
GS
[0.375 0 0 0.375 247.875 45.375] CT
N
0.813 5.453 M
0.813 5.281 0.828 5.219 QT
5.094 -11.891 L
5.219 -12.313 5.555 -12.563 QT
5.891 -12.813 6.313 -12.813 QT
6.688 -12.813 6.938 -12.594 QT
7.188 -12.375 7.188 -12.016 QT
7.188 -11.922 7.18 -11.875 QT
7.172 -11.828 7.172 -11.766 QT
5.453 -4.984 L
5.172 -3.781 5.172 -2.906 QT
5.172 -1.828 5.68 -1.133 QT
6.188 -0.438 7.219 -0.438 QT
9.328 -0.438 10.938 -3.078 QT
10.953 -3.094 10.953 -3.109 QT
10.953 -3.125 10.953 -3.156 QT
13.063 -11.563 L
13.156 -11.953 13.508 -12.227 QT
13.859 -12.5 14.281 -12.5 QT
14.609 -12.5 14.875 -12.273 QT
15.141 -12.047 15.141 -11.688 QT
15.141 -11.516 15.109 -11.453 QT
13.031 -3.094 L
12.813 -2.281 12.813 -1.688 QT
12.813 -0.438 13.672 -0.438 QT
14.578 -0.438 15.031 -1.555 QT
15.484 -2.672 15.828 -4.266 QT
15.891 -4.438 16.078 -4.438 QT
16.406 -4.438 L
16.531 -4.438 16.609 -4.344 QT
16.688 -4.25 16.688 -4.156 QT
16.172 -2.125 15.57 -0.898 QT
14.969 0.328 13.609 0.328 QT
12.641 0.328 11.898 -0.227 QT
11.156 -0.781 10.938 -1.719 QT
10.203 -0.813 9.234 -0.242 QT
8.266 0.328 7.188 0.328 QT
5.375 0.328 4.344 -0.531 QT
2.875 5.344 L
2.797 5.75 2.453 6.008 QT
2.109 6.266 1.688 6.266 QT
1.328 6.266 1.07 6.039 QT
0.813 5.813 0.813 5.453 QT
cp
f
GR
GS
[0.375 0 0 0.375 254.625 45.375] CT
/Times-Roman 28.8 F
GS
[1 0 0 1 0 0] CT
0 0 moveto 
1 -1 scale
(=4, ) t 
GR
GR
GS
[0.375 0 0 0.375 271.875 45.375] CT
N
5.422 0.328 M
4.141 0.328 3.141 -0.289 QT
2.141 -0.906 1.594 -1.953 QT
1.047 -3 1.047 -4.266 QT
1.047 -5.609 1.656 -7.094 QT
2.266 -8.578 3.32 -9.813 QT
4.375 -11.047 5.703 -11.773 QT
7.031 -12.5 8.438 -12.5 QT
15.75 -12.5 L
16.047 -12.5 16.258 -12.305 QT
16.469 -12.109 16.469 -11.766 QT
16.469 -11.344 16.164 -11.023 QT
15.859 -10.703 15.438 -10.703 QT
11.891 -10.703 L
12.734 -9.453 12.734 -7.688 QT
12.734 -6.234 12.164 -4.82 QT
11.594 -3.406 10.594 -2.234 QT
9.594 -1.063 8.25 -0.367 QT
6.906 0.328 5.422 0.328 QT
cp
5.453 -0.438 M
7.031 -0.438 8.258 -1.68 QT
9.484 -2.922 10.141 -4.711 QT
10.797 -6.5 10.797 -8.031 QT
10.797 -9.281 10.109 -9.992 QT
9.422 -10.703 8.188 -10.703 QT
6.5 -10.703 5.32 -9.57 QT
4.141 -8.438 3.547 -6.727 QT
2.953 -5.016 2.953 -3.422 QT
2.953 -2.188 3.617 -1.313 QT
4.281 -0.438 5.453 -0.438 QT
cp
f
GR
GS
[0.375 0 0 0.375 278.25 50.625] CT
/Times-Roman 23.04 F
GS
[1 0 0 1 0 0] CT
0 0 moveto 
1 -1 scale
(LoRa) t 
GR
GR
GS
[0.375 0 0 0.375 297.75 45.375] CT
/Times-Roman 28.8 F
GS
[1 0 0 1 0 0] CT
0 0 moveto 
1 -1 scale
(=0.2, ) t 
GR
GR
GS
[0.375 0 0 0.375 322.875 45.375] CT
N
/f-654537981{5.422 0.328 M
4.141 0.328 3.141 -0.289 QT
2.141 -0.906 1.594 -1.953 QT
1.047 -3 1.047 -4.266 QT
1.047 -5.609 1.656 -7.094 QT
2.266 -8.578 3.32 -9.813 QT
4.375 -11.047 5.703 -11.773 QT
7.031 -12.5 8.438 -12.5 QT
15.75 -12.5 L
16.047 -12.5 16.258 -12.305 QT
16.469 -12.109 16.469 -11.766 QT
16.469 -11.344 16.164 -11.023 QT
15.859 -10.703 15.438 -10.703 QT
11.891 -10.703 L
12.734 -9.453 12.734 -7.688 QT
12.734 -6.234 12.164 -4.82 QT
11.594 -3.406 10.594 -2.234 QT
9.594 -1.063 8.25 -0.367 QT
6.906 0.328 5.422 0.328 QT
cp
5.453 -0.438 M
7.031 -0.438 8.258 -1.68 QT
9.484 -2.922 10.141 -4.711 QT
10.797 -6.5 10.797 -8.031 QT
10.797 -9.281 10.109 -9.992 QT
9.422 -10.703 8.188 -10.703 QT
6.5 -10.703 5.32 -9.57 QT
4.141 -8.438 3.547 -6.727 QT
2.953 -5.016 2.953 -3.422 QT
2.953 -2.188 3.617 -1.313 QT
4.281 -0.438 5.453 -0.438 QT
cp}def
f-654537981
f
GR
GS
[0.375 0 0 0.375 329.25 50.625] CT
/Times-Roman 23.04 F
GS
[1 0 0 1 0 0] CT
0 0 moveto 
1 -1 scale
(WiFi) t 
GR
GR
GS
[0.375 0 0 0.375 347.25 45.375] CT
/Times-Roman 28.8 F
GS
[1 0 0 1 0 0] CT
0 0 moveto 
1 -1 scale
(=0.2) t 
GR
GR
GS
[0.375 0 0 0.375 0 0] CT
0 0.447 0.741 RC
1 LJ
1.333 LW
N
575 117 M
655 117 L
S
GR
GS
[0.375 0 0 0.375 247.875 63] CT
N
/f1154354020{0.813 5.453 M
0.813 5.281 0.828 5.219 QT
5.094 -11.891 L
5.219 -12.313 5.555 -12.563 QT
5.891 -12.813 6.313 -12.813 QT
6.688 -12.813 6.938 -12.594 QT
7.188 -12.375 7.188 -12.016 QT
7.188 -11.922 7.18 -11.875 QT
7.172 -11.828 7.172 -11.766 QT
5.453 -4.984 L
5.172 -3.781 5.172 -2.906 QT
5.172 -1.828 5.68 -1.133 QT
6.188 -0.438 7.219 -0.438 QT
9.328 -0.438 10.938 -3.078 QT
10.953 -3.094 10.953 -3.109 QT
10.953 -3.125 10.953 -3.156 QT
13.063 -11.563 L
13.156 -11.953 13.508 -12.227 QT
13.859 -12.5 14.281 -12.5 QT
14.609 -12.5 14.875 -12.273 QT
15.141 -12.047 15.141 -11.688 QT
15.141 -11.516 15.109 -11.453 QT
13.031 -3.094 L
12.813 -2.281 12.813 -1.688 QT
12.813 -0.438 13.672 -0.438 QT
14.578 -0.438 15.031 -1.555 QT
15.484 -2.672 15.828 -4.266 QT
15.891 -4.438 16.078 -4.438 QT
16.406 -4.438 L
16.531 -4.438 16.609 -4.344 QT
16.688 -4.25 16.688 -4.156 QT
16.172 -2.125 15.57 -0.898 QT
14.969 0.328 13.609 0.328 QT
12.641 0.328 11.898 -0.227 QT
11.156 -0.781 10.938 -1.719 QT
10.203 -0.813 9.234 -0.242 QT
8.266 0.328 7.188 0.328 QT
5.375 0.328 4.344 -0.531 QT
2.875 5.344 L
2.797 5.75 2.453 6.008 QT
2.109 6.266 1.688 6.266 QT
1.328 6.266 1.07 6.039 QT
0.813 5.813 0.813 5.453 QT
cp}def
f1154354020
f
GR
GS
[0.375 0 0 0.375 254.625 63] CT
/Times-Roman 28.8 F
GS
[1 0 0 1 0 0] CT
0 0 moveto 
1 -1 scale
(=4, ) t 
GR
GR
GS
[0.375 0 0 0.375 271.875 63] CT
N
f-654537981
f
GR
GS
[0.375 0 0 0.375 278.25 68.25] CT
/Times-Roman 23.04 F
GS
[1 0 0 1 0 0] CT
0 0 moveto 
1 -1 scale
(LoRa) t 
GR
GR
GS
[0.375 0 0 0.375 297.75 63] CT
/Times-Roman 28.8 F
GS
[1 0 0 1 0 0] CT
0 0 moveto 
1 -1 scale
(=0.4, ) t 
GR
GR
GS
[0.375 0 0 0.375 322.875 63] CT
N
f-654537981
f
GR
GS
[0.375 0 0 0.375 329.25 68.25] CT
/Times-Roman 23.04 F
GS
[1 0 0 1 0 0] CT
0 0 moveto 
1 -1 scale
(WiFi) t 
GR
GR
GS
[0.375 0 0 0.375 347.25 63] CT
/Times-Roman 28.8 F
GS
[1 0 0 1 0 0] CT
0 0 moveto 
1 -1 scale
(=0.2) t 
GR
GR
GS
[0.375 0 0 0.375 0 0] CT
0.851 0.325 0.098 RC
1 LJ
1.333 LW
N
575 164 M
655 164 L
S
GR
GS
[0.375 0 0 0.375 0 0] CT
0.149 GC
10.0 ML
1.333 LW
N
567 191 M
567 90 L
987 90 L
987 191 L
cp
S
GR
%%Trailer
%%Pages: 1
%%EOF
